%!PS-Adobe-3.0
%%Creator: (MATLAB, The Mathworks, Inc. Version 8.5.0.197613 \(R2015a\). Operating System: Windows 7)
%%Title: ./output/WmIm_05_10/extractedWatermarkCorrelationCoefficient.eps
%%CreationDate: 2015-11-04T23:49:15
%%Pages: (atend)
%%BoundingBox: (atend)
%%LanguageLevel: 3
%%EndComments
%%BeginDefaults
%%EndDefaults
%%BeginProlog
%%EndProlog
%%BeginSetup
%%BeginResource: procset (Apache XML Graphics Std ProcSet) 1.2 0
%%Version: 1.2 0
%%Copyright: (Copyright 2001-2003,2010 The Apache Software Foundation. License terms: http://www.apache.org/licenses/LICENSE-2.0)
/bd{bind def}bind def
/ld{load def}bd
/GR/grestore ld
/M/moveto ld
/LJ/setlinejoin ld
/C/curveto ld
/f/fill ld
/LW/setlinewidth ld
/GC/setgray ld
/t/show ld
/N/newpath ld
/CT/concat ld
/cp/closepath ld
/S/stroke ld
/L/lineto ld
/CC/setcmykcolor ld
/A/ashow ld
/GS/gsave ld
/RC/setrgbcolor ld
/RM/rmoveto ld
/ML/setmiterlimit ld
/re {4 2 roll M
1 index 0 rlineto
0 exch rlineto
neg 0 rlineto
cp } bd
/_ctm matrix def
/_tm matrix def
/BT { _ctm currentmatrix pop matrix _tm copy pop 0 0 moveto } bd
/ET { _ctm setmatrix } bd
/iTm { _ctm setmatrix _tm concat } bd
/Tm { _tm astore pop iTm 0 0 moveto } bd
/ux 0.0 def
/uy 0.0 def
/F {
  /Tp exch def
  /Tf exch def
  Tf findfont Tp scalefont setfont
  /cf Tf def  /cs Tp def
} bd
/ULS {currentpoint /uy exch def /ux exch def} bd
/ULE {
  /Tcx currentpoint pop def
  gsave
  newpath
  cf findfont cs scalefont dup
  /FontMatrix get 0 get /Ts exch def /FontInfo get dup
  /UnderlinePosition get Ts mul /To exch def
  /UnderlineThickness get Ts mul /Tt exch def
  ux uy To add moveto  Tcx uy To add lineto
  Tt setlinewidth stroke
  grestore
} bd
/OLE {
  /Tcx currentpoint pop def
  gsave
  newpath
  cf findfont cs scalefont dup
  /FontMatrix get 0 get /Ts exch def /FontInfo get dup
  /UnderlinePosition get Ts mul /To exch def
  /UnderlineThickness get Ts mul /Tt exch def
  ux uy To add cs add moveto Tcx uy To add cs add lineto
  Tt setlinewidth stroke
  grestore
} bd
/SOE {
  /Tcx currentpoint pop def
  gsave
  newpath
  cf findfont cs scalefont dup
  /FontMatrix get 0 get /Ts exch def /FontInfo get dup
  /UnderlinePosition get Ts mul /To exch def
  /UnderlineThickness get Ts mul /Tt exch def
  ux uy To add cs 10 mul 26 idiv add moveto Tcx uy To add cs 10 mul 26 idiv add lineto
  Tt setlinewidth stroke
  grestore
} bd
/QT {
/Y22 exch store
/X22 exch store
/Y21 exch store
/X21 exch store
currentpoint
/Y21 load 2 mul add 3 div exch
/X21 load 2 mul add 3 div exch
/X21 load 2 mul /X22 load add 3 div
/Y21 load 2 mul /Y22 load add 3 div
/X22 load /Y22 load curveto
} bd
/SSPD {
dup length /d exch dict def
{
/v exch def
/k exch def
currentpagedevice k known {
/cpdv currentpagedevice k get def
v cpdv ne {
/upd false def
/nullv v type /nulltype eq def
/nullcpdv cpdv type /nulltype eq def
nullv nullcpdv or
{
/upd true def
} {
/sametype v type cpdv type eq def
sametype {
v type /arraytype eq {
/vlen v length def
/cpdvlen cpdv length def
vlen cpdvlen eq {
0 1 vlen 1 sub {
/i exch def
/obj v i get def
/cpdobj cpdv i get def
obj cpdobj ne {
/upd true def
exit
} if
} for
} {
/upd true def
} ifelse
} {
v type /dicttype eq {
v {
/dv exch def
/dk exch def
/cpddv cpdv dk get def
dv cpddv ne {
/upd true def
exit
} if
} forall
} {
/upd true def
} ifelse
} ifelse
} if
} ifelse
upd true eq {
d k v put
} if
} if
} if
} forall
d length 0 gt {
d setpagedevice
} if
} bd
%%EndResource
%%BeginResource: procset (Apache XML Graphics EPS ProcSet) 1.0 0
%%Version: 1.0 0
%%Copyright: (Copyright 2002-2003 The Apache Software Foundation. License terms: http://www.apache.org/licenses/LICENSE-2.0)
/BeginEPSF { %def
/b4_Inc_state save def         % Save state for cleanup
/dict_count countdictstack def % Count objects on dict stack
/op_count count 1 sub def      % Count objects on operand stack
userdict begin                 % Push userdict on dict stack
/showpage { } def              % Redefine showpage, { } = null proc
0 setgray 0 setlinecap         % Prepare graphics state
1 setlinewidth 0 setlinejoin
10 setmiterlimit [ ] 0 setdash newpath
/languagelevel where           % If level not equal to 1 then
{pop languagelevel             % set strokeadjust and
1 ne                           % overprint to their defaults.
{false setstrokeadjust false setoverprint
} if
} if
} bd
/EndEPSF { %def
count op_count sub {pop} repeat            % Clean up stacks
countdictstack dict_count sub {end} repeat
b4_Inc_state restore
} bd
%%EndResource
%FOPBeginFontDict
%%IncludeResource: font Courier-Bold
%%IncludeResource: font Helvetica
%%IncludeResource: font Courier-BoldOblique
%%IncludeResource: font Courier-Oblique
%%IncludeResource: font Times-Roman
%%IncludeResource: font Helvetica-BoldOblique
%%IncludeResource: font Helvetica-Bold
%%IncludeResource: font Helvetica-Oblique
%%IncludeResource: font Times-BoldItalic
%%IncludeResource: font Courier
%%IncludeResource: font Times-Italic
%%IncludeResource: font Times-Bold
%%IncludeResource: font Symbol
%%IncludeResource: font ZapfDingbats
%FOPEndFontDict
%%BeginResource: encoding WinAnsiEncoding
/WinAnsiEncoding [
/.notdef /.notdef /.notdef /.notdef /.notdef
/.notdef /.notdef /.notdef /.notdef /.notdef
/.notdef /.notdef /.notdef /.notdef /.notdef
/.notdef /.notdef /.notdef /.notdef /.notdef
/.notdef /.notdef /.notdef /.notdef /.notdef
/.notdef /.notdef /.notdef /.notdef /.notdef
/.notdef /.notdef /space /exclam /quotedbl
/numbersign /dollar /percent /ampersand /quotesingle
/parenleft /parenright /asterisk /plus /comma
/hyphen /period /slash /zero /one
/two /three /four /five /six
/seven /eight /nine /colon /semicolon
/less /equal /greater /question /at
/A /B /C /D /E
/F /G /H /I /J
/K /L /M /N /O
/P /Q /R /S /T
/U /V /W /X /Y
/Z /bracketleft /backslash /bracketright /asciicircum
/underscore /quoteleft /a /b /c
/d /e /f /g /h
/i /j /k /l /m
/n /o /p /q /r
/s /t /u /v /w
/x /y /z /braceleft /bar
/braceright /asciitilde /bullet /Euro /bullet
/quotesinglbase /florin /quotedblbase /ellipsis /dagger
/daggerdbl /circumflex /perthousand /Scaron /guilsinglleft
/OE /bullet /Zcaron /bullet /bullet
/quoteleft /quoteright /quotedblleft /quotedblright /bullet
/endash /emdash /asciitilde /trademark /scaron
/guilsinglright /oe /bullet /zcaron /Ydieresis
/space /exclamdown /cent /sterling /currency
/yen /brokenbar /section /dieresis /copyright
/ordfeminine /guillemotleft /logicalnot /sfthyphen /registered
/macron /degree /plusminus /twosuperior /threesuperior
/acute /mu /paragraph /middot /cedilla
/onesuperior /ordmasculine /guillemotright /onequarter /onehalf
/threequarters /questiondown /Agrave /Aacute /Acircumflex
/Atilde /Adieresis /Aring /AE /Ccedilla
/Egrave /Eacute /Ecircumflex /Edieresis /Igrave
/Iacute /Icircumflex /Idieresis /Eth /Ntilde
/Ograve /Oacute /Ocircumflex /Otilde /Odieresis
/multiply /Oslash /Ugrave /Uacute /Ucircumflex
/Udieresis /Yacute /Thorn /germandbls /agrave
/aacute /acircumflex /atilde /adieresis /aring
/ae /ccedilla /egrave /eacute /ecircumflex
/edieresis /igrave /iacute /icircumflex /idieresis
/eth /ntilde /ograve /oacute /ocircumflex
/otilde /odieresis /divide /oslash /ugrave
/uacute /ucircumflex /udieresis /yacute /thorn
/ydieresis
] def
%%EndResource
%FOPBeginFontReencode
/Courier-Bold findfont
dup length dict begin
  {1 index /FID ne {def} {pop pop} ifelse} forall
  /Encoding WinAnsiEncoding def
  currentdict
end
/Courier-Bold exch definefont pop
/Helvetica findfont
dup length dict begin
  {1 index /FID ne {def} {pop pop} ifelse} forall
  /Encoding WinAnsiEncoding def
  currentdict
end
/Helvetica exch definefont pop
/Courier-BoldOblique findfont
dup length dict begin
  {1 index /FID ne {def} {pop pop} ifelse} forall
  /Encoding WinAnsiEncoding def
  currentdict
end
/Courier-BoldOblique exch definefont pop
/Courier-Oblique findfont
dup length dict begin
  {1 index /FID ne {def} {pop pop} ifelse} forall
  /Encoding WinAnsiEncoding def
  currentdict
end
/Courier-Oblique exch definefont pop
/Times-Roman findfont
dup length dict begin
  {1 index /FID ne {def} {pop pop} ifelse} forall
  /Encoding WinAnsiEncoding def
  currentdict
end
/Times-Roman exch definefont pop
/Helvetica-BoldOblique findfont
dup length dict begin
  {1 index /FID ne {def} {pop pop} ifelse} forall
  /Encoding WinAnsiEncoding def
  currentdict
end
/Helvetica-BoldOblique exch definefont pop
/Helvetica-Bold findfont
dup length dict begin
  {1 index /FID ne {def} {pop pop} ifelse} forall
  /Encoding WinAnsiEncoding def
  currentdict
end
/Helvetica-Bold exch definefont pop
/Helvetica-Oblique findfont
dup length dict begin
  {1 index /FID ne {def} {pop pop} ifelse} forall
  /Encoding WinAnsiEncoding def
  currentdict
end
/Helvetica-Oblique exch definefont pop
/Times-BoldItalic findfont
dup length dict begin
  {1 index /FID ne {def} {pop pop} ifelse} forall
  /Encoding WinAnsiEncoding def
  currentdict
end
/Times-BoldItalic exch definefont pop
/Courier findfont
dup length dict begin
  {1 index /FID ne {def} {pop pop} ifelse} forall
  /Encoding WinAnsiEncoding def
  currentdict
end
/Courier exch definefont pop
/Times-Italic findfont
dup length dict begin
  {1 index /FID ne {def} {pop pop} ifelse} forall
  /Encoding WinAnsiEncoding def
  currentdict
end
/Times-Italic exch definefont pop
/Times-Bold findfont
dup length dict begin
  {1 index /FID ne {def} {pop pop} ifelse} forall
  /Encoding WinAnsiEncoding def
  currentdict
end
/Times-Bold exch definefont pop
%FOPEndFontReencode
%%EndSetup
%%Page: 1 1
%%PageBoundingBox: 0 0 595 842
%%BeginPageSetup
<<
/PageSize [595 842]
/ImagingBBox null
>> setpagedevice
[1 0 0 -1 0 842] CT
%%EndPageSetup
GS
[0.75 0 0 0.75 18 230] CT
0.997 GC
N
0 0 768 576 re
f
GR
GS
[0.75 0 0 0.75 18 230] CT
0.997 GC
N
0 0 768 576 re
f
GR
GS
[0.75 0 0 0.75 18 230] CT
0.997 GC
N
100 513 M
695 513 L
695 43 L
100 43 L
cp
f
GR
GS
[0.75 0 0 0.75 18 230] CT
0 GC
2 setlinecap
10.0 ML
N
100 513 M
695 513 L
S
GR
GS
[0.75 0 0 0.75 18 230] CT
0 GC
2 setlinecap
10.0 ML
N
100 43 M
695 43 L
S
GR
GS
[0.75 0 0 0.75 18 230] CT
0 GC
2 setlinecap
10.0 ML
N
100 513 M
100 507.05 L
S
GR
GS
[0.75 0 0 0.75 18 230] CT
0 GC
2 setlinecap
10.0 ML
N
159.5 513 M
159.5 507.05 L
S
GR
GS
[0.75 0 0 0.75 18 230] CT
0 GC
2 setlinecap
10.0 ML
N
219 513 M
219 507.05 L
S
GR
GS
[0.75 0 0 0.75 18 230] CT
0 GC
2 setlinecap
10.0 ML
N
278.5 513 M
278.5 507.05 L
S
GR
GS
[0.75 0 0 0.75 18 230] CT
0 GC
2 setlinecap
10.0 ML
N
338 513 M
338 507.05 L
S
GR
GS
[0.75 0 0 0.75 18 230] CT
0 GC
2 setlinecap
10.0 ML
N
397.5 513 M
397.5 507.05 L
S
GR
GS
[0.75 0 0 0.75 18 230] CT
0 GC
2 setlinecap
10.0 ML
N
457 513 M
457 507.05 L
S
GR
GS
[0.75 0 0 0.75 18 230] CT
0 GC
2 setlinecap
10.0 ML
N
516.5 513 M
516.5 507.05 L
S
GR
GS
[0.75 0 0 0.75 18 230] CT
0 GC
2 setlinecap
10.0 ML
N
576 513 M
576 507.05 L
S
GR
GS
[0.75 0 0 0.75 18 230] CT
0 GC
2 setlinecap
10.0 ML
N
635.5 513 M
635.5 507.05 L
S
GR
GS
[0.75 0 0 0.75 18 230] CT
0 GC
2 setlinecap
10.0 ML
N
695 513 M
695 507.05 L
S
GR
GS
[0.75 0 0 0.75 18 230] CT
0 GC
2 setlinecap
10.0 ML
N
100 43 M
100 48.95 L
S
GR
GS
[0.75 0 0 0.75 18 230] CT
0 GC
2 setlinecap
10.0 ML
N
159.5 43 M
159.5 48.95 L
S
GR
GS
[0.75 0 0 0.75 18 230] CT
0 GC
2 setlinecap
10.0 ML
N
219 43 M
219 48.95 L
S
GR
GS
[0.75 0 0 0.75 18 230] CT
0 GC
2 setlinecap
10.0 ML
N
278.5 43 M
278.5 48.95 L
S
GR
GS
[0.75 0 0 0.75 18 230] CT
0 GC
2 setlinecap
10.0 ML
N
338 43 M
338 48.95 L
S
GR
GS
[0.75 0 0 0.75 18 230] CT
0 GC
2 setlinecap
10.0 ML
N
397.5 43 M
397.5 48.95 L
S
GR
GS
[0.75 0 0 0.75 18 230] CT
0 GC
2 setlinecap
10.0 ML
N
457 43 M
457 48.95 L
S
GR
GS
[0.75 0 0 0.75 18 230] CT
0 GC
2 setlinecap
10.0 ML
N
516.5 43 M
516.5 48.95 L
S
GR
GS
[0.75 0 0 0.75 18 230] CT
0 GC
2 setlinecap
10.0 ML
N
576 43 M
576 48.95 L
S
GR
GS
[0.75 0 0 0.75 18 230] CT
0 GC
2 setlinecap
10.0 ML
N
635.5 43 M
635.5 48.95 L
S
GR
GS
[0.75 0 0 0.75 18 230] CT
0 GC
2 setlinecap
10.0 ML
N
695 43 M
695 48.95 L
S
GR
GS
[0.75 0 0 0.75 93 618.74998] CT
0 GC
/Helvetica 13 F
GS
[1 0 0 1 0 0] CT
-4 14 moveto 
1 -1 scale
(0) t 
GR
GR
GS
[0.75 0 0 0.75 137.625 618.74998] CT
0 GC
/Helvetica 13 F
GS
[1 0 0 1 0 0] CT
-11 14 moveto 
1 -1 scale
(100) t 
GR
GR
GS
[0.75 0 0 0.75 182.25 618.74998] CT
0 GC
/Helvetica 13 F
GS
[1 0 0 1 0 0] CT
-11 14 moveto 
1 -1 scale
(200) t 
GR
GR
GS
[0.75 0 0 0.75 226.875 618.74998] CT
0 GC
/Helvetica 13 F
GS
[1 0 0 1 0 0] CT
-11 14 moveto 
1 -1 scale
(300) t 
GR
GR
GS
[0.75 0 0 0.75 271.5 618.74998] CT
0 GC
/Helvetica 13 F
GS
[1 0 0 1 0 0] CT
-11 14 moveto 
1 -1 scale
(400) t 
GR
GR
GS
[0.75 0 0 0.75 316.125 618.74998] CT
0 GC
/Helvetica 13 F
GS
[1 0 0 1 0 0] CT
-11 14 moveto 
1 -1 scale
(500) t 
GR
GR
GS
[0.75 0 0 0.75 360.75 618.74998] CT
0 GC
/Helvetica 13 F
GS
[1 0 0 1 0 0] CT
-11 14 moveto 
1 -1 scale
(600) t 
GR
GR
GS
[0.75 0 0 0.75 405.375 618.74998] CT
0 GC
/Helvetica 13 F
GS
[1 0 0 1 0 0] CT
-11 14 moveto 
1 -1 scale
(700) t 
GR
GR
GS
[0.75 0 0 0.75 450 618.74998] CT
0 GC
/Helvetica 13 F
GS
[1 0 0 1 0 0] CT
-11 14 moveto 
1 -1 scale
(800) t 
GR
GR
GS
[0.75 0 0 0.75 494.625 618.74998] CT
0 GC
/Helvetica 13 F
GS
[1 0 0 1 0 0] CT
-11 14 moveto 
1 -1 scale
(900) t 
GR
GR
GS
[0.75 0 0 0.75 539.25 618.74998] CT
0 GC
/Helvetica 13 F
GS
[1 0 0 1 0 0] CT
-14.5 14 moveto 
1 -1 scale
(1000) t 
GR
GR
GS
[0.75 0 0 0.75 18 230] CT
0 GC
2 setlinecap
10.0 ML
N
100 513 M
100 43 L
S
GR
GS
[0.75 0 0 0.75 18 230] CT
0 GC
2 setlinecap
10.0 ML
N
695 513 M
695 43 L
S
GR
GS
[0.75 0 0 0.75 18 230] CT
0 GC
2 setlinecap
10.0 ML
N
100 513 M
105.95 513 L
S
GR
GS
[0.75 0 0 0.75 18 230] CT
0 GC
2 setlinecap
10.0 ML
N
100 434.667 M
105.95 434.667 L
S
GR
GS
[0.75 0 0 0.75 18 230] CT
0 GC
2 setlinecap
10.0 ML
N
100 356.333 M
105.95 356.333 L
S
GR
GS
[0.75 0 0 0.75 18 230] CT
0 GC
2 setlinecap
10.0 ML
N
100 278 M
105.95 278 L
S
GR
GS
[0.75 0 0 0.75 18 230] CT
0 GC
2 setlinecap
10.0 ML
N
100 199.667 M
105.95 199.667 L
S
GR
GS
[0.75 0 0 0.75 18 230] CT
0 GC
2 setlinecap
10.0 ML
N
100 121.333 M
105.95 121.333 L
S
GR
GS
[0.75 0 0 0.75 18 230] CT
0 GC
2 setlinecap
10.0 ML
N
100 43 M
105.95 43 L
S
GR
GS
[0.75 0 0 0.75 18 230] CT
0 GC
2 setlinecap
10.0 ML
N
695 513 M
689.05 513 L
S
GR
GS
[0.75 0 0 0.75 18 230] CT
0 GC
2 setlinecap
10.0 ML
N
695 434.667 M
689.05 434.667 L
S
GR
GS
[0.75 0 0 0.75 18 230] CT
0 GC
2 setlinecap
10.0 ML
N
695 356.333 M
689.05 356.333 L
S
GR
GS
[0.75 0 0 0.75 18 230] CT
0 GC
2 setlinecap
10.0 ML
N
695 278 M
689.05 278 L
S
GR
GS
[0.75 0 0 0.75 18 230] CT
0 GC
2 setlinecap
10.0 ML
N
695 199.667 M
689.05 199.667 L
S
GR
GS
[0.75 0 0 0.75 18 230] CT
0 GC
2 setlinecap
10.0 ML
N
695 121.333 M
689.05 121.333 L
S
GR
GS
[0.75 0 0 0.75 18 230] CT
0 GC
2 setlinecap
10.0 ML
N
695 43 M
689.05 43 L
S
GR
GS
[0.75 0 0 0.75 89 614.75] CT
0 GC
/Helvetica 13 F
GS
[1 0 0 1 0 0] CT
-12 5.5 moveto 
1 -1 scale
(-4) t 
GR
GR
GS
[0.75 0 0 0.75 89 555.99999] CT
0 GC
/Helvetica 13 F
GS
[1 0 0 1 0 0] CT
-12 5.5 moveto 
1 -1 scale
(-2) t 
GR
GR
GS
[0.75 0 0 0.75 89 497.25001] CT
0 GC
/Helvetica 13 F
GS
[1 0 0 1 0 0] CT
-8 5.5 moveto 
1 -1 scale
(0) t 
GR
GR
GS
[0.75 0 0 0.75 89 438.5] CT
0 GC
/Helvetica 13 F
GS
[1 0 0 1 0 0] CT
-8 5.5 moveto 
1 -1 scale
(2) t 
GR
GR
GS
[0.75 0 0 0.75 89 379.75] CT
0 GC
/Helvetica 13 F
GS
[1 0 0 1 0 0] CT
-8 5.5 moveto 
1 -1 scale
(4) t 
GR
GR
GS
[0.75 0 0 0.75 89 321] CT
0 GC
/Helvetica 13 F
GS
[1 0 0 1 0 0] CT
-8 5.5 moveto 
1 -1 scale
(6) t 
GR
GR
GS
[0.75 0 0 0.75 89 262.25] CT
0 GC
/Helvetica 13 F
GS
[1 0 0 1 0 0] CT
-8 5.5 moveto 
1 -1 scale
(8) t 
GR
GR
GS
[0.75 0 0 0.75 18 230] CT
0 GC
2 LJ
N
100.595 364.603 M
101.19 403.063 L
101.785 349.6 L
102.38 370.097 L
102.975 377.439 L
103.57 406.755 L
104.165 363.547 L
104.76 308.667 L
105.355 401.691 L
105.95 351.588 L
106.545 367.043 L
107.14 416.163 L
107.735 333.544 L
108.33 368.838 L
108.925 317.679 L
109.52 366.794 L
110.115 295.768 L
110.71 405.448 L
111.305 378.998 L
111.9 372.358 L
112.495 399.046 L
113.09 416.385 L
113.685 405 L
114.28 405.495 L
114.875 366.711 L
115.47 342.898 L
116.065 312.318 L
116.66 369.871 L
117.255 372.42 L
117.85 341.853 L
118.445 343.486 L
119.04 347.601 L
119.635 341.881 L
120.23 397.238 L
120.825 335.301 L
121.42 306.013 L
122.015 296.897 L
122.61 362.379 L
123.205 357.978 L
123.8 389.319 L
124.395 349.287 L
124.99 347.311 L
125.585 329.677 L
126.18 306.276 L
126.775 279.804 L
127.37 303.335 L
127.965 316.89 L
128.56 414.081 L
129.155 339.622 L
129.75 410.147 L
S
GR
GS
[0.75 0 0 0.75 18 230] CT
0 GC
2 LJ
N
129.75 410.147 M
130.345 405.043 L
130.94 377.847 L
131.535 323.889 L
132.13 387.089 L
132.725 333.668 L
133.32 403.874 L
133.915 373.762 L
134.51 286.861 L
135.105 364.181 L
135.7 303.336 L
136.295 317.038 L
136.89 298.864 L
137.485 305.861 L
138.08 355.223 L
138.675 349.859 L
139.27 390.229 L
139.865 390.393 L
140.46 341.884 L
141.055 404.123 L
141.65 337.986 L
142.245 403.171 L
142.84 332.581 L
143.435 385.393 L
144.03 418.931 L
144.625 350.841 L
145.22 316.56 L
145.815 310.842 L
146.41 376.674 L
147.005 432.471 L
147.6 374.258 L
148.195 346.864 L
148.79 334.802 L
149.385 326.961 L
149.98 419.198 L
150.575 340.18 L
151.17 342.543 L
151.765 345.8 L
152.36 302.579 L
152.955 319.761 L
153.55 350.37 L
154.145 333.672 L
154.74 393.142 L
155.335 378.27 L
155.93 406.19 L
156.525 390.401 L
157.12 337.862 L
157.715 307.347 L
158.31 385.313 L
158.905 379.354 L
S
GR
GS
[0.75 0 0 0.75 18 230] CT
0 GC
2 LJ
N
158.905 379.354 M
159.5 370.24 L
160.095 375.752 L
160.69 352.153 L
161.285 443.627 L
161.88 378.623 L
162.475 377.312 L
163.07 322.508 L
163.665 376.605 L
164.26 330.6 L
164.855 377.843 L
165.45 355.605 L
166.045 373.281 L
166.64 401.13 L
167.235 400.812 L
167.83 417.972 L
168.425 319.852 L
169.02 404.475 L
169.615 382.673 L
170.21 350.673 L
170.805 379.982 L
171.4 372.069 L
171.995 351.989 L
172.59 374.388 L
173.185 403.581 L
173.78 355.349 L
174.375 345.37 L
174.97 402.6 L
175.565 318.278 L
176.16 332.966 L
176.755 317.099 L
177.35 303.845 L
177.945 285.664 L
178.54 356.186 L
179.135 296.225 L
179.73 342.034 L
180.325 397.282 L
180.92 297.914 L
181.515 292.873 L
182.11 348.42 L
182.705 408.955 L
183.3 393.49 L
183.895 335.247 L
184.49 300.068 L
185.085 308.879 L
185.68 405.275 L
186.275 320.965 L
186.87 385.075 L
187.465 333.318 L
188.06 337.959 L
S
GR
GS
[0.75 0 0 0.75 18 230] CT
0 GC
2 LJ
N
188.06 337.959 M
188.655 296.811 L
189.25 308.528 L
189.845 359.478 L
190.44 312.624 L
191.035 378.16 L
191.63 325.616 L
192.225 313.462 L
192.82 326.887 L
193.415 283.062 L
194.01 393.851 L
194.605 337.483 L
195.2 285.134 L
195.795 332.991 L
196.39 332.263 L
196.985 325.176 L
197.58 310.866 L
198.175 318.131 L
198.77 431.618 L
199.365 301.015 L
199.96 349.958 L
200.555 356.614 L
201.15 304.945 L
201.745 395.516 L
202.34 402.22 L
202.935 334.25 L
203.53 384.963 L
204.125 395.857 L
204.72 354.007 L
205.315 405.048 L
205.91 332.431 L
206.505 387.411 L
207.1 302.2 L
207.695 398.118 L
208.29 323.645 L
208.885 283.067 L
209.48 333.46 L
210.075 390.699 L
210.67 378.652 L
211.265 313.277 L
211.86 408.508 L
212.455 374.084 L
213.05 306.76 L
213.645 370.304 L
214.24 304.501 L
214.835 332.691 L
215.43 329.631 L
216.025 416.946 L
216.62 403.078 L
217.215 414.646 L
S
GR
GS
[0.75 0 0 0.75 18 230] CT
0 GC
2 LJ
N
217.215 414.646 M
217.81 324.957 L
218.405 390.35 L
219 344.685 L
219.595 361.299 L
220.19 344.351 L
220.785 358.31 L
221.38 377.826 L
221.975 290.885 L
222.57 354.135 L
223.165 307.727 L
223.76 376.338 L
224.355 390.28 L
224.95 289.073 L
225.545 299.874 L
226.14 355.785 L
226.735 306.601 L
227.33 313.853 L
227.925 378.297 L
228.52 396.186 L
229.115 316.286 L
229.71 396.252 L
230.305 328.079 L
230.9 337.943 L
231.495 388.093 L
232.09 333.109 L
232.685 342.425 L
233.28 295.27 L
233.875 290.108 L
234.47 378.892 L
235.065 291.114 L
235.66 380.657 L
236.255 406.355 L
236.85 363.583 L
237.445 315.185 L
238.04 300.772 L
238.635 340.703 L
239.23 327.03 L
239.825 398.999 L
240.42 426.611 L
241.015 324.64 L
241.61 332.36 L
242.205 391.253 L
242.8 305.179 L
243.395 294.157 L
243.99 365.927 L
244.585 347.459 L
245.18 375.629 L
245.775 363.203 L
246.37 379.173 L
S
GR
GS
[0.75 0 0 0.75 18 230] CT
0 GC
2 LJ
N
246.37 379.173 M
246.965 322.868 L
247.56 376.324 L
248.155 378.833 L
248.75 63.718 L
249.345 355.231 L
249.94 334.942 L
250.535 344.592 L
251.13 393.519 L
251.725 351.089 L
252.32 373.288 L
252.915 324.501 L
253.51 358.895 L
254.105 343.506 L
254.7 316.199 L
255.295 321.518 L
255.89 435.761 L
256.485 324.975 L
257.08 301.827 L
257.675 366.658 L
258.27 397.306 L
258.865 406.421 L
259.46 364.502 L
260.055 351.883 L
260.65 351.551 L
261.245 306.111 L
261.84 398.868 L
262.435 370.246 L
263.03 305.451 L
263.625 363.797 L
264.22 316.513 L
264.815 315.492 L
265.41 361.272 L
266.005 407.868 L
266.6 334.119 L
267.195 305.574 L
267.79 335.55 L
268.385 335.511 L
268.98 313.857 L
269.575 361.093 L
270.17 300.287 L
270.765 305.381 L
271.36 330.579 L
271.955 312.074 L
272.55 373.439 L
273.145 400.618 L
273.74 365.94 L
274.335 333.705 L
274.93 368.849 L
275.525 357.075 L
S
GR
GS
[0.75 0 0 0.75 18 230] CT
0 GC
2 LJ
N
275.525 357.075 M
276.12 412.414 L
276.715 380.369 L
277.31 329.109 L
277.905 327.919 L
278.5 355.454 L
279.095 405.434 L
279.69 350.664 L
280.285 407.944 L
280.88 366.224 L
281.475 414.043 L
282.07 328.271 L
282.665 292.379 L
283.26 354.329 L
283.855 363.89 L
284.45 383.351 L
285.045 332.998 L
285.64 309.967 L
286.235 327.805 L
286.83 423.677 L
287.425 319.522 L
288.02 356.251 L
288.615 332.6 L
289.21 325.165 L
289.805 336.472 L
290.4 374.185 L
290.995 327.112 L
291.59 346.205 L
292.185 379.273 L
292.78 401.135 L
293.375 265.247 L
293.97 326.921 L
294.565 297.496 L
295.16 396.824 L
295.755 345.067 L
296.35 371.27 L
296.945 343.202 L
297.54 338.983 L
298.135 374.431 L
298.73 393.377 L
299.325 324.539 L
299.92 412.317 L
300.515 310.437 L
301.11 354.508 L
301.705 335.08 L
302.3 358.291 L
302.895 329.204 L
303.49 374.646 L
304.085 279.292 L
304.68 327.738 L
S
GR
GS
[0.75 0 0 0.75 18 230] CT
0 GC
2 LJ
N
304.68 327.738 M
305.275 420.917 L
305.87 352.853 L
306.465 375.364 L
307.06 342.547 L
307.655 278.946 L
308.25 318.789 L
308.845 392.109 L
309.44 319.502 L
310.035 398.666 L
310.63 406.663 L
311.225 357.807 L
311.82 313.937 L
312.415 395.395 L
313.01 385.469 L
313.605 358.168 L
314.2 343.405 L
314.795 348.771 L
315.39 344.309 L
315.985 404.776 L
316.58 345.928 L
317.175 417.195 L
317.77 414.636 L
318.365 391.893 L
318.96 324.234 L
319.555 386.444 L
320.15 404.543 L
320.745 375.867 L
321.34 398.668 L
321.935 351.271 L
322.53 408.982 L
323.125 360.49 L
323.72 313.323 L
324.315 344.675 L
324.91 382.485 L
325.505 365.112 L
326.1 391.289 L
326.695 395.526 L
327.29 310.652 L
327.885 385.909 L
328.48 396.048 L
329.075 306.926 L
329.67 395.13 L
330.265 301.05 L
330.86 396.793 L
331.455 385.334 L
332.05 394.326 L
332.645 404.206 L
333.24 417.534 L
333.835 350.742 L
S
GR
GS
[0.75 0 0 0.75 18 230] CT
0 GC
2 LJ
N
333.835 350.742 M
334.43 307.595 L
335.025 337.212 L
335.62 295.712 L
336.215 331.935 L
336.81 299.8 L
337.405 407.829 L
338 421.063 L
338.595 358.381 L
339.19 347.707 L
339.785 418.888 L
340.38 301.673 L
340.975 371.408 L
341.57 342.155 L
342.165 415.995 L
342.76 302.039 L
343.355 348.278 L
343.95 326.384 L
344.545 388.481 L
345.14 388.988 L
345.735 414.648 L
346.33 328.025 L
346.925 383.919 L
347.52 406.616 L
348.115 394.158 L
348.71 418.924 L
349.305 350.352 L
349.9 309.2 L
350.495 377.475 L
351.09 401.526 L
351.685 317.32 L
352.28 370.907 L
352.875 372.656 L
353.47 323.445 L
354.065 412.943 L
354.66 399.728 L
355.255 380.211 L
355.85 418.066 L
356.445 380.026 L
357.04 336.488 L
357.635 338.594 L
358.23 359.759 L
358.825 414.031 L
359.42 396.443 L
360.015 268.526 L
360.61 341.657 L
361.205 371.424 L
361.8 318.049 L
362.395 357.314 L
362.99 338.719 L
S
GR
GS
[0.75 0 0 0.75 18 230] CT
0 GC
2 LJ
N
362.99 338.719 M
363.585 361.154 L
364.18 322.449 L
364.775 348.664 L
365.37 364.455 L
365.965 313.27 L
366.56 310.015 L
367.155 349.507 L
367.75 344.463 L
368.345 387.923 L
368.94 302.553 L
369.535 351.394 L
370.13 320.934 L
370.725 424.937 L
371.32 339.528 L
371.915 353.735 L
372.51 295 L
373.105 372.913 L
373.7 320.782 L
374.295 322.281 L
374.89 313.228 L
375.485 413.295 L
376.08 366.816 L
376.675 411.205 L
377.27 310.688 L
377.865 322.038 L
378.46 350.742 L
379.055 379.463 L
379.65 381.44 L
380.245 294.395 L
380.84 311.259 L
381.435 397.072 L
382.03 362.298 L
382.625 330.627 L
383.22 390.353 L
383.815 357.557 L
384.41 404.968 L
385.005 339.362 L
385.6 348.178 L
386.195 296.558 L
386.79 325.677 L
387.385 301.378 L
387.98 316.948 L
388.575 364.392 L
389.17 330.545 L
389.765 365.954 L
390.36 314.85 L
390.955 410.219 L
391.55 426.115 L
392.145 394.028 L
S
GR
GS
[0.75 0 0 0.75 18 230] CT
0 GC
2 LJ
N
392.145 394.028 M
392.74 384.593 L
393.335 345.272 L
393.93 356.528 L
394.525 413.001 L
395.12 291.557 L
395.715 343.765 L
396.31 334.738 L
396.905 307.543 L
397.5 312.667 L
398.095 373.813 L
398.69 270.78 L
399.285 421.636 L
399.88 304.808 L
400.475 303.816 L
401.07 411.846 L
401.665 333.657 L
402.26 411.296 L
402.855 402.633 L
403.45 322.959 L
404.045 300.607 L
404.64 360.928 L
405.235 280.916 L
405.83 302.304 L
406.425 317.201 L
407.02 311.903 L
407.615 338.761 L
408.21 375.098 L
408.805 381.579 L
409.4 349.781 L
409.995 389.728 L
410.59 347.505 L
411.185 302.279 L
411.78 333.704 L
412.375 388.537 L
412.97 327.631 L
413.565 346.517 L
414.16 321.479 L
414.755 361.214 L
415.35 417.246 L
415.945 387.179 L
416.54 337.992 L
417.135 341.409 L
417.73 381.456 L
418.325 390.582 L
418.92 426.687 L
419.515 405.997 L
420.11 438.164 L
420.705 321.635 L
421.3 335.852 L
S
GR
GS
[0.75 0 0 0.75 18 230] CT
0 GC
2 LJ
N
421.3 335.852 M
421.895 333.252 L
422.49 391.542 L
423.085 363.034 L
423.68 372.965 L
424.275 324.331 L
424.87 347.74 L
425.465 320.47 L
426.06 367.027 L
426.655 361.036 L
427.25 279.216 L
427.845 399.748 L
428.44 389.463 L
429.035 311.146 L
429.63 416.817 L
430.225 406.195 L
430.82 385.419 L
431.415 393.238 L
432.01 310.285 L
432.605 417.6 L
433.2 394.249 L
433.795 301.563 L
434.39 342.646 L
434.985 314.71 L
435.58 376.798 L
436.175 303.758 L
436.77 301.498 L
437.365 360.116 L
437.96 354.829 L
438.555 340.127 L
439.15 330.689 L
439.745 423.33 L
440.34 288.213 L
440.935 401.959 L
441.53 303.507 L
442.125 395.426 L
442.72 289.909 L
443.315 418.473 L
443.91 399.349 L
444.505 313.101 L
445.1 308.698 L
445.695 333.716 L
446.29 396.59 L
446.885 358.764 L
447.48 297.869 L
448.075 380.862 L
448.67 304.768 L
449.265 361.997 L
449.86 375.554 L
450.455 296.944 L
S
GR
GS
[0.75 0 0 0.75 18 230] CT
0 GC
2 LJ
N
450.455 296.944 M
451.05 427.013 L
451.645 330.891 L
452.24 398.464 L
452.835 374.207 L
453.43 333.163 L
454.025 297.775 L
454.62 400.435 L
455.215 360.166 L
455.81 415.325 L
456.405 400.789 L
457 344.317 L
457.595 333.632 L
458.19 385.589 L
458.785 341.371 L
459.38 351.029 L
459.975 302.176 L
460.57 422.247 L
461.165 334.81 L
461.76 391.957 L
462.355 413.686 L
462.95 363.774 L
463.545 320.451 L
464.14 343.472 L
464.735 379.813 L
465.33 357.43 L
465.925 421.506 L
466.52 321.162 L
467.115 308.1 L
467.71 322.232 L
468.305 319.815 L
468.9 320.459 L
469.495 295.723 L
470.09 426.903 L
470.685 316.857 L
471.28 296.917 L
471.875 335.648 L
472.47 382.952 L
473.065 396.321 L
473.66 308.85 L
474.255 299.121 L
474.85 379.661 L
475.445 356.115 L
476.04 418.117 L
476.635 350.322 L
477.23 307.136 L
477.825 426.467 L
478.42 313.842 L
479.015 271.005 L
479.61 314.004 L
S
GR
GS
[0.75 0 0 0.75 18 230] CT
0 GC
2 LJ
N
479.61 314.004 M
480.205 413.009 L
480.8 307.245 L
481.395 347.733 L
481.99 327.287 L
482.585 330.33 L
483.18 345.233 L
483.775 336.443 L
484.37 398.146 L
484.965 402.614 L
485.56 406.385 L
486.155 316.042 L
486.75 362.125 L
487.345 294.854 L
487.94 396.457 L
488.535 291.18 L
489.13 365.952 L
489.725 306.947 L
490.32 399.258 L
490.915 395.767 L
491.51 401.064 L
492.105 343.426 L
492.7 369.987 L
493.295 334.187 L
493.89 365.43 L
494.485 404.26 L
495.08 317.442 L
495.675 417.739 L
496.27 367.804 L
496.865 331.136 L
497.46 366.805 L
498.055 415.207 L
498.65 394.113 L
499.245 367.094 L
499.84 336.449 L
500.435 420.628 L
501.03 363.77 L
501.625 289.311 L
502.22 382.946 L
502.815 271.916 L
503.41 354.09 L
504.005 402.149 L
504.6 307.525 L
505.195 344.715 L
505.79 417.55 L
506.385 414.839 L
506.98 364.651 L
507.575 416.875 L
508.17 297.592 L
508.765 363.396 L
S
GR
GS
[0.75 0 0 0.75 18 230] CT
0 GC
2 LJ
N
508.765 363.396 M
509.36 338.466 L
509.955 355.754 L
510.55 341.717 L
511.145 390.643 L
511.74 349.157 L
512.335 305.454 L
512.93 423.61 L
513.525 426.898 L
514.12 320.585 L
514.715 366.729 L
515.31 369.056 L
515.905 320.078 L
516.5 365.153 L
517.095 277.376 L
517.69 296.344 L
518.285 399.52 L
518.88 303.182 L
519.475 306.036 L
520.07 320.978 L
520.665 373.448 L
521.26 284.877 L
521.855 417.739 L
522.45 373.92 L
523.045 306.721 L
523.64 299.704 L
524.235 394.843 L
524.83 343.303 L
525.425 355.52 L
526.02 396.947 L
526.615 370.472 L
527.21 267.918 L
527.805 358.139 L
528.4 389.283 L
528.995 295.598 L
529.59 344.991 L
530.185 361.975 L
530.78 421.108 L
531.375 292.737 L
531.97 338.373 L
532.565 323.382 L
533.16 282.15 L
533.755 346.744 L
534.35 364.69 L
534.945 348.175 L
535.54 288.27 L
536.135 318.809 L
536.73 334.018 L
537.325 340.62 L
537.92 414.102 L
S
GR
GS
[0.75 0 0 0.75 18 230] CT
0 GC
2 LJ
N
537.92 414.102 M
538.515 324.272 L
539.11 295.021 L
539.705 426.337 L
540.3 424.432 L
540.895 391.727 L
541.49 353.491 L
542.085 303.605 L
542.68 432.46 L
543.275 414.954 L
543.87 312.123 L
544.465 294.284 L
545.06 304.819 L
545.655 313.68 L
546.25 364.851 L
546.845 312.218 L
547.44 302.608 L
548.035 320.309 L
548.63 344.248 L
549.225 399.844 L
549.82 322.309 L
550.415 345.511 L
551.01 386.967 L
551.605 368.458 L
552.2 311.245 L
552.795 405.63 L
553.39 319.395 L
553.985 358.157 L
554.58 417.179 L
555.175 376.829 L
555.77 422.903 L
556.365 331.88 L
556.96 349.213 L
557.555 366.028 L
558.15 380.338 L
558.745 285.783 L
559.34 300.143 L
559.935 402.247 L
560.53 399.336 L
561.125 323.027 L
561.72 436.762 L
562.315 318.923 L
562.91 388.826 L
563.505 400.82 L
564.1 405.884 L
564.695 382.054 L
565.29 359.994 L
565.885 394.944 L
566.48 389.465 L
567.075 288.319 L
S
GR
GS
[0.75 0 0 0.75 18 230] CT
0 GC
2 LJ
N
567.075 288.319 M
567.67 399.363 L
568.265 361.649 L
568.86 394.852 L
569.455 315.686 L
570.05 397.371 L
570.645 386.173 L
571.24 366.819 L
571.835 294.199 L
572.43 361.363 L
573.025 390.131 L
573.62 340.176 L
574.215 294.971 L
574.81 417.129 L
575.405 311.233 L
576 329.786 L
576.595 299.521 L
577.19 373.273 L
577.785 393.225 L
578.38 319.354 L
578.975 350.732 L
579.57 341.552 L
580.165 407.859 L
580.76 280.838 L
581.355 305.436 L
581.95 389.36 L
582.545 416.485 L
583.14 396.934 L
583.735 362.024 L
584.33 299.926 L
584.925 399.065 L
585.52 366.499 L
586.115 380.258 L
586.71 364.381 L
587.305 383.458 L
587.9 373.116 L
588.495 404.456 L
589.09 285.463 L
589.685 284.447 L
590.28 377.884 L
590.875 396.891 L
591.47 362 L
592.065 346.874 L
592.66 311.668 L
593.255 371.425 L
593.85 410.455 L
594.445 319.7 L
595.04 389.101 L
595.635 326.36 L
596.23 412.233 L
S
GR
GS
[0.75 0 0 0.75 18 230] CT
0 GC
2 LJ
N
596.23 412.233 M
596.825 384.78 L
597.42 424.314 L
598.015 395.049 L
598.61 402.902 L
599.205 402.189 L
599.8 293.693 L
600.395 427.562 L
600.99 326.141 L
601.585 367.437 L
602.18 310.837 L
602.775 402.007 L
603.37 323.406 L
603.965 314.44 L
604.56 420.53 L
605.155 414.855 L
605.75 338.065 L
606.345 373.322 L
606.94 371.862 L
607.535 339.844 L
608.13 406.269 L
608.725 375.375 L
609.32 334.103 L
609.915 417.098 L
610.51 384.561 L
611.105 291.419 L
611.7 395.326 L
612.295 348.153 L
612.89 397.185 L
613.485 331.581 L
614.08 298.202 L
614.675 359.514 L
615.27 348.881 L
615.865 408.149 L
616.46 413.548 L
617.055 377.046 L
617.65 407.221 L
618.245 390.295 L
618.84 310.222 L
619.435 337.805 L
620.03 401.719 L
620.625 325.103 L
621.22 318.763 L
621.815 329.365 L
622.41 405.759 L
623.005 383.248 L
623.6 293.841 L
624.195 364.509 L
624.79 308.207 L
625.385 416.283 L
S
GR
GS
[0.75 0 0 0.75 18 230] CT
0 GC
2 LJ
N
625.385 416.283 M
625.98 341.974 L
626.575 354.576 L
627.17 308.43 L
627.765 326.727 L
628.36 425.794 L
628.955 334.954 L
629.55 365.524 L
630.145 315.063 L
630.74 403.889 L
631.335 395.237 L
631.93 323.837 L
632.525 369.462 L
633.12 299.483 L
633.715 344.816 L
634.31 400.84 L
634.905 417.812 L
635.5 312.087 L
636.095 326.053 L
636.69 329.762 L
637.285 357.625 L
637.88 394.365 L
638.475 432.712 L
639.07 376.178 L
639.665 368.871 L
640.26 299.548 L
640.855 373.569 L
641.45 274.374 L
642.045 355.094 L
642.64 364.053 L
643.235 394.597 L
643.83 337.538 L
644.425 332.576 L
645.02 384.926 L
645.615 334.322 L
646.21 370.182 L
646.805 325.595 L
647.4 405.028 L
647.995 315.618 L
648.59 395.149 L
649.185 398.281 L
649.78 354.571 L
650.375 328.738 L
650.97 428.046 L
651.565 400.829 L
652.16 351.546 L
652.755 365.569 L
653.35 302.747 L
653.945 311.545 L
654.54 394.057 L
S
GR
GS
[0.75 0 0 0.75 18 230] CT
0 GC
2 LJ
N
654.54 394.057 M
655.135 367.335 L
655.73 413.833 L
656.325 388.808 L
656.92 338.359 L
657.515 407.153 L
658.11 373.733 L
658.705 387.074 L
659.3 298.814 L
659.895 401.509 L
660.49 418.677 L
661.085 340.22 L
661.68 297.896 L
662.275 389.168 L
662.87 354.364 L
663.465 350.191 L
664.06 407.108 L
664.655 298.347 L
665.25 374.85 L
665.845 337.165 L
666.44 387.278 L
667.035 410.169 L
667.63 399.718 L
668.225 406.027 L
668.82 365.029 L
669.415 322.326 L
670.01 373.944 L
670.605 310.089 L
671.2 407.378 L
671.795 395.613 L
672.39 295.09 L
672.985 393.958 L
673.58 371.177 L
674.175 296.861 L
674.77 322.632 L
675.365 367.726 L
675.96 325.006 L
676.555 362.567 L
677.15 363.552 L
677.745 313.498 L
678.34 313.486 L
678.935 327.735 L
679.53 337.511 L
680.125 382.965 L
680.72 346.345 L
681.315 406.25 L
681.91 374.92 L
682.505 373.748 L
683.1 427.45 L
683.695 301.994 L
S
GR
GS
[0.75 0 0 0.75 18 230] CT
0 GC
2 LJ
N
683.695 301.994 M
684.29 321.95 L
684.885 327.187 L
685.48 303.162 L
686.075 379.499 L
686.67 382.804 L
687.265 382.236 L
687.86 347.472 L
688.455 379.518 L
689.05 277.059 L
689.645 303.786 L
690.24 294.9 L
690.835 301.493 L
691.43 345.322 L
692.025 331.969 L
692.62 393.115 L
693.215 380.19 L
693.81 432.921 L
694.405 319.055 L
695 399.864 L
S
GR
GS
[0.75 0 0 0.75 316.12527 260.18751] CT
0 GC
/Helvetica-Bold 15 F
GS
[1 0 0 1 0 0] CT
-278 -4 moveto 
1 -1 scale
(Original<->Extracted Watermark Correlation Coefficents Alpha:0.5 Position:10) t 
GR
GR
showpage
%%Trailer
%%BoundingBox: 79 210 550 596
%%Pages: 1
%%EOF
