%!PS-Adobe-3.0
%%Creator: (MATLAB, The Mathworks, Inc. Version 8.5.0.197613 \(R2015a\). Operating System: Windows 7)
%%Title: ./output/WmIm_05_10/unrelatedWatermarkCorrelationCoefficient.eps
%%CreationDate: 2015-11-04T23:49:16
%%Pages: (atend)
%%BoundingBox: (atend)
%%LanguageLevel: 3
%%EndComments
%%BeginDefaults
%%EndDefaults
%%BeginProlog
%%EndProlog
%%BeginSetup
%%BeginResource: procset (Apache XML Graphics Std ProcSet) 1.2 0
%%Version: 1.2 0
%%Copyright: (Copyright 2001-2003,2010 The Apache Software Foundation. License terms: http://www.apache.org/licenses/LICENSE-2.0)
/bd{bind def}bind def
/ld{load def}bd
/GR/grestore ld
/M/moveto ld
/LJ/setlinejoin ld
/C/curveto ld
/f/fill ld
/LW/setlinewidth ld
/GC/setgray ld
/t/show ld
/N/newpath ld
/CT/concat ld
/cp/closepath ld
/S/stroke ld
/L/lineto ld
/CC/setcmykcolor ld
/A/ashow ld
/GS/gsave ld
/RC/setrgbcolor ld
/RM/rmoveto ld
/ML/setmiterlimit ld
/re {4 2 roll M
1 index 0 rlineto
0 exch rlineto
neg 0 rlineto
cp } bd
/_ctm matrix def
/_tm matrix def
/BT { _ctm currentmatrix pop matrix _tm copy pop 0 0 moveto } bd
/ET { _ctm setmatrix } bd
/iTm { _ctm setmatrix _tm concat } bd
/Tm { _tm astore pop iTm 0 0 moveto } bd
/ux 0.0 def
/uy 0.0 def
/F {
  /Tp exch def
  /Tf exch def
  Tf findfont Tp scalefont setfont
  /cf Tf def  /cs Tp def
} bd
/ULS {currentpoint /uy exch def /ux exch def} bd
/ULE {
  /Tcx currentpoint pop def
  gsave
  newpath
  cf findfont cs scalefont dup
  /FontMatrix get 0 get /Ts exch def /FontInfo get dup
  /UnderlinePosition get Ts mul /To exch def
  /UnderlineThickness get Ts mul /Tt exch def
  ux uy To add moveto  Tcx uy To add lineto
  Tt setlinewidth stroke
  grestore
} bd
/OLE {
  /Tcx currentpoint pop def
  gsave
  newpath
  cf findfont cs scalefont dup
  /FontMatrix get 0 get /Ts exch def /FontInfo get dup
  /UnderlinePosition get Ts mul /To exch def
  /UnderlineThickness get Ts mul /Tt exch def
  ux uy To add cs add moveto Tcx uy To add cs add lineto
  Tt setlinewidth stroke
  grestore
} bd
/SOE {
  /Tcx currentpoint pop def
  gsave
  newpath
  cf findfont cs scalefont dup
  /FontMatrix get 0 get /Ts exch def /FontInfo get dup
  /UnderlinePosition get Ts mul /To exch def
  /UnderlineThickness get Ts mul /Tt exch def
  ux uy To add cs 10 mul 26 idiv add moveto Tcx uy To add cs 10 mul 26 idiv add lineto
  Tt setlinewidth stroke
  grestore
} bd
/QT {
/Y22 exch store
/X22 exch store
/Y21 exch store
/X21 exch store
currentpoint
/Y21 load 2 mul add 3 div exch
/X21 load 2 mul add 3 div exch
/X21 load 2 mul /X22 load add 3 div
/Y21 load 2 mul /Y22 load add 3 div
/X22 load /Y22 load curveto
} bd
/SSPD {
dup length /d exch dict def
{
/v exch def
/k exch def
currentpagedevice k known {
/cpdv currentpagedevice k get def
v cpdv ne {
/upd false def
/nullv v type /nulltype eq def
/nullcpdv cpdv type /nulltype eq def
nullv nullcpdv or
{
/upd true def
} {
/sametype v type cpdv type eq def
sametype {
v type /arraytype eq {
/vlen v length def
/cpdvlen cpdv length def
vlen cpdvlen eq {
0 1 vlen 1 sub {
/i exch def
/obj v i get def
/cpdobj cpdv i get def
obj cpdobj ne {
/upd true def
exit
} if
} for
} {
/upd true def
} ifelse
} {
v type /dicttype eq {
v {
/dv exch def
/dk exch def
/cpddv cpdv dk get def
dv cpddv ne {
/upd true def
exit
} if
} forall
} {
/upd true def
} ifelse
} ifelse
} if
} ifelse
upd true eq {
d k v put
} if
} if
} if
} forall
d length 0 gt {
d setpagedevice
} if
} bd
%%EndResource
%%BeginResource: procset (Apache XML Graphics EPS ProcSet) 1.0 0
%%Version: 1.0 0
%%Copyright: (Copyright 2002-2003 The Apache Software Foundation. License terms: http://www.apache.org/licenses/LICENSE-2.0)
/BeginEPSF { %def
/b4_Inc_state save def         % Save state for cleanup
/dict_count countdictstack def % Count objects on dict stack
/op_count count 1 sub def      % Count objects on operand stack
userdict begin                 % Push userdict on dict stack
/showpage { } def              % Redefine showpage, { } = null proc
0 setgray 0 setlinecap         % Prepare graphics state
1 setlinewidth 0 setlinejoin
10 setmiterlimit [ ] 0 setdash newpath
/languagelevel where           % If level not equal to 1 then
{pop languagelevel             % set strokeadjust and
1 ne                           % overprint to their defaults.
{false setstrokeadjust false setoverprint
} if
} if
} bd
/EndEPSF { %def
count op_count sub {pop} repeat            % Clean up stacks
countdictstack dict_count sub {end} repeat
b4_Inc_state restore
} bd
%%EndResource
%FOPBeginFontDict
%%IncludeResource: font Courier-Bold
%%IncludeResource: font Helvetica
%%IncludeResource: font Courier-BoldOblique
%%IncludeResource: font Courier-Oblique
%%IncludeResource: font Times-Roman
%%IncludeResource: font Helvetica-BoldOblique
%%IncludeResource: font Helvetica-Bold
%%IncludeResource: font Helvetica-Oblique
%%IncludeResource: font Times-BoldItalic
%%IncludeResource: font Courier
%%IncludeResource: font Times-Italic
%%IncludeResource: font Times-Bold
%%IncludeResource: font Symbol
%%IncludeResource: font ZapfDingbats
%FOPEndFontDict
%%BeginResource: encoding WinAnsiEncoding
/WinAnsiEncoding [
/.notdef /.notdef /.notdef /.notdef /.notdef
/.notdef /.notdef /.notdef /.notdef /.notdef
/.notdef /.notdef /.notdef /.notdef /.notdef
/.notdef /.notdef /.notdef /.notdef /.notdef
/.notdef /.notdef /.notdef /.notdef /.notdef
/.notdef /.notdef /.notdef /.notdef /.notdef
/.notdef /.notdef /space /exclam /quotedbl
/numbersign /dollar /percent /ampersand /quotesingle
/parenleft /parenright /asterisk /plus /comma
/hyphen /period /slash /zero /one
/two /three /four /five /six
/seven /eight /nine /colon /semicolon
/less /equal /greater /question /at
/A /B /C /D /E
/F /G /H /I /J
/K /L /M /N /O
/P /Q /R /S /T
/U /V /W /X /Y
/Z /bracketleft /backslash /bracketright /asciicircum
/underscore /quoteleft /a /b /c
/d /e /f /g /h
/i /j /k /l /m
/n /o /p /q /r
/s /t /u /v /w
/x /y /z /braceleft /bar
/braceright /asciitilde /bullet /Euro /bullet
/quotesinglbase /florin /quotedblbase /ellipsis /dagger
/daggerdbl /circumflex /perthousand /Scaron /guilsinglleft
/OE /bullet /Zcaron /bullet /bullet
/quoteleft /quoteright /quotedblleft /quotedblright /bullet
/endash /emdash /asciitilde /trademark /scaron
/guilsinglright /oe /bullet /zcaron /Ydieresis
/space /exclamdown /cent /sterling /currency
/yen /brokenbar /section /dieresis /copyright
/ordfeminine /guillemotleft /logicalnot /sfthyphen /registered
/macron /degree /plusminus /twosuperior /threesuperior
/acute /mu /paragraph /middot /cedilla
/onesuperior /ordmasculine /guillemotright /onequarter /onehalf
/threequarters /questiondown /Agrave /Aacute /Acircumflex
/Atilde /Adieresis /Aring /AE /Ccedilla
/Egrave /Eacute /Ecircumflex /Edieresis /Igrave
/Iacute /Icircumflex /Idieresis /Eth /Ntilde
/Ograve /Oacute /Ocircumflex /Otilde /Odieresis
/multiply /Oslash /Ugrave /Uacute /Ucircumflex
/Udieresis /Yacute /Thorn /germandbls /agrave
/aacute /acircumflex /atilde /adieresis /aring
/ae /ccedilla /egrave /eacute /ecircumflex
/edieresis /igrave /iacute /icircumflex /idieresis
/eth /ntilde /ograve /oacute /ocircumflex
/otilde /odieresis /divide /oslash /ugrave
/uacute /ucircumflex /udieresis /yacute /thorn
/ydieresis
] def
%%EndResource
%FOPBeginFontReencode
/Courier-Bold findfont
dup length dict begin
  {1 index /FID ne {def} {pop pop} ifelse} forall
  /Encoding WinAnsiEncoding def
  currentdict
end
/Courier-Bold exch definefont pop
/Helvetica findfont
dup length dict begin
  {1 index /FID ne {def} {pop pop} ifelse} forall
  /Encoding WinAnsiEncoding def
  currentdict
end
/Helvetica exch definefont pop
/Courier-BoldOblique findfont
dup length dict begin
  {1 index /FID ne {def} {pop pop} ifelse} forall
  /Encoding WinAnsiEncoding def
  currentdict
end
/Courier-BoldOblique exch definefont pop
/Courier-Oblique findfont
dup length dict begin
  {1 index /FID ne {def} {pop pop} ifelse} forall
  /Encoding WinAnsiEncoding def
  currentdict
end
/Courier-Oblique exch definefont pop
/Times-Roman findfont
dup length dict begin
  {1 index /FID ne {def} {pop pop} ifelse} forall
  /Encoding WinAnsiEncoding def
  currentdict
end
/Times-Roman exch definefont pop
/Helvetica-BoldOblique findfont
dup length dict begin
  {1 index /FID ne {def} {pop pop} ifelse} forall
  /Encoding WinAnsiEncoding def
  currentdict
end
/Helvetica-BoldOblique exch definefont pop
/Helvetica-Bold findfont
dup length dict begin
  {1 index /FID ne {def} {pop pop} ifelse} forall
  /Encoding WinAnsiEncoding def
  currentdict
end
/Helvetica-Bold exch definefont pop
/Helvetica-Oblique findfont
dup length dict begin
  {1 index /FID ne {def} {pop pop} ifelse} forall
  /Encoding WinAnsiEncoding def
  currentdict
end
/Helvetica-Oblique exch definefont pop
/Times-BoldItalic findfont
dup length dict begin
  {1 index /FID ne {def} {pop pop} ifelse} forall
  /Encoding WinAnsiEncoding def
  currentdict
end
/Times-BoldItalic exch definefont pop
/Courier findfont
dup length dict begin
  {1 index /FID ne {def} {pop pop} ifelse} forall
  /Encoding WinAnsiEncoding def
  currentdict
end
/Courier exch definefont pop
/Times-Italic findfont
dup length dict begin
  {1 index /FID ne {def} {pop pop} ifelse} forall
  /Encoding WinAnsiEncoding def
  currentdict
end
/Times-Italic exch definefont pop
/Times-Bold findfont
dup length dict begin
  {1 index /FID ne {def} {pop pop} ifelse} forall
  /Encoding WinAnsiEncoding def
  currentdict
end
/Times-Bold exch definefont pop
%FOPEndFontReencode
%%EndSetup
%%Page: 1 1
%%PageBoundingBox: 0 0 595 842
%%BeginPageSetup
<<
/PageSize [595 842]
/ImagingBBox null
>> setpagedevice
[1 0 0 -1 0 842] CT
%%EndPageSetup
GS
[0.75 0 0 0.75 18 230] CT
0.997 GC
N
0 0 768 576 re
f
GR
GS
[0.75 0 0 0.75 18 230] CT
0.997 GC
N
0 0 768 576 re
f
GR
GS
[0.75 0 0 0.75 18 230] CT
0.997 GC
N
100 513 M
695 513 L
695 43 L
100 43 L
cp
f
GR
GS
[0.75 0 0 0.75 18 230] CT
0 GC
2 setlinecap
10.0 ML
N
100 513 M
695 513 L
S
GR
GS
[0.75 0 0 0.75 18 230] CT
0 GC
2 setlinecap
10.0 ML
N
100 43 M
695 43 L
S
GR
GS
[0.75 0 0 0.75 18 230] CT
0 GC
2 setlinecap
10.0 ML
N
100 513 M
100 507.05 L
S
GR
GS
[0.75 0 0 0.75 18 230] CT
0 GC
2 setlinecap
10.0 ML
N
159.5 513 M
159.5 507.05 L
S
GR
GS
[0.75 0 0 0.75 18 230] CT
0 GC
2 setlinecap
10.0 ML
N
219 513 M
219 507.05 L
S
GR
GS
[0.75 0 0 0.75 18 230] CT
0 GC
2 setlinecap
10.0 ML
N
278.5 513 M
278.5 507.05 L
S
GR
GS
[0.75 0 0 0.75 18 230] CT
0 GC
2 setlinecap
10.0 ML
N
338 513 M
338 507.05 L
S
GR
GS
[0.75 0 0 0.75 18 230] CT
0 GC
2 setlinecap
10.0 ML
N
397.5 513 M
397.5 507.05 L
S
GR
GS
[0.75 0 0 0.75 18 230] CT
0 GC
2 setlinecap
10.0 ML
N
457 513 M
457 507.05 L
S
GR
GS
[0.75 0 0 0.75 18 230] CT
0 GC
2 setlinecap
10.0 ML
N
516.5 513 M
516.5 507.05 L
S
GR
GS
[0.75 0 0 0.75 18 230] CT
0 GC
2 setlinecap
10.0 ML
N
576 513 M
576 507.05 L
S
GR
GS
[0.75 0 0 0.75 18 230] CT
0 GC
2 setlinecap
10.0 ML
N
635.5 513 M
635.5 507.05 L
S
GR
GS
[0.75 0 0 0.75 18 230] CT
0 GC
2 setlinecap
10.0 ML
N
695 513 M
695 507.05 L
S
GR
GS
[0.75 0 0 0.75 18 230] CT
0 GC
2 setlinecap
10.0 ML
N
100 43 M
100 48.95 L
S
GR
GS
[0.75 0 0 0.75 18 230] CT
0 GC
2 setlinecap
10.0 ML
N
159.5 43 M
159.5 48.95 L
S
GR
GS
[0.75 0 0 0.75 18 230] CT
0 GC
2 setlinecap
10.0 ML
N
219 43 M
219 48.95 L
S
GR
GS
[0.75 0 0 0.75 18 230] CT
0 GC
2 setlinecap
10.0 ML
N
278.5 43 M
278.5 48.95 L
S
GR
GS
[0.75 0 0 0.75 18 230] CT
0 GC
2 setlinecap
10.0 ML
N
338 43 M
338 48.95 L
S
GR
GS
[0.75 0 0 0.75 18 230] CT
0 GC
2 setlinecap
10.0 ML
N
397.5 43 M
397.5 48.95 L
S
GR
GS
[0.75 0 0 0.75 18 230] CT
0 GC
2 setlinecap
10.0 ML
N
457 43 M
457 48.95 L
S
GR
GS
[0.75 0 0 0.75 18 230] CT
0 GC
2 setlinecap
10.0 ML
N
516.5 43 M
516.5 48.95 L
S
GR
GS
[0.75 0 0 0.75 18 230] CT
0 GC
2 setlinecap
10.0 ML
N
576 43 M
576 48.95 L
S
GR
GS
[0.75 0 0 0.75 18 230] CT
0 GC
2 setlinecap
10.0 ML
N
635.5 43 M
635.5 48.95 L
S
GR
GS
[0.75 0 0 0.75 18 230] CT
0 GC
2 setlinecap
10.0 ML
N
695 43 M
695 48.95 L
S
GR
GS
[0.75 0 0 0.75 93 618.74998] CT
0 GC
/Helvetica 13 F
GS
[1 0 0 1 0 0] CT
-4 14 moveto 
1 -1 scale
(0) t 
GR
GR
GS
[0.75 0 0 0.75 137.625 618.74998] CT
0 GC
/Helvetica 13 F
GS
[1 0 0 1 0 0] CT
-11 14 moveto 
1 -1 scale
(100) t 
GR
GR
GS
[0.75 0 0 0.75 182.25 618.74998] CT
0 GC
/Helvetica 13 F
GS
[1 0 0 1 0 0] CT
-11 14 moveto 
1 -1 scale
(200) t 
GR
GR
GS
[0.75 0 0 0.75 226.875 618.74998] CT
0 GC
/Helvetica 13 F
GS
[1 0 0 1 0 0] CT
-11 14 moveto 
1 -1 scale
(300) t 
GR
GR
GS
[0.75 0 0 0.75 271.5 618.74998] CT
0 GC
/Helvetica 13 F
GS
[1 0 0 1 0 0] CT
-11 14 moveto 
1 -1 scale
(400) t 
GR
GR
GS
[0.75 0 0 0.75 316.125 618.74998] CT
0 GC
/Helvetica 13 F
GS
[1 0 0 1 0 0] CT
-11 14 moveto 
1 -1 scale
(500) t 
GR
GR
GS
[0.75 0 0 0.75 360.75 618.74998] CT
0 GC
/Helvetica 13 F
GS
[1 0 0 1 0 0] CT
-11 14 moveto 
1 -1 scale
(600) t 
GR
GR
GS
[0.75 0 0 0.75 405.375 618.74998] CT
0 GC
/Helvetica 13 F
GS
[1 0 0 1 0 0] CT
-11 14 moveto 
1 -1 scale
(700) t 
GR
GR
GS
[0.75 0 0 0.75 450 618.74998] CT
0 GC
/Helvetica 13 F
GS
[1 0 0 1 0 0] CT
-11 14 moveto 
1 -1 scale
(800) t 
GR
GR
GS
[0.75 0 0 0.75 494.625 618.74998] CT
0 GC
/Helvetica 13 F
GS
[1 0 0 1 0 0] CT
-11 14 moveto 
1 -1 scale
(900) t 
GR
GR
GS
[0.75 0 0 0.75 539.25 618.74998] CT
0 GC
/Helvetica 13 F
GS
[1 0 0 1 0 0] CT
-14.5 14 moveto 
1 -1 scale
(1000) t 
GR
GR
GS
[0.75 0 0 0.75 18 230] CT
0 GC
2 setlinecap
10.0 ML
N
100 513 M
100 43 L
S
GR
GS
[0.75 0 0 0.75 18 230] CT
0 GC
2 setlinecap
10.0 ML
N
695 513 M
695 43 L
S
GR
GS
[0.75 0 0 0.75 18 230] CT
0 GC
2 setlinecap
10.0 ML
N
100 513 M
105.95 513 L
S
GR
GS
[0.75 0 0 0.75 18 230] CT
0 GC
2 setlinecap
10.0 ML
N
100 466 M
105.95 466 L
S
GR
GS
[0.75 0 0 0.75 18 230] CT
0 GC
2 setlinecap
10.0 ML
N
100 419 M
105.95 419 L
S
GR
GS
[0.75 0 0 0.75 18 230] CT
0 GC
2 setlinecap
10.0 ML
N
100 372 M
105.95 372 L
S
GR
GS
[0.75 0 0 0.75 18 230] CT
0 GC
2 setlinecap
10.0 ML
N
100 325 M
105.95 325 L
S
GR
GS
[0.75 0 0 0.75 18 230] CT
0 GC
2 setlinecap
10.0 ML
N
100 278 M
105.95 278 L
S
GR
GS
[0.75 0 0 0.75 18 230] CT
0 GC
2 setlinecap
10.0 ML
N
100 231 M
105.95 231 L
S
GR
GS
[0.75 0 0 0.75 18 230] CT
0 GC
2 setlinecap
10.0 ML
N
100 184 M
105.95 184 L
S
GR
GS
[0.75 0 0 0.75 18 230] CT
0 GC
2 setlinecap
10.0 ML
N
100 137 M
105.95 137 L
S
GR
GS
[0.75 0 0 0.75 18 230] CT
0 GC
2 setlinecap
10.0 ML
N
100 90 M
105.95 90 L
S
GR
GS
[0.75 0 0 0.75 18 230] CT
0 GC
2 setlinecap
10.0 ML
N
100 43 M
105.95 43 L
S
GR
GS
[0.75 0 0 0.75 18 230] CT
0 GC
2 setlinecap
10.0 ML
N
695 513 M
689.05 513 L
S
GR
GS
[0.75 0 0 0.75 18 230] CT
0 GC
2 setlinecap
10.0 ML
N
695 466 M
689.05 466 L
S
GR
GS
[0.75 0 0 0.75 18 230] CT
0 GC
2 setlinecap
10.0 ML
N
695 419 M
689.05 419 L
S
GR
GS
[0.75 0 0 0.75 18 230] CT
0 GC
2 setlinecap
10.0 ML
N
695 372 M
689.05 372 L
S
GR
GS
[0.75 0 0 0.75 18 230] CT
0 GC
2 setlinecap
10.0 ML
N
695 325 M
689.05 325 L
S
GR
GS
[0.75 0 0 0.75 18 230] CT
0 GC
2 setlinecap
10.0 ML
N
695 278 M
689.05 278 L
S
GR
GS
[0.75 0 0 0.75 18 230] CT
0 GC
2 setlinecap
10.0 ML
N
695 231 M
689.05 231 L
S
GR
GS
[0.75 0 0 0.75 18 230] CT
0 GC
2 setlinecap
10.0 ML
N
695 184 M
689.05 184 L
S
GR
GS
[0.75 0 0 0.75 18 230] CT
0 GC
2 setlinecap
10.0 ML
N
695 137 M
689.05 137 L
S
GR
GS
[0.75 0 0 0.75 18 230] CT
0 GC
2 setlinecap
10.0 ML
N
695 90 M
689.05 90 L
S
GR
GS
[0.75 0 0 0.75 18 230] CT
0 GC
2 setlinecap
10.0 ML
N
695 43 M
689.05 43 L
S
GR
GS
[0.75 0 0 0.75 89 614.75] CT
0 GC
/Helvetica 13 F
GS
[1 0 0 1 0 0] CT
-23 5.5 moveto 
1 -1 scale
(-2.5) t 
GR
GR
GS
[0.75 0 0 0.75 89 579.5] CT
0 GC
/Helvetica 13 F
GS
[1 0 0 1 0 0] CT
-12 5.5 moveto 
1 -1 scale
(-2) t 
GR
GR
GS
[0.75 0 0 0.75 89 544.25] CT
0 GC
/Helvetica 13 F
GS
[1 0 0 1 0 0] CT
-23 5.5 moveto 
1 -1 scale
(-1.5) t 
GR
GR
GS
[0.75 0 0 0.75 89 509] CT
0 GC
/Helvetica 13 F
GS
[1 0 0 1 0 0] CT
-12 5.5 moveto 
1 -1 scale
(-1) t 
GR
GR
GS
[0.75 0 0 0.75 89 473.75] CT
0 GC
/Helvetica 13 F
GS
[1 0 0 1 0 0] CT
-23 5.5 moveto 
1 -1 scale
(-0.5) t 
GR
GR
GS
[0.75 0 0 0.75 89 438.5] CT
0 GC
/Helvetica 13 F
GS
[1 0 0 1 0 0] CT
-8 5.5 moveto 
1 -1 scale
(0) t 
GR
GR
GS
[0.75 0 0 0.75 89 403.25] CT
0 GC
/Helvetica 13 F
GS
[1 0 0 1 0 0] CT
-19 5.5 moveto 
1 -1 scale
(0.5) t 
GR
GR
GS
[0.75 0 0 0.75 89 368] CT
0 GC
/Helvetica 13 F
GS
[1 0 0 1 0 0] CT
-8 5.5 moveto 
1 -1 scale
(1) t 
GR
GR
GS
[0.75 0 0 0.75 89 332.75] CT
0 GC
/Helvetica 13 F
GS
[1 0 0 1 0 0] CT
-19 5.5 moveto 
1 -1 scale
(1.5) t 
GR
GR
GS
[0.75 0 0 0.75 89 297.5] CT
0 GC
/Helvetica 13 F
GS
[1 0 0 1 0 0] CT
-8 5.5 moveto 
1 -1 scale
(2) t 
GR
GR
GS
[0.75 0 0 0.75 89 262.25] CT
0 GC
/Helvetica 13 F
GS
[1 0 0 1 0 0] CT
-19 5.5 moveto 
1 -1 scale
(2.5) t 
GR
GR
GS
[0.75 0 0 0.75 18 230] CT
0 GC
2 LJ
N
100.595 297.846 M
101.19 390.151 L
101.785 261.839 L
102.38 311.032 L
102.975 328.654 L
103.57 399.013 L
104.165 295.314 L
104.76 163.6 L
105.355 386.859 L
105.95 266.61 L
106.545 303.702 L
107.14 421.592 L
107.735 223.304 L
108.33 308.011 L
108.925 185.23 L
109.52 303.105 L
110.115 132.643 L
110.71 395.875 L
111.305 332.395 L
111.9 316.46 L
112.495 380.512 L
113.09 422.124 L
113.685 394.799 L
114.28 395.988 L
114.875 302.907 L
115.47 245.755 L
116.065 172.363 L
116.66 310.491 L
117.255 316.608 L
117.85 243.246 L
118.445 247.167 L
119.04 257.043 L
119.635 243.315 L
120.23 376.17 L
120.825 227.523 L
121.42 157.23 L
122.015 135.353 L
122.61 292.509 L
123.205 281.946 L
123.8 357.165 L
124.395 261.089 L
124.99 256.345 L
125.585 214.025 L
126.18 157.862 L
126.775 94.329 L
127.37 150.805 L
127.965 183.337 L
128.56 416.595 L
129.155 237.893 L
129.75 407.152 L
S
GR
GS
[0.75 0 0 0.75 18 230] CT
0 GC
2 LJ
N
129.75 407.152 M
130.345 394.902 L
130.94 329.633 L
131.535 200.135 L
132.13 351.815 L
132.725 223.604 L
133.32 392.099 L
133.915 319.83 L
134.51 111.265 L
135.105 296.835 L
135.7 150.807 L
136.295 183.691 L
136.89 140.073 L
137.485 156.866 L
138.08 275.334 L
138.675 262.463 L
139.27 359.35 L
139.865 359.743 L
140.46 243.321 L
141.055 392.696 L
141.65 233.966 L
142.245 390.411 L
142.84 220.993 L
143.435 347.743 L
144.03 428.235 L
144.625 264.819 L
145.22 182.545 L
145.815 168.821 L
146.41 326.819 L
147.005 460.729 L
147.6 321.02 L
148.195 255.273 L
148.79 226.325 L
149.385 207.507 L
149.98 428.874 L
150.575 239.231 L
151.17 244.903 L
151.765 252.72 L
152.36 148.988 L
152.955 190.227 L
153.55 263.688 L
154.145 223.613 L
154.74 366.341 L
155.335 330.649 L
155.93 397.657 L
156.525 359.761 L
157.12 233.668 L
157.715 160.434 L
158.31 347.552 L
158.905 333.249 L
S
GR
GS
[0.75 0 0 0.75 18 230] CT
0 GC
2 LJ
N
158.905 333.249 M
159.5 311.376 L
160.095 324.605 L
160.69 267.966 L
161.285 487.504 L
161.88 331.496 L
162.475 328.348 L
163.07 196.82 L
163.665 326.653 L
164.26 216.239 L
164.855 329.623 L
165.45 276.251 L
166.045 318.673 L
166.64 385.511 L
167.235 384.748 L
167.83 425.932 L
168.425 190.446 L
169.02 393.539 L
169.615 341.216 L
170.21 264.416 L
170.805 334.757 L
171.4 315.766 L
171.995 267.574 L
172.59 321.331 L
173.185 391.394 L
173.78 275.639 L
174.375 251.688 L
174.97 389.041 L
175.565 186.668 L
176.16 221.918 L
176.755 183.838 L
177.35 152.027 L
177.945 108.395 L
178.54 277.647 L
179.135 133.739 L
179.73 243.682 L
180.325 376.277 L
180.92 137.793 L
181.515 125.696 L
182.11 259.009 L
182.705 404.291 L
183.3 367.176 L
183.895 227.392 L
184.49 142.963 L
185.085 164.11 L
185.68 395.46 L
186.275 193.116 L
186.87 346.98 L
187.465 222.764 L
188.06 233.902 L
S
GR
GS
[0.75 0 0 0.75 18 230] CT
0 GC
2 LJ
N
188.06 233.902 M
188.655 135.146 L
189.25 163.266 L
189.845 285.548 L
190.44 173.099 L
191.035 330.385 L
191.63 204.279 L
192.225 175.108 L
192.82 207.33 L
193.415 102.15 L
194.01 368.043 L
194.605 232.76 L
195.2 107.122 L
195.795 221.979 L
196.39 220.231 L
196.985 203.224 L
197.58 168.878 L
198.175 186.314 L
198.77 458.683 L
199.365 145.235 L
199.96 262.7 L
200.555 278.675 L
201.15 154.667 L
201.745 372.038 L
202.34 388.128 L
202.935 225 L
203.53 346.712 L
204.125 372.856 L
204.72 272.417 L
205.315 394.916 L
205.91 220.635 L
206.505 352.586 L
207.1 148.08 L
207.695 378.282 L
208.29 199.549 L
208.885 102.161 L
209.48 223.103 L
210.075 360.477 L
210.67 331.564 L
211.265 174.664 L
211.86 403.218 L
212.455 320.602 L
213.05 159.024 L
213.645 311.53 L
214.24 153.604 L
214.835 221.259 L
215.43 213.914 L
216.025 423.471 L
216.62 390.187 L
217.215 417.951 L
S
GR
GS
[0.75 0 0 0.75 18 230] CT
0 GC
2 LJ
N
217.215 417.951 M
217.81 202.696 L
218.405 359.639 L
219 250.043 L
219.595 289.919 L
220.19 249.242 L
220.785 282.745 L
221.38 329.582 L
221.975 120.925 L
222.57 272.723 L
223.165 161.344 L
223.76 326.012 L
224.355 359.471 L
224.95 116.575 L
225.545 142.498 L
226.14 276.685 L
226.735 158.643 L
227.33 176.047 L
227.925 330.714 L
228.52 373.646 L
229.115 181.887 L
229.71 373.804 L
230.305 210.19 L
230.9 233.863 L
231.495 354.223 L
232.09 222.26 L
232.685 244.621 L
233.28 131.447 L
233.875 119.059 L
234.47 332.14 L
235.065 121.474 L
235.66 336.377 L
236.255 398.052 L
236.85 295.398 L
237.445 179.245 L
238.04 144.652 L
238.635 240.488 L
239.23 207.672 L
239.825 380.397 L
240.42 446.666 L
241.015 201.935 L
241.61 220.464 L
242.205 361.807 L
242.8 155.23 L
243.395 128.778 L
243.99 301.025 L
244.585 256.703 L
245.18 324.311 L
245.775 294.487 L
246.37 332.815 L
S
GR
GS
[0.75 0 0 0.75 18 230] CT
0 GC
2 LJ
N
246.37 332.815 M
246.965 197.684 L
247.56 325.978 L
248.155 332 L
248.75 297.846 L
249.345 275.355 L
249.94 226.661 L
250.535 249.822 L
251.13 367.246 L
251.725 265.414 L
252.32 318.692 L
252.915 201.603 L
253.51 284.147 L
254.105 247.214 L
254.7 181.679 L
255.295 194.442 L
255.89 468.626 L
256.485 202.739 L
257.08 147.185 L
257.675 302.78 L
258.27 376.334 L
258.865 398.21 L
259.46 297.605 L
260.055 267.319 L
260.65 266.522 L
261.245 157.467 L
261.84 380.083 L
262.435 311.39 L
263.03 155.883 L
263.625 295.913 L
264.22 182.431 L
264.815 179.981 L
265.41 289.852 L
266.005 401.683 L
266.6 224.685 L
267.195 156.178 L
267.79 228.121 L
268.385 228.026 L
268.98 176.056 L
269.575 289.423 L
270.17 143.49 L
270.765 155.713 L
271.36 216.19 L
271.955 171.777 L
272.55 319.054 L
273.145 384.282 L
273.74 301.056 L
274.335 223.692 L
274.93 308.037 L
275.525 279.781 L
S
GR
GS
[0.75 0 0 0.75 18 230] CT
0 GC
2 LJ
N
275.525 279.781 M
276.12 412.593 L
276.715 335.686 L
277.31 212.661 L
277.905 209.806 L
278.5 275.89 L
279.095 395.841 L
279.69 264.394 L
280.285 401.865 L
280.88 301.737 L
281.475 416.503 L
282.07 210.649 L
282.665 124.509 L
283.26 273.19 L
283.855 296.137 L
284.45 342.842 L
285.045 221.995 L
285.64 166.721 L
286.235 209.532 L
286.83 439.624 L
287.425 189.652 L
288.02 277.801 L
288.615 221.039 L
289.21 203.197 L
289.805 230.332 L
290.4 320.845 L
290.995 207.868 L
291.59 253.691 L
292.185 333.054 L
292.78 385.525 L
293.375 59.393 L
293.97 207.41 L
294.565 136.791 L
295.16 375.178 L
295.755 250.961 L
296.35 313.849 L
296.945 246.486 L
297.54 236.36 L
298.135 321.434 L
298.73 366.904 L
299.325 201.693 L
299.92 412.36 L
300.515 167.85 L
301.11 273.618 L
301.705 226.992 L
302.3 282.698 L
302.895 212.89 L
303.49 321.949 L
304.085 93.101 L
304.68 209.372 L
S
GR
GS
[0.75 0 0 0.75 18 230] CT
0 GC
2 LJ
N
304.68 209.372 M
305.275 433.001 L
305.87 269.648 L
306.465 323.673 L
307.06 244.913 L
307.655 92.27 L
308.25 187.894 L
308.845 363.863 L
309.44 189.604 L
310.035 379.598 L
310.63 398.792 L
311.225 281.537 L
311.82 176.248 L
312.415 371.747 L
313.01 347.925 L
313.605 282.403 L
314.2 246.972 L
314.795 259.85 L
315.39 249.142 L
315.985 394.263 L
316.58 253.028 L
317.175 424.069 L
317.77 417.926 L
318.365 363.344 L
318.96 200.962 L
319.555 350.266 L
320.15 393.703 L
320.745 324.881 L
321.34 379.602 L
321.935 265.85 L
322.53 404.358 L
323.125 287.976 L
323.72 174.774 L
324.315 250.021 L
324.91 340.764 L
325.505 299.069 L
326.1 361.893 L
326.695 372.062 L
327.29 168.364 L
327.885 348.982 L
328.48 373.316 L
329.075 159.421 L
329.67 371.113 L
330.265 145.319 L
330.86 375.103 L
331.455 347.601 L
332.05 369.181 L
332.645 392.893 L
333.24 424.881 L
333.835 264.581 L
S
GR
GS
[0.75 0 0 0.75 18 230] CT
0 GC
2 LJ
N
333.835 264.581 M
334.43 161.027 L
335.025 232.109 L
335.62 132.509 L
336.215 219.444 L
336.81 142.32 L
337.405 401.589 L
338 433.352 L
338.595 282.915 L
339.19 257.296 L
339.785 428.131 L
340.38 146.814 L
340.975 314.179 L
341.57 243.971 L
342.165 421.187 L
342.76 147.695 L
343.355 258.667 L
343.95 206.122 L
344.545 355.154 L
345.14 356.372 L
345.735 417.956 L
346.33 210.061 L
346.925 344.204 L
347.52 398.678 L
348.115 368.779 L
348.71 428.217 L
349.305 263.645 L
349.9 164.879 L
350.495 328.741 L
351.09 386.461 L
351.685 184.369 L
352.28 312.976 L
352.875 317.173 L
353.47 199.068 L
354.065 413.862 L
354.66 382.148 L
355.255 335.306 L
355.85 426.158 L
356.445 334.862 L
357.04 230.371 L
357.635 235.425 L
358.23 286.221 L
358.825 416.475 L
359.42 374.263 L
360.015 67.262 L
360.61 242.777 L
361.205 314.218 L
361.8 186.118 L
362.395 280.353 L
362.99 235.726 L
S
GR
GS
[0.75 0 0 0.75 18 230] CT
0 GC
2 LJ
N
362.99 235.726 M
363.585 289.57 L
364.18 196.677 L
364.775 259.595 L
365.37 297.493 L
365.965 174.648 L
366.56 166.836 L
367.155 261.617 L
367.75 249.512 L
368.345 353.816 L
368.94 148.927 L
369.535 266.145 L
370.13 193.041 L
370.725 442.648 L
371.32 237.667 L
371.915 271.765 L
372.51 130.8 L
373.105 317.792 L
373.7 192.676 L
374.295 196.274 L
374.89 174.547 L
375.485 414.708 L
376.08 303.158 L
376.675 409.692 L
377.27 168.45 L
377.865 195.69 L
378.46 264.581 L
379.055 333.512 L
379.65 338.255 L
380.245 129.347 L
380.84 169.821 L
381.435 375.773 L
382.03 292.314 L
382.625 216.305 L
383.22 359.646 L
383.815 280.937 L
384.41 394.724 L
385.005 237.27 L
385.6 258.427 L
386.195 134.54 L
386.79 204.425 L
387.385 146.106 L
387.98 183.476 L
388.575 297.342 L
389.17 216.107 L
389.765 301.088 L
390.36 178.441 L
390.955 407.325 L
391.55 445.476 L
392.145 368.467 L
S
GR
GS
[0.75 0 0 0.75 18 230] CT
0 GC
2 LJ
N
392.145 368.467 M
392.74 345.824 L
393.335 251.452 L
393.93 278.468 L
394.525 414.002 L
395.12 122.537 L
395.715 247.837 L
396.31 226.171 L
396.905 160.903 L
397.5 173.201 L
398.095 319.951 L
398.69 72.671 L
399.285 434.726 L
399.88 154.338 L
400.475 151.959 L
401.07 411.231 L
401.665 223.576 L
402.26 409.911 L
402.855 389.119 L
403.45 197.901 L
404.045 144.257 L
404.64 289.027 L
405.235 96.999 L
405.83 148.329 L
406.425 184.083 L
407.02 171.366 L
407.615 235.826 L
408.21 323.035 L
408.805 338.59 L
409.4 262.275 L
409.995 358.147 L
410.59 256.811 L
411.185 148.27 L
411.78 223.69 L
412.375 355.289 L
412.97 209.114 L
413.565 254.44 L
414.16 194.349 L
414.755 289.713 L
415.35 424.19 L
415.945 352.029 L
416.54 233.98 L
417.135 242.183 L
417.73 338.295 L
418.325 360.196 L
418.92 446.848 L
419.515 397.194 L
420.11 474.394 L
420.705 194.723 L
421.3 228.845 L
S
GR
GS
[0.75 0 0 0.75 18 230] CT
0 GC
2 LJ
N
421.3 228.845 M
421.895 222.606 L
422.49 362.501 L
423.085 294.08 L
423.68 317.915 L
424.275 201.195 L
424.87 257.377 L
425.465 191.928 L
426.06 303.665 L
426.655 289.287 L
427.25 92.918 L
427.845 382.194 L
428.44 357.511 L
429.035 169.55 L
429.63 423.161 L
430.225 397.668 L
430.82 347.805 L
431.415 366.572 L
432.01 167.484 L
432.605 425.041 L
433.2 368.997 L
433.795 146.55 L
434.39 245.15 L
434.985 178.105 L
435.58 327.115 L
436.175 151.818 L
436.77 146.394 L
437.365 287.079 L
437.96 274.39 L
438.555 239.104 L
439.15 216.454 L
439.745 438.793 L
440.34 114.511 L
440.935 387.501 L
441.53 151.216 L
442.125 371.823 L
442.72 118.581 L
443.315 427.136 L
443.91 381.237 L
444.505 174.242 L
445.1 163.676 L
445.695 223.718 L
446.29 374.616 L
446.885 283.833 L
447.48 137.685 L
448.075 336.868 L
448.67 154.242 L
449.265 291.593 L
449.86 324.129 L
450.455 135.465 L
S
GR
GS
[0.75 0 0 0.75 18 230] CT
0 GC
2 LJ
N
450.455 135.465 M
451.05 447.632 L
451.645 216.939 L
452.24 379.114 L
452.835 320.896 L
453.43 222.39 L
454.025 137.46 L
454.62 383.844 L
455.215 287.199 L
455.81 419.58 L
456.405 384.693 L
457 249.161 L
457.595 223.516 L
458.19 348.213 L
458.785 242.091 L
459.38 265.27 L
459.975 148.022 L
460.57 436.192 L
461.165 226.344 L
461.76 363.497 L
462.355 415.646 L
462.95 295.858 L
463.545 191.883 L
464.14 247.133 L
464.735 334.352 L
465.33 280.632 L
465.925 434.415 L
466.52 193.588 L
467.115 162.24 L
467.71 196.157 L
468.305 190.355 L
468.9 191.902 L
469.495 132.536 L
470.09 447.368 L
470.685 183.257 L
471.28 135.4 L
471.875 228.356 L
472.47 341.885 L
473.065 373.97 L
473.66 164.041 L
474.255 140.69 L
474.85 333.987 L
475.445 277.475 L
476.04 426.28 L
476.635 263.572 L
477.23 159.927 L
477.825 446.322 L
478.42 176.021 L
479.015 73.212 L
479.61 176.409 L
S
GR
GS
[0.75 0 0 0.75 18 230] CT
0 GC
2 LJ
N
479.61 176.409 M
480.205 414.022 L
480.8 160.187 L
481.395 257.359 L
481.99 208.289 L
482.585 215.591 L
483.18 251.359 L
483.775 230.263 L
484.37 378.349 L
484.965 389.074 L
485.56 398.125 L
486.155 181.3 L
486.75 291.899 L
487.345 130.45 L
487.94 374.297 L
488.535 121.633 L
489.13 301.086 L
489.725 159.472 L
490.32 381.02 L
490.915 372.641 L
491.51 385.354 L
492.105 247.022 L
492.7 310.768 L
493.295 224.85 L
493.89 299.831 L
494.485 393.024 L
495.08 184.661 L
495.675 425.373 L
496.27 305.53 L
496.865 217.527 L
497.46 303.132 L
498.055 419.297 L
498.65 368.671 L
499.245 303.825 L
499.84 230.277 L
500.435 432.306 L
501.03 295.847 L
501.625 117.145 L
502.22 341.872 L
502.815 75.399 L
503.41 272.617 L
504.005 387.958 L
504.6 160.859 L
505.195 250.117 L
505.79 424.92 L
506.385 418.414 L
506.98 297.962 L
507.575 423.301 L
508.17 137.021 L
508.765 294.95 L
S
GR
GS
[0.75 0 0 0.75 18 230] CT
0 GC
2 LJ
N
508.765 294.95 M
509.36 235.117 L
509.955 276.609 L
510.55 242.92 L
511.145 360.343 L
511.74 260.776 L
512.335 155.889 L
512.93 439.464 L
513.525 447.354 L
514.12 192.205 L
514.715 302.949 L
515.31 308.535 L
515.905 190.987 L
516.5 299.166 L
517.095 88.504 L
517.69 134.026 L
518.285 381.648 L
518.88 150.437 L
519.475 157.286 L
520.07 193.147 L
520.665 319.074 L
521.26 106.504 L
521.855 425.374 L
522.45 320.209 L
523.045 158.93 L
523.64 142.089 L
524.235 370.422 L
524.83 246.726 L
525.425 276.048 L
526.02 375.473 L
526.615 311.932 L
527.21 65.802 L
527.805 282.335 L
528.4 357.078 L
528.995 132.235 L
529.59 250.779 L
530.185 291.541 L
530.78 433.458 L
531.375 125.369 L
531.97 234.895 L
532.565 198.917 L
533.16 99.96 L
533.755 254.985 L
534.35 298.056 L
534.945 258.419 L
535.54 114.648 L
536.135 187.941 L
536.73 224.444 L
537.325 240.288 L
537.92 416.646 L
S
GR
GS
[0.75 0 0 0.75 18 230] CT
0 GC
2 LJ
N
537.92 416.646 M
538.515 201.053 L
539.11 130.85 L
539.705 446.01 L
540.3 441.438 L
540.895 362.946 L
541.49 271.178 L
542.085 151.451 L
542.68 460.705 L
543.275 418.689 L
543.87 171.895 L
544.465 129.082 L
545.06 154.365 L
545.655 175.632 L
546.25 298.442 L
546.845 172.124 L
547.44 149.059 L
548.035 191.543 L
548.63 248.995 L
549.225 382.426 L
549.82 196.343 L
550.415 252.025 L
551.01 351.52 L
551.605 307.098 L
552.2 169.788 L
552.795 396.311 L
553.39 189.348 L
553.985 282.378 L
554.58 424.029 L
555.175 327.191 L
555.77 437.766 L
556.365 219.312 L
556.96 260.912 L
557.555 301.268 L
558.15 335.612 L
558.745 108.679 L
559.34 143.144 L
559.935 388.192 L
560.53 381.205 L
561.125 198.066 L
561.72 471.029 L
562.315 188.216 L
562.91 355.982 L
563.505 384.768 L
564.1 396.921 L
564.695 339.73 L
565.29 286.786 L
565.885 370.666 L
566.48 357.515 L
567.075 114.765 L
S
GR
GS
[0.75 0 0 0.75 18 230] CT
0 GC
2 LJ
N
567.075 114.765 M
567.67 381.271 L
568.265 290.758 L
568.86 370.445 L
569.455 180.446 L
570.05 376.491 L
570.645 349.615 L
571.24 303.166 L
571.835 128.877 L
572.43 290.07 L
573.025 359.115 L
573.62 239.222 L
574.215 130.731 L
574.81 423.911 L
575.405 169.759 L
576 214.287 L
576.595 141.651 L
577.19 318.654 L
577.785 366.541 L
578.38 189.25 L
578.975 264.556 L
579.57 242.526 L
580.165 401.661 L
580.76 96.81 L
581.355 155.847 L
581.95 357.265 L
582.545 422.363 L
583.14 375.442 L
583.735 291.659 L
584.33 142.624 L
584.925 380.555 L
585.52 302.399 L
586.115 335.418 L
586.71 297.314 L
587.305 343.1 L
587.9 318.279 L
588.495 393.494 L
589.09 107.912 L
589.685 105.473 L
590.28 329.722 L
590.875 375.337 L
591.47 291.599 L
592.065 255.298 L
592.66 170.804 L
593.255 314.219 L
593.85 407.892 L
594.445 190.079 L
595.04 356.643 L
595.635 206.065 L
596.23 412.159 L
S
GR
GS
[0.75 0 0 0.75 18 230] CT
0 GC
2 LJ
N
596.23 412.159 M
596.825 346.273 L
597.42 441.153 L
598.015 370.916 L
598.61 389.766 L
599.205 388.053 L
599.8 127.664 L
600.395 448.948 L
600.99 205.538 L
601.585 304.648 L
602.18 168.808 L
602.775 387.618 L
603.37 198.973 L
603.965 177.455 L
604.56 432.071 L
605.155 418.451 L
605.75 234.157 L
606.345 318.773 L
606.94 315.269 L
607.535 238.425 L
608.13 397.846 L
608.725 323.7 L
609.32 224.646 L
609.915 423.835 L
610.51 345.746 L
611.105 122.207 L
611.7 371.583 L
612.295 258.367 L
612.89 376.044 L
613.485 218.594 L
614.08 138.485 L
614.675 285.633 L
615.27 260.116 L
615.865 402.358 L
616.46 415.315 L
617.055 327.71 L
617.65 400.131 L
618.245 359.509 L
618.84 167.332 L
619.435 233.531 L
620.03 386.926 L
620.625 203.046 L
621.22 187.83 L
621.815 213.275 L
622.41 396.622 L
623.005 342.596 L
623.6 128.019 L
624.195 297.622 L
624.79 162.497 L
625.385 421.879 L
S
GR
GS
[0.75 0 0 0.75 18 230] CT
0 GC
2 LJ
N
625.385 421.879 M
625.98 243.538 L
626.575 273.783 L
627.17 163.032 L
627.765 206.945 L
628.36 444.706 L
628.955 226.689 L
629.55 300.058 L
630.145 178.952 L
630.74 392.134 L
631.335 371.369 L
631.93 200.008 L
632.525 309.509 L
633.12 141.56 L
633.715 250.358 L
634.31 384.817 L
634.905 425.548 L
635.5 171.808 L
636.095 205.328 L
636.69 214.229 L
637.285 281.099 L
637.88 369.277 L
638.475 461.308 L
639.07 325.628 L
639.665 308.09 L
640.26 141.715 L
640.855 319.366 L
641.45 81.298 L
642.045 275.026 L
642.64 296.526 L
643.235 369.832 L
643.83 232.89 L
644.425 220.983 L
645.02 346.623 L
645.615 225.172 L
646.21 311.238 L
646.805 204.229 L
647.4 394.867 L
647.995 180.282 L
648.59 371.158 L
649.185 378.675 L
649.78 273.771 L
650.375 211.771 L
650.97 450.109 L
651.565 384.789 L
652.16 266.511 L
652.755 300.166 L
653.35 149.392 L
653.945 170.508 L
654.54 368.537 L
S
GR
GS
[0.75 0 0 0.75 18 230] CT
0 GC
2 LJ
N
654.54 368.537 M
655.135 304.404 L
655.73 415.999 L
656.325 355.939 L
656.92 234.863 L
657.515 399.967 L
658.11 319.759 L
658.705 351.777 L
659.3 139.953 L
659.895 386.422 L
660.49 427.626 L
661.085 239.328 L
661.68 137.75 L
662.275 356.804 L
662.87 273.275 L
663.465 263.26 L
664.06 399.859 L
664.655 138.833 L
665.25 322.441 L
665.845 231.996 L
666.44 352.268 L
667.035 407.206 L
667.63 382.123 L
668.225 397.265 L
668.82 298.869 L
669.415 196.381 L
670.01 320.265 L
670.605 167.013 L
671.2 400.508 L
671.795 372.271 L
672.39 131.015 L
672.985 368.298 L
673.58 313.625 L
674.175 135.267 L
674.77 197.116 L
675.365 305.342 L
675.96 202.815 L
676.555 292.961 L
677.15 295.324 L
677.745 175.196 L
678.34 175.166 L
678.935 209.365 L
679.53 232.827 L
680.125 341.915 L
680.72 254.029 L
681.315 397.8 L
681.91 322.608 L
682.505 319.794 L
683.1 448.681 L
683.695 147.585 L
S
GR
GS
[0.75 0 0 0.75 18 230] CT
0 GC
2 LJ
N
683.695 147.585 M
684.29 195.479 L
684.885 208.048 L
685.48 150.388 L
686.075 333.597 L
686.67 341.529 L
687.265 340.166 L
687.86 256.733 L
688.455 333.642 L
689.05 87.742 L
689.645 151.888 L
690.24 130.559 L
690.835 146.383 L
691.43 251.572 L
692.025 219.525 L
692.62 366.276 L
693.215 335.257 L
693.81 461.811 L
694.405 188.533 L
695 382.474 L
S
GR
GS
[0.75 0 0 0.75 316.12527 260.18749] CT
0 GC
/Helvetica-Bold 15 F
GS
[1 0 0 1 0 0] CT
-284.5 -4 moveto 
1 -1 scale
(Unrelated<->Extracted Watermark Correlation Coefficents Alpha:0.5 Position:10) t 
GR
GR
showpage
%%Trailer
%%BoundingBox: 71 210 550 596
%%Pages: 1
%%EOF
