%!PS-Adobe-3.0
%%Creator: (MATLAB, The Mathworks, Inc. Version 8.5.0.197613 \(R2015a\). Operating System: Windows 7)
%%Title: ./output/WmIm_05_1000/extractedWatermarkCorrelationCoefficient.eps
%%CreationDate: 2015-11-04T23:49:19
%%Pages: (atend)
%%BoundingBox: (atend)
%%LanguageLevel: 3
%%EndComments
%%BeginDefaults
%%EndDefaults
%%BeginProlog
%%EndProlog
%%BeginSetup
%%BeginResource: procset (Apache XML Graphics Std ProcSet) 1.2 0
%%Version: 1.2 0
%%Copyright: (Copyright 2001-2003,2010 The Apache Software Foundation. License terms: http://www.apache.org/licenses/LICENSE-2.0)
/bd{bind def}bind def
/ld{load def}bd
/GR/grestore ld
/M/moveto ld
/LJ/setlinejoin ld
/C/curveto ld
/f/fill ld
/LW/setlinewidth ld
/GC/setgray ld
/t/show ld
/N/newpath ld
/CT/concat ld
/cp/closepath ld
/S/stroke ld
/L/lineto ld
/CC/setcmykcolor ld
/A/ashow ld
/GS/gsave ld
/RC/setrgbcolor ld
/RM/rmoveto ld
/ML/setmiterlimit ld
/re {4 2 roll M
1 index 0 rlineto
0 exch rlineto
neg 0 rlineto
cp } bd
/_ctm matrix def
/_tm matrix def
/BT { _ctm currentmatrix pop matrix _tm copy pop 0 0 moveto } bd
/ET { _ctm setmatrix } bd
/iTm { _ctm setmatrix _tm concat } bd
/Tm { _tm astore pop iTm 0 0 moveto } bd
/ux 0.0 def
/uy 0.0 def
/F {
  /Tp exch def
  /Tf exch def
  Tf findfont Tp scalefont setfont
  /cf Tf def  /cs Tp def
} bd
/ULS {currentpoint /uy exch def /ux exch def} bd
/ULE {
  /Tcx currentpoint pop def
  gsave
  newpath
  cf findfont cs scalefont dup
  /FontMatrix get 0 get /Ts exch def /FontInfo get dup
  /UnderlinePosition get Ts mul /To exch def
  /UnderlineThickness get Ts mul /Tt exch def
  ux uy To add moveto  Tcx uy To add lineto
  Tt setlinewidth stroke
  grestore
} bd
/OLE {
  /Tcx currentpoint pop def
  gsave
  newpath
  cf findfont cs scalefont dup
  /FontMatrix get 0 get /Ts exch def /FontInfo get dup
  /UnderlinePosition get Ts mul /To exch def
  /UnderlineThickness get Ts mul /Tt exch def
  ux uy To add cs add moveto Tcx uy To add cs add lineto
  Tt setlinewidth stroke
  grestore
} bd
/SOE {
  /Tcx currentpoint pop def
  gsave
  newpath
  cf findfont cs scalefont dup
  /FontMatrix get 0 get /Ts exch def /FontInfo get dup
  /UnderlinePosition get Ts mul /To exch def
  /UnderlineThickness get Ts mul /Tt exch def
  ux uy To add cs 10 mul 26 idiv add moveto Tcx uy To add cs 10 mul 26 idiv add lineto
  Tt setlinewidth stroke
  grestore
} bd
/QT {
/Y22 exch store
/X22 exch store
/Y21 exch store
/X21 exch store
currentpoint
/Y21 load 2 mul add 3 div exch
/X21 load 2 mul add 3 div exch
/X21 load 2 mul /X22 load add 3 div
/Y21 load 2 mul /Y22 load add 3 div
/X22 load /Y22 load curveto
} bd
/SSPD {
dup length /d exch dict def
{
/v exch def
/k exch def
currentpagedevice k known {
/cpdv currentpagedevice k get def
v cpdv ne {
/upd false def
/nullv v type /nulltype eq def
/nullcpdv cpdv type /nulltype eq def
nullv nullcpdv or
{
/upd true def
} {
/sametype v type cpdv type eq def
sametype {
v type /arraytype eq {
/vlen v length def
/cpdvlen cpdv length def
vlen cpdvlen eq {
0 1 vlen 1 sub {
/i exch def
/obj v i get def
/cpdobj cpdv i get def
obj cpdobj ne {
/upd true def
exit
} if
} for
} {
/upd true def
} ifelse
} {
v type /dicttype eq {
v {
/dv exch def
/dk exch def
/cpddv cpdv dk get def
dv cpddv ne {
/upd true def
exit
} if
} forall
} {
/upd true def
} ifelse
} ifelse
} if
} ifelse
upd true eq {
d k v put
} if
} if
} if
} forall
d length 0 gt {
d setpagedevice
} if
} bd
%%EndResource
%%BeginResource: procset (Apache XML Graphics EPS ProcSet) 1.0 0
%%Version: 1.0 0
%%Copyright: (Copyright 2002-2003 The Apache Software Foundation. License terms: http://www.apache.org/licenses/LICENSE-2.0)
/BeginEPSF { %def
/b4_Inc_state save def         % Save state for cleanup
/dict_count countdictstack def % Count objects on dict stack
/op_count count 1 sub def      % Count objects on operand stack
userdict begin                 % Push userdict on dict stack
/showpage { } def              % Redefine showpage, { } = null proc
0 setgray 0 setlinecap         % Prepare graphics state
1 setlinewidth 0 setlinejoin
10 setmiterlimit [ ] 0 setdash newpath
/languagelevel where           % If level not equal to 1 then
{pop languagelevel             % set strokeadjust and
1 ne                           % overprint to their defaults.
{false setstrokeadjust false setoverprint
} if
} if
} bd
/EndEPSF { %def
count op_count sub {pop} repeat            % Clean up stacks
countdictstack dict_count sub {end} repeat
b4_Inc_state restore
} bd
%%EndResource
%FOPBeginFontDict
%%IncludeResource: font Courier-Bold
%%IncludeResource: font Helvetica
%%IncludeResource: font Courier-BoldOblique
%%IncludeResource: font Courier-Oblique
%%IncludeResource: font Times-Roman
%%IncludeResource: font Helvetica-BoldOblique
%%IncludeResource: font Helvetica-Bold
%%IncludeResource: font Helvetica-Oblique
%%IncludeResource: font Times-BoldItalic
%%IncludeResource: font Courier
%%IncludeResource: font Times-Italic
%%IncludeResource: font Times-Bold
%%IncludeResource: font Symbol
%%IncludeResource: font ZapfDingbats
%FOPEndFontDict
%%BeginResource: encoding WinAnsiEncoding
/WinAnsiEncoding [
/.notdef /.notdef /.notdef /.notdef /.notdef
/.notdef /.notdef /.notdef /.notdef /.notdef
/.notdef /.notdef /.notdef /.notdef /.notdef
/.notdef /.notdef /.notdef /.notdef /.notdef
/.notdef /.notdef /.notdef /.notdef /.notdef
/.notdef /.notdef /.notdef /.notdef /.notdef
/.notdef /.notdef /space /exclam /quotedbl
/numbersign /dollar /percent /ampersand /quotesingle
/parenleft /parenright /asterisk /plus /comma
/hyphen /period /slash /zero /one
/two /three /four /five /six
/seven /eight /nine /colon /semicolon
/less /equal /greater /question /at
/A /B /C /D /E
/F /G /H /I /J
/K /L /M /N /O
/P /Q /R /S /T
/U /V /W /X /Y
/Z /bracketleft /backslash /bracketright /asciicircum
/underscore /quoteleft /a /b /c
/d /e /f /g /h
/i /j /k /l /m
/n /o /p /q /r
/s /t /u /v /w
/x /y /z /braceleft /bar
/braceright /asciitilde /bullet /Euro /bullet
/quotesinglbase /florin /quotedblbase /ellipsis /dagger
/daggerdbl /circumflex /perthousand /Scaron /guilsinglleft
/OE /bullet /Zcaron /bullet /bullet
/quoteleft /quoteright /quotedblleft /quotedblright /bullet
/endash /emdash /asciitilde /trademark /scaron
/guilsinglright /oe /bullet /zcaron /Ydieresis
/space /exclamdown /cent /sterling /currency
/yen /brokenbar /section /dieresis /copyright
/ordfeminine /guillemotleft /logicalnot /sfthyphen /registered
/macron /degree /plusminus /twosuperior /threesuperior
/acute /mu /paragraph /middot /cedilla
/onesuperior /ordmasculine /guillemotright /onequarter /onehalf
/threequarters /questiondown /Agrave /Aacute /Acircumflex
/Atilde /Adieresis /Aring /AE /Ccedilla
/Egrave /Eacute /Ecircumflex /Edieresis /Igrave
/Iacute /Icircumflex /Idieresis /Eth /Ntilde
/Ograve /Oacute /Ocircumflex /Otilde /Odieresis
/multiply /Oslash /Ugrave /Uacute /Ucircumflex
/Udieresis /Yacute /Thorn /germandbls /agrave
/aacute /acircumflex /atilde /adieresis /aring
/ae /ccedilla /egrave /eacute /ecircumflex
/edieresis /igrave /iacute /icircumflex /idieresis
/eth /ntilde /ograve /oacute /ocircumflex
/otilde /odieresis /divide /oslash /ugrave
/uacute /ucircumflex /udieresis /yacute /thorn
/ydieresis
] def
%%EndResource
%FOPBeginFontReencode
/Courier-Bold findfont
dup length dict begin
  {1 index /FID ne {def} {pop pop} ifelse} forall
  /Encoding WinAnsiEncoding def
  currentdict
end
/Courier-Bold exch definefont pop
/Helvetica findfont
dup length dict begin
  {1 index /FID ne {def} {pop pop} ifelse} forall
  /Encoding WinAnsiEncoding def
  currentdict
end
/Helvetica exch definefont pop
/Courier-BoldOblique findfont
dup length dict begin
  {1 index /FID ne {def} {pop pop} ifelse} forall
  /Encoding WinAnsiEncoding def
  currentdict
end
/Courier-BoldOblique exch definefont pop
/Courier-Oblique findfont
dup length dict begin
  {1 index /FID ne {def} {pop pop} ifelse} forall
  /Encoding WinAnsiEncoding def
  currentdict
end
/Courier-Oblique exch definefont pop
/Times-Roman findfont
dup length dict begin
  {1 index /FID ne {def} {pop pop} ifelse} forall
  /Encoding WinAnsiEncoding def
  currentdict
end
/Times-Roman exch definefont pop
/Helvetica-BoldOblique findfont
dup length dict begin
  {1 index /FID ne {def} {pop pop} ifelse} forall
  /Encoding WinAnsiEncoding def
  currentdict
end
/Helvetica-BoldOblique exch definefont pop
/Helvetica-Bold findfont
dup length dict begin
  {1 index /FID ne {def} {pop pop} ifelse} forall
  /Encoding WinAnsiEncoding def
  currentdict
end
/Helvetica-Bold exch definefont pop
/Helvetica-Oblique findfont
dup length dict begin
  {1 index /FID ne {def} {pop pop} ifelse} forall
  /Encoding WinAnsiEncoding def
  currentdict
end
/Helvetica-Oblique exch definefont pop
/Times-BoldItalic findfont
dup length dict begin
  {1 index /FID ne {def} {pop pop} ifelse} forall
  /Encoding WinAnsiEncoding def
  currentdict
end
/Times-BoldItalic exch definefont pop
/Courier findfont
dup length dict begin
  {1 index /FID ne {def} {pop pop} ifelse} forall
  /Encoding WinAnsiEncoding def
  currentdict
end
/Courier exch definefont pop
/Times-Italic findfont
dup length dict begin
  {1 index /FID ne {def} {pop pop} ifelse} forall
  /Encoding WinAnsiEncoding def
  currentdict
end
/Times-Italic exch definefont pop
/Times-Bold findfont
dup length dict begin
  {1 index /FID ne {def} {pop pop} ifelse} forall
  /Encoding WinAnsiEncoding def
  currentdict
end
/Times-Bold exch definefont pop
%FOPEndFontReencode
%%EndSetup
%%Page: 1 1
%%PageBoundingBox: 0 0 595 842
%%BeginPageSetup
<<
/PageSize [595 842]
/ImagingBBox null
>> setpagedevice
[1 0 0 -1 0 842] CT
%%EndPageSetup
GS
[0.75 0 0 0.75 18 230] CT
0.997 GC
N
0 0 768 576 re
f
GR
GS
[0.75 0 0 0.75 18 230] CT
0.997 GC
N
0 0 768 576 re
f
GR
GS
[0.75 0 0 0.75 18 230] CT
0.997 GC
N
100 513 M
695 513 L
695 43 L
100 43 L
cp
f
GR
GS
[0.75 0 0 0.75 18 230] CT
0 GC
2 setlinecap
10.0 ML
N
100 513 M
695 513 L
S
GR
GS
[0.75 0 0 0.75 18 230] CT
0 GC
2 setlinecap
10.0 ML
N
100 43 M
695 43 L
S
GR
GS
[0.75 0 0 0.75 18 230] CT
0 GC
2 setlinecap
10.0 ML
N
100 513 M
100 507.05 L
S
GR
GS
[0.75 0 0 0.75 18 230] CT
0 GC
2 setlinecap
10.0 ML
N
159.5 513 M
159.5 507.05 L
S
GR
GS
[0.75 0 0 0.75 18 230] CT
0 GC
2 setlinecap
10.0 ML
N
219 513 M
219 507.05 L
S
GR
GS
[0.75 0 0 0.75 18 230] CT
0 GC
2 setlinecap
10.0 ML
N
278.5 513 M
278.5 507.05 L
S
GR
GS
[0.75 0 0 0.75 18 230] CT
0 GC
2 setlinecap
10.0 ML
N
338 513 M
338 507.05 L
S
GR
GS
[0.75 0 0 0.75 18 230] CT
0 GC
2 setlinecap
10.0 ML
N
397.5 513 M
397.5 507.05 L
S
GR
GS
[0.75 0 0 0.75 18 230] CT
0 GC
2 setlinecap
10.0 ML
N
457 513 M
457 507.05 L
S
GR
GS
[0.75 0 0 0.75 18 230] CT
0 GC
2 setlinecap
10.0 ML
N
516.5 513 M
516.5 507.05 L
S
GR
GS
[0.75 0 0 0.75 18 230] CT
0 GC
2 setlinecap
10.0 ML
N
576 513 M
576 507.05 L
S
GR
GS
[0.75 0 0 0.75 18 230] CT
0 GC
2 setlinecap
10.0 ML
N
635.5 513 M
635.5 507.05 L
S
GR
GS
[0.75 0 0 0.75 18 230] CT
0 GC
2 setlinecap
10.0 ML
N
695 513 M
695 507.05 L
S
GR
GS
[0.75 0 0 0.75 18 230] CT
0 GC
2 setlinecap
10.0 ML
N
100 43 M
100 48.95 L
S
GR
GS
[0.75 0 0 0.75 18 230] CT
0 GC
2 setlinecap
10.0 ML
N
159.5 43 M
159.5 48.95 L
S
GR
GS
[0.75 0 0 0.75 18 230] CT
0 GC
2 setlinecap
10.0 ML
N
219 43 M
219 48.95 L
S
GR
GS
[0.75 0 0 0.75 18 230] CT
0 GC
2 setlinecap
10.0 ML
N
278.5 43 M
278.5 48.95 L
S
GR
GS
[0.75 0 0 0.75 18 230] CT
0 GC
2 setlinecap
10.0 ML
N
338 43 M
338 48.95 L
S
GR
GS
[0.75 0 0 0.75 18 230] CT
0 GC
2 setlinecap
10.0 ML
N
397.5 43 M
397.5 48.95 L
S
GR
GS
[0.75 0 0 0.75 18 230] CT
0 GC
2 setlinecap
10.0 ML
N
457 43 M
457 48.95 L
S
GR
GS
[0.75 0 0 0.75 18 230] CT
0 GC
2 setlinecap
10.0 ML
N
516.5 43 M
516.5 48.95 L
S
GR
GS
[0.75 0 0 0.75 18 230] CT
0 GC
2 setlinecap
10.0 ML
N
576 43 M
576 48.95 L
S
GR
GS
[0.75 0 0 0.75 18 230] CT
0 GC
2 setlinecap
10.0 ML
N
635.5 43 M
635.5 48.95 L
S
GR
GS
[0.75 0 0 0.75 18 230] CT
0 GC
2 setlinecap
10.0 ML
N
695 43 M
695 48.95 L
S
GR
GS
[0.75 0 0 0.75 93 618.74998] CT
0 GC
/Helvetica 13 F
GS
[1 0 0 1 0 0] CT
-4 14 moveto 
1 -1 scale
(0) t 
GR
GR
GS
[0.75 0 0 0.75 137.625 618.74998] CT
0 GC
/Helvetica 13 F
GS
[1 0 0 1 0 0] CT
-11 14 moveto 
1 -1 scale
(100) t 
GR
GR
GS
[0.75 0 0 0.75 182.25 618.74998] CT
0 GC
/Helvetica 13 F
GS
[1 0 0 1 0 0] CT
-11 14 moveto 
1 -1 scale
(200) t 
GR
GR
GS
[0.75 0 0 0.75 226.875 618.74998] CT
0 GC
/Helvetica 13 F
GS
[1 0 0 1 0 0] CT
-11 14 moveto 
1 -1 scale
(300) t 
GR
GR
GS
[0.75 0 0 0.75 271.5 618.74998] CT
0 GC
/Helvetica 13 F
GS
[1 0 0 1 0 0] CT
-11 14 moveto 
1 -1 scale
(400) t 
GR
GR
GS
[0.75 0 0 0.75 316.125 618.74998] CT
0 GC
/Helvetica 13 F
GS
[1 0 0 1 0 0] CT
-11 14 moveto 
1 -1 scale
(500) t 
GR
GR
GS
[0.75 0 0 0.75 360.75 618.74998] CT
0 GC
/Helvetica 13 F
GS
[1 0 0 1 0 0] CT
-11 14 moveto 
1 -1 scale
(600) t 
GR
GR
GS
[0.75 0 0 0.75 405.375 618.74998] CT
0 GC
/Helvetica 13 F
GS
[1 0 0 1 0 0] CT
-11 14 moveto 
1 -1 scale
(700) t 
GR
GR
GS
[0.75 0 0 0.75 450 618.74998] CT
0 GC
/Helvetica 13 F
GS
[1 0 0 1 0 0] CT
-11 14 moveto 
1 -1 scale
(800) t 
GR
GR
GS
[0.75 0 0 0.75 494.625 618.74998] CT
0 GC
/Helvetica 13 F
GS
[1 0 0 1 0 0] CT
-11 14 moveto 
1 -1 scale
(900) t 
GR
GR
GS
[0.75 0 0 0.75 539.25 618.74998] CT
0 GC
/Helvetica 13 F
GS
[1 0 0 1 0 0] CT
-14.5 14 moveto 
1 -1 scale
(1000) t 
GR
GR
GS
[0.75 0 0 0.75 18 230] CT
0 GC
2 setlinecap
10.0 ML
N
100 513 M
100 43 L
S
GR
GS
[0.75 0 0 0.75 18 230] CT
0 GC
2 setlinecap
10.0 ML
N
695 513 M
695 43 L
S
GR
GS
[0.75 0 0 0.75 18 230] CT
0 GC
2 setlinecap
10.0 ML
N
100 513 M
105.95 513 L
S
GR
GS
[0.75 0 0 0.75 18 230] CT
0 GC
2 setlinecap
10.0 ML
N
100 445.857 M
105.95 445.857 L
S
GR
GS
[0.75 0 0 0.75 18 230] CT
0 GC
2 setlinecap
10.0 ML
N
100 378.714 M
105.95 378.714 L
S
GR
GS
[0.75 0 0 0.75 18 230] CT
0 GC
2 setlinecap
10.0 ML
N
100 311.571 M
105.95 311.571 L
S
GR
GS
[0.75 0 0 0.75 18 230] CT
0 GC
2 setlinecap
10.0 ML
N
100 244.429 M
105.95 244.429 L
S
GR
GS
[0.75 0 0 0.75 18 230] CT
0 GC
2 setlinecap
10.0 ML
N
100 177.286 M
105.95 177.286 L
S
GR
GS
[0.75 0 0 0.75 18 230] CT
0 GC
2 setlinecap
10.0 ML
N
100 110.143 M
105.95 110.143 L
S
GR
GS
[0.75 0 0 0.75 18 230] CT
0 GC
2 setlinecap
10.0 ML
N
100 43 M
105.95 43 L
S
GR
GS
[0.75 0 0 0.75 18 230] CT
0 GC
2 setlinecap
10.0 ML
N
695 513 M
689.05 513 L
S
GR
GS
[0.75 0 0 0.75 18 230] CT
0 GC
2 setlinecap
10.0 ML
N
695 445.857 M
689.05 445.857 L
S
GR
GS
[0.75 0 0 0.75 18 230] CT
0 GC
2 setlinecap
10.0 ML
N
695 378.714 M
689.05 378.714 L
S
GR
GS
[0.75 0 0 0.75 18 230] CT
0 GC
2 setlinecap
10.0 ML
N
695 311.571 M
689.05 311.571 L
S
GR
GS
[0.75 0 0 0.75 18 230] CT
0 GC
2 setlinecap
10.0 ML
N
695 244.429 M
689.05 244.429 L
S
GR
GS
[0.75 0 0 0.75 18 230] CT
0 GC
2 setlinecap
10.0 ML
N
695 177.286 M
689.05 177.286 L
S
GR
GS
[0.75 0 0 0.75 18 230] CT
0 GC
2 setlinecap
10.0 ML
N
695 110.143 M
689.05 110.143 L
S
GR
GS
[0.75 0 0 0.75 18 230] CT
0 GC
2 setlinecap
10.0 ML
N
695 43 M
689.05 43 L
S
GR
GS
[0.75 0 0 0.75 89 614.75] CT
0 GC
/Helvetica 13 F
GS
[1 0 0 1 0 0] CT
-12 5.5 moveto 
1 -1 scale
(-5) t 
GR
GR
GS
[0.75 0 0 0.75 89 564.39286] CT
0 GC
/Helvetica 13 F
GS
[1 0 0 1 0 0] CT
-8 5.5 moveto 
1 -1 scale
(0) t 
GR
GR
GS
[0.75 0 0 0.75 89 514.03572] CT
0 GC
/Helvetica 13 F
GS
[1 0 0 1 0 0] CT
-8 5.5 moveto 
1 -1 scale
(5) t 
GR
GR
GS
[0.75 0 0 0.75 89 463.67858] CT
0 GC
/Helvetica 13 F
GS
[1 0 0 1 0 0] CT
-15 5.5 moveto 
1 -1 scale
(10) t 
GR
GR
GS
[0.75 0 0 0.75 89 413.32143] CT
0 GC
/Helvetica 13 F
GS
[1 0 0 1 0 0] CT
-15 5.5 moveto 
1 -1 scale
(15) t 
GR
GR
GS
[0.75 0 0 0.75 89 362.96429] CT
0 GC
/Helvetica 13 F
GS
[1 0 0 1 0 0] CT
-15 5.5 moveto 
1 -1 scale
(20) t 
GR
GR
GS
[0.75 0 0 0.75 89 312.60715] CT
0 GC
/Helvetica 13 F
GS
[1 0 0 1 0 0] CT
-15 5.5 moveto 
1 -1 scale
(25) t 
GR
GR
GS
[0.75 0 0 0.75 89 262.25] CT
0 GC
/Helvetica 13 F
GS
[1 0 0 1 0 0] CT
-15 5.5 moveto 
1 -1 scale
(30) t 
GR
GR
GS
[0.75 0 0 0.75 18 230] CT
0 GC
2 LJ
N
100.595 453.019 M
101.19 428.286 L
101.785 465.485 L
102.38 444.056 L
102.975 446.337 L
103.57 443.183 L
104.165 448.068 L
104.76 456.96 L
105.355 436.757 L
105.95 463.05 L
106.545 446.611 L
107.14 433.737 L
107.735 429.141 L
108.33 444.751 L
108.925 455.126 L
109.52 443.202 L
110.115 432.237 L
110.71 461.758 L
111.305 431.862 L
111.9 449.55 L
112.495 445.388 L
113.09 476.509 L
113.685 451.547 L
114.28 435.704 L
114.875 462.52 L
115.47 460.069 L
116.065 426.845 L
116.66 445.076 L
117.255 454.463 L
117.85 455.641 L
118.445 440.967 L
119.04 446.239 L
119.635 435.575 L
120.23 438.346 L
120.825 428.394 L
121.42 422.095 L
122.015 452.233 L
122.61 428.781 L
123.205 441.462 L
123.8 426.438 L
124.395 440.459 L
124.99 454.31 L
125.585 443.301 L
126.18 446.508 L
126.775 433.752 L
127.37 456.718 L
127.965 428.348 L
128.56 445.565 L
129.155 429.063 L
129.75 436.941 L
S
GR
GS
[0.75 0 0 0.75 18 230] CT
0 GC
2 LJ
N
129.75 436.941 M
130.345 462.504 L
130.94 454.821 L
131.535 451.134 L
132.13 448.378 L
132.725 437.14 L
133.32 453.585 L
133.915 459.618 L
134.51 445.476 L
135.105 435.984 L
135.7 436.939 L
136.295 416.381 L
136.89 427.829 L
137.485 429.758 L
138.08 437.816 L
138.675 425.959 L
139.27 447.008 L
139.865 433.48 L
140.46 449.026 L
141.055 432.654 L
141.65 440.737 L
142.245 446.524 L
142.84 488.308 L
143.435 456.432 L
144.03 447.535 L
144.625 452.519 L
145.22 421.037 L
145.815 442.835 L
146.41 440.589 L
147.005 460.848 L
147.6 457.203 L
148.195 435.505 L
148.79 434.138 L
149.385 459.553 L
149.98 446.465 L
150.575 434.197 L
151.17 442.973 L
151.765 449.423 L
152.36 463.779 L
152.955 461.68 L
153.55 471.848 L
154.145 427.368 L
154.74 467.192 L
155.335 455.102 L
155.93 449.73 L
156.525 477.333 L
157.12 428.927 L
157.715 431.336 L
158.31 443.754 L
158.905 440.389 L
S
GR
GS
[0.75 0 0 0.75 18 230] CT
0 GC
2 LJ
N
158.905 440.389 M
159.5 461.262 L
160.095 437.757 L
160.69 432.658 L
161.285 468.81 L
161.88 438.085 L
162.475 463.799 L
163.07 455.821 L
163.665 461.412 L
164.26 477.028 L
164.855 456.225 L
165.45 456.433 L
166.045 439.471 L
166.64 454.756 L
167.235 448.703 L
167.83 473.967 L
168.425 460.505 L
169.02 436.566 L
169.615 482.057 L
170.21 472.635 L
170.805 445.797 L
171.4 465.722 L
171.995 437.599 L
172.59 435.686 L
173.185 437.383 L
173.78 446.634 L
174.375 431.352 L
174.97 433.296 L
175.565 436.883 L
176.16 447.579 L
176.755 433.602 L
177.35 438.597 L
177.945 426.561 L
178.54 445.052 L
179.135 458.379 L
179.73 437.91 L
180.325 430.939 L
180.92 405.097 L
181.515 450.251 L
182.11 440.78 L
182.705 455.67 L
183.3 436.897 L
183.895 444.155 L
184.49 454.018 L
185.085 441.034 L
185.68 475.44 L
186.275 446.876 L
186.87 446.762 L
187.465 439.738 L
188.06 456.879 L
S
GR
GS
[0.75 0 0 0.75 18 230] CT
0 GC
2 LJ
N
188.06 456.879 M
188.655 437.292 L
189.25 463.211 L
189.845 416.265 L
190.44 439.706 L
191.035 443.314 L
191.63 425.584 L
192.225 452.344 L
192.82 449.568 L
193.415 425.915 L
194.01 454.725 L
194.605 452.071 L
195.2 438.848 L
195.795 452.84 L
196.39 462.526 L
196.985 456.839 L
197.58 454.213 L
198.175 455.339 L
198.77 475.127 L
199.365 447.228 L
199.96 436.615 L
200.555 437.345 L
201.15 444.241 L
201.745 445.06 L
202.34 454.831 L
202.935 432.195 L
203.53 413.251 L
204.125 461.191 L
204.72 453.556 L
205.315 457.421 L
205.91 455.383 L
206.505 432.417 L
207.1 440.175 L
207.695 435.034 L
208.29 453.53 L
208.885 431.278 L
209.48 453.137 L
210.075 450.191 L
210.67 430.518 L
211.265 459.155 L
211.86 444.723 L
212.455 457.91 L
213.05 445.527 L
213.645 442.2 L
214.24 452.303 L
214.835 441.295 L
215.43 453.496 L
216.025 443.516 L
216.62 439.22 L
217.215 448.97 L
S
GR
GS
[0.75 0 0 0.75 18 230] CT
0 GC
2 LJ
N
217.215 448.97 M
217.81 458.024 L
218.405 444.286 L
219 435.321 L
219.595 451.65 L
220.19 434.242 L
220.785 448.055 L
221.38 453.025 L
221.975 440.814 L
222.57 477.729 L
223.165 442.195 L
223.76 475.172 L
224.355 457.195 L
224.95 442.334 L
225.545 454.276 L
226.14 457.1 L
226.735 453.935 L
227.33 441.19 L
227.925 444.64 L
228.52 461.614 L
229.115 448.52 L
229.71 437.384 L
230.305 424.935 L
230.9 463.476 L
231.495 447.647 L
232.09 432.931 L
232.685 413.983 L
233.28 426.937 L
233.875 456.792 L
234.47 445.727 L
235.065 431.952 L
235.66 444.817 L
236.255 457.192 L
236.85 448.328 L
237.445 436.913 L
238.04 436.859 L
238.635 439.387 L
239.23 461.728 L
239.825 475.645 L
240.42 453.584 L
241.015 445.124 L
241.61 430.233 L
242.205 465.336 L
242.8 451.245 L
243.395 433.095 L
243.99 445.619 L
244.585 445.642 L
245.18 440.167 L
245.775 433.211 L
246.37 429.632 L
S
GR
GS
[0.75 0 0 0.75 18 230] CT
0 GC
2 LJ
N
246.37 429.632 M
246.965 461.847 L
247.56 486.232 L
248.155 436.766 L
248.75 76.379 L
249.345 451.42 L
249.94 432.546 L
250.535 418.066 L
251.13 454.502 L
251.725 464.482 L
252.32 440.45 L
252.915 441.744 L
253.51 439.056 L
254.105 432.352 L
254.7 447.862 L
255.295 437.773 L
255.89 441.208 L
256.485 441.172 L
257.08 411.001 L
257.675 450.419 L
258.27 430.982 L
258.865 457.047 L
259.46 453.904 L
260.055 439.71 L
260.65 438.852 L
261.245 439.27 L
261.84 452.023 L
262.435 440.507 L
263.03 436.149 L
263.625 449.376 L
264.22 431.696 L
264.815 453.807 L
265.41 439.437 L
266.005 442.424 L
266.6 439.247 L
267.195 450.638 L
267.79 437.298 L
268.385 436.153 L
268.98 430.69 L
269.575 446.315 L
270.17 440.335 L
270.765 433.338 L
271.36 449.016 L
271.955 448.655 L
272.55 443.431 L
273.145 443.348 L
273.74 428.586 L
274.335 431.297 L
274.93 441.357 L
275.525 415.251 L
S
GR
GS
[0.75 0 0 0.75 18 230] CT
0 GC
2 LJ
N
275.525 415.251 M
276.12 456.734 L
276.715 443.78 L
277.31 436.737 L
277.905 431.085 L
278.5 423.458 L
279.095 441.983 L
279.69 443.329 L
280.285 442.701 L
280.88 431.74 L
281.475 429.353 L
282.07 452.445 L
282.665 423.848 L
283.26 454.827 L
283.855 407.639 L
284.45 457.326 L
285.045 447.861 L
285.64 454.456 L
286.235 461.117 L
286.83 454.062 L
287.425 449.071 L
288.02 445.198 L
288.615 443.551 L
289.21 455.622 L
289.805 445.823 L
290.4 437.804 L
290.995 429.33 L
291.59 428.482 L
292.185 441.281 L
292.78 463.295 L
293.375 428.205 L
293.97 438.54 L
294.565 460.116 L
295.16 454.193 L
295.755 459.267 L
296.35 453.779 L
296.945 458.806 L
297.54 462.869 L
298.135 421.126 L
298.73 444.109 L
299.325 432.717 L
299.92 447.347 L
300.515 454.632 L
301.11 454.12 L
301.705 444.903 L
302.3 434.247 L
302.895 450.237 L
303.49 434.491 L
304.085 441.065 L
304.68 444.088 L
S
GR
GS
[0.75 0 0 0.75 18 230] CT
0 GC
2 LJ
N
304.68 444.088 M
305.275 442.634 L
305.87 429.836 L
306.465 457.865 L
307.06 446.258 L
307.655 414.124 L
308.25 441.924 L
308.845 441.781 L
309.44 476.524 L
310.035 457.764 L
310.63 440.142 L
311.225 444.835 L
311.82 433.959 L
312.415 451.662 L
313.01 461.473 L
313.605 445.388 L
314.2 430.777 L
314.795 444.22 L
315.39 446.194 L
315.985 441.64 L
316.58 440.301 L
317.175 455.835 L
317.77 445.703 L
318.365 430.878 L
318.96 437.108 L
319.555 431.897 L
320.15 469.477 L
320.745 445.24 L
321.34 442.342 L
321.935 424.863 L
322.53 451.882 L
323.125 452.682 L
323.72 456.011 L
324.315 437.091 L
324.91 446.765 L
325.505 456.554 L
326.1 468.365 L
326.695 433.881 L
327.29 460.073 L
327.885 437.993 L
328.48 457.61 L
329.075 433.663 L
329.67 449.776 L
330.265 439.298 L
330.86 461.538 L
331.455 445.616 L
332.05 455.707 L
332.645 427.949 L
333.24 464.703 L
333.835 433.182 L
S
GR
GS
[0.75 0 0 0.75 18 230] CT
0 GC
2 LJ
N
333.835 433.182 M
334.43 454.672 L
335.025 452.854 L
335.62 464.565 L
336.215 444.28 L
336.81 457.06 L
337.405 457.422 L
338 452.669 L
338.595 449.717 L
339.19 443.676 L
339.785 454.763 L
340.38 448.956 L
340.975 431.27 L
341.57 437.639 L
342.165 442.496 L
342.76 456.159 L
343.355 424.038 L
343.95 460.181 L
344.545 447.929 L
345.14 436.948 L
345.735 452.91 L
346.33 433.541 L
346.925 439.242 L
347.52 440.766 L
348.115 464.964 L
348.71 460.348 L
349.305 455.297 L
349.9 424.643 L
350.495 457.655 L
351.09 455.513 L
351.685 444.115 L
352.28 438.035 L
352.875 440.281 L
353.47 427.595 L
354.065 461.183 L
354.66 446.62 L
355.255 441.522 L
355.85 440.286 L
356.445 466.156 L
357.04 446.926 L
357.635 468.55 L
358.23 445.495 L
358.825 456.763 L
359.42 442.024 L
360.015 419.647 L
360.61 446.855 L
361.205 448.821 L
361.8 462.076 L
362.395 433.861 L
362.99 446.331 L
S
GR
GS
[0.75 0 0 0.75 18 230] CT
0 GC
2 LJ
N
362.99 446.331 M
363.585 413.802 L
364.18 430.321 L
364.775 432.567 L
365.37 443.671 L
365.965 446.687 L
366.56 454.566 L
367.155 442.779 L
367.75 441.422 L
368.345 455.193 L
368.94 438.699 L
369.535 437.059 L
370.13 435.891 L
370.725 437.733 L
371.32 457.536 L
371.915 417.379 L
372.51 470.453 L
373.105 438.281 L
373.7 441.675 L
374.295 454.326 L
374.89 447.696 L
375.485 459.625 L
376.08 439.81 L
376.675 459.546 L
377.27 436.198 L
377.865 421.032 L
378.46 456.094 L
379.055 444.725 L
379.65 457.425 L
380.245 440.312 L
380.84 438.748 L
381.435 446.938 L
382.03 436.369 L
382.625 458.986 L
383.22 448.514 L
383.815 438.039 L
384.41 464.644 L
385.005 434.833 L
385.6 436.618 L
386.195 435.378 L
386.79 435.076 L
387.385 458.892 L
387.98 447.241 L
388.575 435.036 L
389.17 436.321 L
389.765 443.938 L
390.36 454.85 L
390.955 431.715 L
391.55 444.91 L
392.145 443.824 L
S
GR
GS
[0.75 0 0 0.75 18 230] CT
0 GC
2 LJ
N
392.145 443.824 M
392.74 429.127 L
393.335 449.316 L
393.93 424.212 L
394.525 433.188 L
395.12 429.567 L
395.715 437.749 L
396.31 431.383 L
396.905 435.501 L
397.5 451.108 L
398.095 450.774 L
398.69 436.39 L
399.285 443.287 L
399.88 435.828 L
400.475 445.007 L
401.07 436.059 L
401.665 418.91 L
402.26 456.678 L
402.855 431.07 L
403.45 425.329 L
404.045 435.958 L
404.64 478.687 L
405.235 439.903 L
405.83 450.623 L
406.425 443.857 L
407.02 450.567 L
407.615 449.668 L
408.21 440.151 L
408.805 435.351 L
409.4 433.097 L
409.995 462.553 L
410.59 436.343 L
411.185 426.279 L
411.78 459.352 L
412.375 429.366 L
412.97 457.471 L
413.565 466.782 L
414.16 449.457 L
414.755 449.099 L
415.35 451.796 L
415.945 424.337 L
416.54 478.988 L
417.135 424.812 L
417.73 439.535 L
418.325 419.933 L
418.92 449.288 L
419.515 434.304 L
420.11 493.345 L
420.705 445.473 L
421.3 452.835 L
S
GR
GS
[0.75 0 0 0.75 18 230] CT
0 GC
2 LJ
N
421.3 452.835 M
421.895 448.599 L
422.49 432.848 L
423.085 457.305 L
423.68 445.731 L
424.275 441.971 L
424.87 446.794 L
425.465 427.981 L
426.06 443.119 L
426.655 455.926 L
427.25 417.665 L
427.845 440.136 L
428.44 423.532 L
429.035 462.691 L
429.63 446.617 L
430.225 456.044 L
430.82 422.825 L
431.415 445.376 L
432.01 450.664 L
432.605 443.268 L
433.2 455.877 L
433.795 454.552 L
434.39 444.357 L
434.985 440.011 L
435.58 433.942 L
436.175 456.329 L
436.77 424.159 L
437.365 445.907 L
437.96 455.354 L
438.555 442.86 L
439.15 431.854 L
439.745 448.416 L
440.34 434.761 L
440.935 454.154 L
441.53 427.21 L
442.125 445.797 L
442.72 438.38 L
443.315 447.948 L
443.91 458.065 L
444.505 436.047 L
445.1 456.849 L
445.695 458.15 L
446.29 440.588 L
446.885 420.506 L
447.48 449.226 L
448.075 448.656 L
448.67 443.64 L
449.265 425.859 L
449.86 466.316 L
450.455 425.375 L
S
GR
GS
[0.75 0 0 0.75 18 230] CT
0 GC
2 LJ
N
450.455 425.375 M
451.05 461.647 L
451.645 441.848 L
452.24 460.079 L
452.835 476.653 L
453.43 443.09 L
454.025 430.472 L
454.62 455.896 L
455.215 480.023 L
455.81 458.276 L
456.405 442.348 L
457 437.086 L
457.595 405.152 L
458.19 467.393 L
458.785 451.622 L
459.38 443.754 L
459.975 435.248 L
460.57 465.441 L
461.165 430.979 L
461.76 450.611 L
462.355 455.65 L
462.95 470.411 L
463.545 471.07 L
464.14 459.501 L
464.735 433.575 L
465.33 435.182 L
465.925 450.66 L
466.52 449.418 L
467.115 447.833 L
467.71 453.142 L
468.305 428.779 L
468.9 437.996 L
469.495 440.494 L
470.09 444.642 L
470.685 453.428 L
471.28 430.596 L
471.875 431.689 L
472.47 424.132 L
473.065 456.222 L
473.66 453.842 L
474.255 451.329 L
474.85 421.684 L
475.445 432.092 L
476.04 446.795 L
476.635 432.228 L
477.23 438.041 L
477.825 443.362 L
478.42 434.44 L
479.015 410.411 L
479.61 427.882 L
S
GR
GS
[0.75 0 0 0.75 18 230] CT
0 GC
2 LJ
N
479.61 427.882 M
480.205 448.992 L
480.8 432.108 L
481.395 433.185 L
481.99 407.508 L
482.585 435.555 L
483.18 436.001 L
483.775 416.946 L
484.37 459.048 L
484.965 446.254 L
485.56 440.103 L
486.155 464.743 L
486.75 431.35 L
487.345 428.019 L
487.94 440.25 L
488.535 414.554 L
489.13 426.8 L
489.725 418.787 L
490.32 451.325 L
490.915 453.525 L
491.51 440.66 L
492.105 444.579 L
492.7 424.258 L
493.295 452.409 L
493.89 457.005 L
494.485 439.573 L
495.08 415.642 L
495.675 448.849 L
496.27 441.636 L
496.865 434.789 L
497.46 426.179 L
498.055 472.762 L
498.65 428.565 L
499.245 423.938 L
499.84 464.034 L
500.435 450.424 L
501.03 454.758 L
501.625 443.77 L
502.22 435.165 L
502.815 433.686 L
503.41 438.888 L
504.005 471.034 L
504.6 437.037 L
505.195 444.105 L
505.79 473.811 L
506.385 436.639 L
506.98 457.016 L
507.575 452.683 L
508.17 448.5 L
508.765 466.53 L
S
GR
GS
[0.75 0 0 0.75 18 230] CT
0 GC
2 LJ
N
508.765 466.53 M
509.36 448.702 L
509.955 433.741 L
510.55 430.273 L
511.145 426.557 L
511.74 432.239 L
512.335 464.026 L
512.93 462.701 L
513.525 454.527 L
514.12 438.925 L
514.715 435.487 L
515.31 425.806 L
515.905 427.264 L
516.5 454.362 L
517.095 422.892 L
517.69 440.343 L
518.285 444.183 L
518.88 437.446 L
519.475 439.151 L
520.07 449.574 L
520.665 446.342 L
521.26 414.789 L
521.855 451.991 L
522.45 443.873 L
523.045 465.046 L
523.64 433.195 L
524.235 453.992 L
524.83 404.275 L
525.425 451.503 L
526.02 444.555 L
526.615 452.924 L
527.21 413.682 L
527.805 450.445 L
528.4 436.637 L
528.995 444.651 L
529.59 443.311 L
530.185 440.355 L
530.78 460.966 L
531.375 460.328 L
531.97 435.529 L
532.565 435.843 L
533.16 447.742 L
533.755 448.634 L
534.35 444.829 L
534.945 445.315 L
535.54 439.845 L
536.135 439.607 L
536.73 472.712 L
537.325 433.335 L
537.92 453.147 L
S
GR
GS
[0.75 0 0 0.75 18 230] CT
0 GC
2 LJ
N
537.92 453.147 M
538.515 458.345 L
539.11 440.117 L
539.705 470.258 L
540.3 462.933 L
540.895 442.552 L
541.49 452.994 L
542.085 426.47 L
542.68 473.602 L
543.275 454.214 L
543.87 434.308 L
544.465 434.967 L
545.06 450.707 L
545.655 435.282 L
546.25 451.358 L
546.845 420.218 L
547.44 460.986 L
548.035 453.438 L
548.63 438.394 L
549.225 442.895 L
549.82 420.106 L
550.415 443.664 L
551.01 450.825 L
551.605 447.672 L
552.2 443.407 L
552.795 456.977 L
553.39 435.989 L
553.985 438.522 L
554.58 465.285 L
555.175 454.011 L
555.77 428.285 L
556.365 454.037 L
556.96 454.741 L
557.555 440.815 L
558.15 438.666 L
558.745 436.067 L
559.34 428.883 L
559.935 436.511 L
560.53 447.317 L
561.125 433.986 L
561.72 476.044 L
562.315 423.463 L
562.91 426.919 L
563.505 423.076 L
564.1 433.858 L
564.695 438.371 L
565.29 432.97 L
565.885 438.988 L
566.48 433.315 L
567.075 454.821 L
S
GR
GS
[0.75 0 0 0.75 18 230] CT
0 GC
2 LJ
N
567.075 454.821 M
567.67 459.38 L
568.265 446.885 L
568.86 454.186 L
569.455 459.664 L
570.05 438.494 L
570.645 440.982 L
571.24 477.595 L
571.835 456.179 L
572.43 428.239 L
573.025 432.165 L
573.62 437.899 L
574.215 438.623 L
574.81 454.816 L
575.405 446.399 L
576 438.435 L
576.595 444.094 L
577.19 446.768 L
577.785 458.442 L
578.38 463.208 L
578.975 448.032 L
579.57 463.215 L
580.165 435.117 L
580.76 443.773 L
581.355 444.025 L
581.95 454.162 L
582.545 459.907 L
583.14 444.286 L
583.735 435.927 L
584.33 423.658 L
584.925 450.354 L
585.52 446.718 L
586.115 431.91 L
586.71 455.754 L
587.305 434.227 L
587.9 444.737 L
588.495 456.57 L
589.09 436.569 L
589.685 442.921 L
590.28 420.364 L
590.875 469.773 L
591.47 458.464 L
592.065 442.31 L
592.66 439.799 L
593.255 445.858 L
593.85 448.391 L
594.445 461.455 L
595.04 415.547 L
595.635 461.435 L
596.23 462.284 L
S
GR
GS
[0.75 0 0 0.75 18 230] CT
0 GC
2 LJ
N
596.23 462.284 M
596.825 441.347 L
597.42 468.429 L
598.015 450.243 L
598.61 450.943 L
599.205 459.466 L
599.8 441.241 L
600.395 462.747 L
600.99 459.597 L
601.585 427.328 L
602.18 450.962 L
602.775 462.314 L
603.37 459.421 L
603.965 409.868 L
604.56 435.955 L
605.155 467.232 L
605.75 453.107 L
606.345 447.958 L
606.94 457.98 L
607.535 415.204 L
608.13 450.407 L
608.725 462.778 L
609.32 438.146 L
609.915 430.927 L
610.51 428.622 L
611.105 433.308 L
611.7 431.792 L
612.295 417.68 L
612.89 437.58 L
613.485 465.658 L
614.08 443.622 L
614.675 448.787 L
615.27 427.207 L
615.865 436.28 L
616.46 448.478 L
617.055 441.432 L
617.65 459.497 L
618.245 440.203 L
618.84 426.23 L
619.435 458.73 L
620.03 468.773 L
620.625 425.289 L
621.22 442.956 L
621.815 442.391 L
622.41 434.625 L
623.005 468.992 L
623.6 446.984 L
624.195 446.558 L
624.79 444.344 L
625.385 459.554 L
S
GR
GS
[0.75 0 0 0.75 18 230] CT
0 GC
2 LJ
N
625.385 459.554 M
625.98 448.028 L
626.575 440.906 L
627.17 454.306 L
627.765 428.385 L
628.36 463.409 L
628.955 430.881 L
629.55 441.533 L
630.145 452.235 L
630.74 442.712 L
631.335 438.208 L
631.93 445.64 L
632.525 426.865 L
633.12 438.092 L
633.715 455.17 L
634.31 449.948 L
634.905 445.774 L
635.5 449.778 L
636.095 468.388 L
636.69 447.587 L
637.285 454.356 L
637.88 474.201 L
638.475 453.459 L
639.07 444.771 L
639.665 435.011 L
640.26 419.775 L
640.855 450.873 L
641.45 435.755 L
642.045 468.601 L
642.64 444.812 L
643.235 435.138 L
643.83 429.945 L
644.425 461.781 L
645.02 443.899 L
645.615 461.542 L
646.21 450.35 L
646.805 449.245 L
647.4 479.887 L
647.995 447.419 L
648.59 444.126 L
649.185 433.579 L
649.78 437.694 L
650.375 446.534 L
650.97 437.25 L
651.565 441.321 L
652.16 440.941 L
652.755 435.885 L
653.35 443.584 L
653.945 448.607 L
654.54 434.382 L
S
GR
GS
[0.75 0 0 0.75 18 230] CT
0 GC
2 LJ
N
654.54 434.382 M
655.135 444.296 L
655.73 438.604 L
656.325 449.008 L
656.92 451.084 L
657.515 438.518 L
658.11 457.672 L
658.705 478.982 L
659.3 435.125 L
659.895 455.306 L
660.49 425.171 L
661.085 448.117 L
661.68 454.24 L
662.275 465.531 L
662.87 450.395 L
663.465 416.697 L
664.06 456.888 L
664.655 435.733 L
665.25 450.102 L
665.845 457.194 L
666.44 460.884 L
667.035 452.972 L
667.63 420.206 L
668.225 428.855 L
668.82 441.723 L
669.415 439.371 L
670.01 446.789 L
670.605 423.063 L
671.2 453.431 L
671.795 436.145 L
672.39 455.566 L
672.985 440.395 L
673.58 472.328 L
674.175 465.092 L
674.77 433.566 L
675.365 466.041 L
675.96 434.42 L
676.555 439.749 L
677.15 457.86 L
677.745 446.611 L
678.34 441.115 L
678.935 440.263 L
679.53 443.469 L
680.125 445.946 L
680.72 452.355 L
681.315 451.14 L
681.91 447.509 L
682.505 448.665 L
683.1 452.801 L
683.695 459.879 L
S
GR
GS
[0.75 0 0 0.75 18 230] CT
0 GC
2 LJ
N
683.695 459.879 M
684.29 455.417 L
684.885 444.576 L
685.48 423.52 L
686.075 439.88 L
686.67 447.996 L
687.265 433.465 L
687.86 432.098 L
688.455 470.857 L
689.05 435.882 L
689.645 444.192 L
690.24 430.589 L
690.835 439.679 L
691.43 442.362 L
692.025 441.281 L
692.62 448.731 L
693.215 454.676 L
693.81 454.795 L
694.405 445.25 L
695 444.111 L
S
GR
GS
[0.75 0 0 0.75 316.12527 260.18751] CT
0 GC
/Helvetica-Bold 15 F
GS
[1 0 0 1 0 0] CT
-286.5 -4 moveto 
1 -1 scale
(Original<->Extracted Watermark Correlation Coefficents Alpha:0.5 Position:1000) t 
GR
GR
showpage
%%Trailer
%%BoundingBox: 77 210 550 596
%%Pages: 1
%%EOF
