%!PS-Adobe-3.0
%%Creator: (MATLAB, The Mathworks, Inc. Version 8.5.0.197613 \(R2015a\). Operating System: Windows 7)
%%Title: ./output/WmIm_05_1000/unrelatedWatermarkCorrelationCoefficient.eps
%%CreationDate: 2015-11-04T23:49:20
%%Pages: (atend)
%%BoundingBox: (atend)
%%LanguageLevel: 3
%%EndComments
%%BeginDefaults
%%EndDefaults
%%BeginProlog
%%EndProlog
%%BeginSetup
%%BeginResource: procset (Apache XML Graphics Std ProcSet) 1.2 0
%%Version: 1.2 0
%%Copyright: (Copyright 2001-2003,2010 The Apache Software Foundation. License terms: http://www.apache.org/licenses/LICENSE-2.0)
/bd{bind def}bind def
/ld{load def}bd
/GR/grestore ld
/M/moveto ld
/LJ/setlinejoin ld
/C/curveto ld
/f/fill ld
/LW/setlinewidth ld
/GC/setgray ld
/t/show ld
/N/newpath ld
/CT/concat ld
/cp/closepath ld
/S/stroke ld
/L/lineto ld
/CC/setcmykcolor ld
/A/ashow ld
/GS/gsave ld
/RC/setrgbcolor ld
/RM/rmoveto ld
/ML/setmiterlimit ld
/re {4 2 roll M
1 index 0 rlineto
0 exch rlineto
neg 0 rlineto
cp } bd
/_ctm matrix def
/_tm matrix def
/BT { _ctm currentmatrix pop matrix _tm copy pop 0 0 moveto } bd
/ET { _ctm setmatrix } bd
/iTm { _ctm setmatrix _tm concat } bd
/Tm { _tm astore pop iTm 0 0 moveto } bd
/ux 0.0 def
/uy 0.0 def
/F {
  /Tp exch def
  /Tf exch def
  Tf findfont Tp scalefont setfont
  /cf Tf def  /cs Tp def
} bd
/ULS {currentpoint /uy exch def /ux exch def} bd
/ULE {
  /Tcx currentpoint pop def
  gsave
  newpath
  cf findfont cs scalefont dup
  /FontMatrix get 0 get /Ts exch def /FontInfo get dup
  /UnderlinePosition get Ts mul /To exch def
  /UnderlineThickness get Ts mul /Tt exch def
  ux uy To add moveto  Tcx uy To add lineto
  Tt setlinewidth stroke
  grestore
} bd
/OLE {
  /Tcx currentpoint pop def
  gsave
  newpath
  cf findfont cs scalefont dup
  /FontMatrix get 0 get /Ts exch def /FontInfo get dup
  /UnderlinePosition get Ts mul /To exch def
  /UnderlineThickness get Ts mul /Tt exch def
  ux uy To add cs add moveto Tcx uy To add cs add lineto
  Tt setlinewidth stroke
  grestore
} bd
/SOE {
  /Tcx currentpoint pop def
  gsave
  newpath
  cf findfont cs scalefont dup
  /FontMatrix get 0 get /Ts exch def /FontInfo get dup
  /UnderlinePosition get Ts mul /To exch def
  /UnderlineThickness get Ts mul /Tt exch def
  ux uy To add cs 10 mul 26 idiv add moveto Tcx uy To add cs 10 mul 26 idiv add lineto
  Tt setlinewidth stroke
  grestore
} bd
/QT {
/Y22 exch store
/X22 exch store
/Y21 exch store
/X21 exch store
currentpoint
/Y21 load 2 mul add 3 div exch
/X21 load 2 mul add 3 div exch
/X21 load 2 mul /X22 load add 3 div
/Y21 load 2 mul /Y22 load add 3 div
/X22 load /Y22 load curveto
} bd
/SSPD {
dup length /d exch dict def
{
/v exch def
/k exch def
currentpagedevice k known {
/cpdv currentpagedevice k get def
v cpdv ne {
/upd false def
/nullv v type /nulltype eq def
/nullcpdv cpdv type /nulltype eq def
nullv nullcpdv or
{
/upd true def
} {
/sametype v type cpdv type eq def
sametype {
v type /arraytype eq {
/vlen v length def
/cpdvlen cpdv length def
vlen cpdvlen eq {
0 1 vlen 1 sub {
/i exch def
/obj v i get def
/cpdobj cpdv i get def
obj cpdobj ne {
/upd true def
exit
} if
} for
} {
/upd true def
} ifelse
} {
v type /dicttype eq {
v {
/dv exch def
/dk exch def
/cpddv cpdv dk get def
dv cpddv ne {
/upd true def
exit
} if
} forall
} {
/upd true def
} ifelse
} ifelse
} if
} ifelse
upd true eq {
d k v put
} if
} if
} if
} forall
d length 0 gt {
d setpagedevice
} if
} bd
%%EndResource
%%BeginResource: procset (Apache XML Graphics EPS ProcSet) 1.0 0
%%Version: 1.0 0
%%Copyright: (Copyright 2002-2003 The Apache Software Foundation. License terms: http://www.apache.org/licenses/LICENSE-2.0)
/BeginEPSF { %def
/b4_Inc_state save def         % Save state for cleanup
/dict_count countdictstack def % Count objects on dict stack
/op_count count 1 sub def      % Count objects on operand stack
userdict begin                 % Push userdict on dict stack
/showpage { } def              % Redefine showpage, { } = null proc
0 setgray 0 setlinecap         % Prepare graphics state
1 setlinewidth 0 setlinejoin
10 setmiterlimit [ ] 0 setdash newpath
/languagelevel where           % If level not equal to 1 then
{pop languagelevel             % set strokeadjust and
1 ne                           % overprint to their defaults.
{false setstrokeadjust false setoverprint
} if
} if
} bd
/EndEPSF { %def
count op_count sub {pop} repeat            % Clean up stacks
countdictstack dict_count sub {end} repeat
b4_Inc_state restore
} bd
%%EndResource
%FOPBeginFontDict
%%IncludeResource: font Courier-Bold
%%IncludeResource: font Helvetica
%%IncludeResource: font Courier-BoldOblique
%%IncludeResource: font Courier-Oblique
%%IncludeResource: font Times-Roman
%%IncludeResource: font Helvetica-BoldOblique
%%IncludeResource: font Helvetica-Bold
%%IncludeResource: font Helvetica-Oblique
%%IncludeResource: font Times-BoldItalic
%%IncludeResource: font Courier
%%IncludeResource: font Times-Italic
%%IncludeResource: font Times-Bold
%%IncludeResource: font Symbol
%%IncludeResource: font ZapfDingbats
%FOPEndFontDict
%%BeginResource: encoding WinAnsiEncoding
/WinAnsiEncoding [
/.notdef /.notdef /.notdef /.notdef /.notdef
/.notdef /.notdef /.notdef /.notdef /.notdef
/.notdef /.notdef /.notdef /.notdef /.notdef
/.notdef /.notdef /.notdef /.notdef /.notdef
/.notdef /.notdef /.notdef /.notdef /.notdef
/.notdef /.notdef /.notdef /.notdef /.notdef
/.notdef /.notdef /space /exclam /quotedbl
/numbersign /dollar /percent /ampersand /quotesingle
/parenleft /parenright /asterisk /plus /comma
/hyphen /period /slash /zero /one
/two /three /four /five /six
/seven /eight /nine /colon /semicolon
/less /equal /greater /question /at
/A /B /C /D /E
/F /G /H /I /J
/K /L /M /N /O
/P /Q /R /S /T
/U /V /W /X /Y
/Z /bracketleft /backslash /bracketright /asciicircum
/underscore /quoteleft /a /b /c
/d /e /f /g /h
/i /j /k /l /m
/n /o /p /q /r
/s /t /u /v /w
/x /y /z /braceleft /bar
/braceright /asciitilde /bullet /Euro /bullet
/quotesinglbase /florin /quotedblbase /ellipsis /dagger
/daggerdbl /circumflex /perthousand /Scaron /guilsinglleft
/OE /bullet /Zcaron /bullet /bullet
/quoteleft /quoteright /quotedblleft /quotedblright /bullet
/endash /emdash /asciitilde /trademark /scaron
/guilsinglright /oe /bullet /zcaron /Ydieresis
/space /exclamdown /cent /sterling /currency
/yen /brokenbar /section /dieresis /copyright
/ordfeminine /guillemotleft /logicalnot /sfthyphen /registered
/macron /degree /plusminus /twosuperior /threesuperior
/acute /mu /paragraph /middot /cedilla
/onesuperior /ordmasculine /guillemotright /onequarter /onehalf
/threequarters /questiondown /Agrave /Aacute /Acircumflex
/Atilde /Adieresis /Aring /AE /Ccedilla
/Egrave /Eacute /Ecircumflex /Edieresis /Igrave
/Iacute /Icircumflex /Idieresis /Eth /Ntilde
/Ograve /Oacute /Ocircumflex /Otilde /Odieresis
/multiply /Oslash /Ugrave /Uacute /Ucircumflex
/Udieresis /Yacute /Thorn /germandbls /agrave
/aacute /acircumflex /atilde /adieresis /aring
/ae /ccedilla /egrave /eacute /ecircumflex
/edieresis /igrave /iacute /icircumflex /idieresis
/eth /ntilde /ograve /oacute /ocircumflex
/otilde /odieresis /divide /oslash /ugrave
/uacute /ucircumflex /udieresis /yacute /thorn
/ydieresis
] def
%%EndResource
%FOPBeginFontReencode
/Courier-Bold findfont
dup length dict begin
  {1 index /FID ne {def} {pop pop} ifelse} forall
  /Encoding WinAnsiEncoding def
  currentdict
end
/Courier-Bold exch definefont pop
/Helvetica findfont
dup length dict begin
  {1 index /FID ne {def} {pop pop} ifelse} forall
  /Encoding WinAnsiEncoding def
  currentdict
end
/Helvetica exch definefont pop
/Courier-BoldOblique findfont
dup length dict begin
  {1 index /FID ne {def} {pop pop} ifelse} forall
  /Encoding WinAnsiEncoding def
  currentdict
end
/Courier-BoldOblique exch definefont pop
/Courier-Oblique findfont
dup length dict begin
  {1 index /FID ne {def} {pop pop} ifelse} forall
  /Encoding WinAnsiEncoding def
  currentdict
end
/Courier-Oblique exch definefont pop
/Times-Roman findfont
dup length dict begin
  {1 index /FID ne {def} {pop pop} ifelse} forall
  /Encoding WinAnsiEncoding def
  currentdict
end
/Times-Roman exch definefont pop
/Helvetica-BoldOblique findfont
dup length dict begin
  {1 index /FID ne {def} {pop pop} ifelse} forall
  /Encoding WinAnsiEncoding def
  currentdict
end
/Helvetica-BoldOblique exch definefont pop
/Helvetica-Bold findfont
dup length dict begin
  {1 index /FID ne {def} {pop pop} ifelse} forall
  /Encoding WinAnsiEncoding def
  currentdict
end
/Helvetica-Bold exch definefont pop
/Helvetica-Oblique findfont
dup length dict begin
  {1 index /FID ne {def} {pop pop} ifelse} forall
  /Encoding WinAnsiEncoding def
  currentdict
end
/Helvetica-Oblique exch definefont pop
/Times-BoldItalic findfont
dup length dict begin
  {1 index /FID ne {def} {pop pop} ifelse} forall
  /Encoding WinAnsiEncoding def
  currentdict
end
/Times-BoldItalic exch definefont pop
/Courier findfont
dup length dict begin
  {1 index /FID ne {def} {pop pop} ifelse} forall
  /Encoding WinAnsiEncoding def
  currentdict
end
/Courier exch definefont pop
/Times-Italic findfont
dup length dict begin
  {1 index /FID ne {def} {pop pop} ifelse} forall
  /Encoding WinAnsiEncoding def
  currentdict
end
/Times-Italic exch definefont pop
/Times-Bold findfont
dup length dict begin
  {1 index /FID ne {def} {pop pop} ifelse} forall
  /Encoding WinAnsiEncoding def
  currentdict
end
/Times-Bold exch definefont pop
%FOPEndFontReencode
%%EndSetup
%%Page: 1 1
%%PageBoundingBox: 0 0 595 842
%%BeginPageSetup
<<
/PageSize [595 842]
/ImagingBBox null
>> setpagedevice
[1 0 0 -1 0 842] CT
%%EndPageSetup
GS
[0.75 0 0 0.75 18 230] CT
0.997 GC
N
0 0 768 576 re
f
GR
GS
[0.75 0 0 0.75 18 230] CT
0.997 GC
N
0 0 768 576 re
f
GR
GS
[0.75 0 0 0.75 18 230] CT
0.997 GC
N
100 513 M
695 513 L
695 43 L
100 43 L
cp
f
GR
GS
[0.75 0 0 0.75 18 230] CT
0 GC
2 setlinecap
10.0 ML
N
100 513 M
695 513 L
S
GR
GS
[0.75 0 0 0.75 18 230] CT
0 GC
2 setlinecap
10.0 ML
N
100 43 M
695 43 L
S
GR
GS
[0.75 0 0 0.75 18 230] CT
0 GC
2 setlinecap
10.0 ML
N
100 513 M
100 507.05 L
S
GR
GS
[0.75 0 0 0.75 18 230] CT
0 GC
2 setlinecap
10.0 ML
N
159.5 513 M
159.5 507.05 L
S
GR
GS
[0.75 0 0 0.75 18 230] CT
0 GC
2 setlinecap
10.0 ML
N
219 513 M
219 507.05 L
S
GR
GS
[0.75 0 0 0.75 18 230] CT
0 GC
2 setlinecap
10.0 ML
N
278.5 513 M
278.5 507.05 L
S
GR
GS
[0.75 0 0 0.75 18 230] CT
0 GC
2 setlinecap
10.0 ML
N
338 513 M
338 507.05 L
S
GR
GS
[0.75 0 0 0.75 18 230] CT
0 GC
2 setlinecap
10.0 ML
N
397.5 513 M
397.5 507.05 L
S
GR
GS
[0.75 0 0 0.75 18 230] CT
0 GC
2 setlinecap
10.0 ML
N
457 513 M
457 507.05 L
S
GR
GS
[0.75 0 0 0.75 18 230] CT
0 GC
2 setlinecap
10.0 ML
N
516.5 513 M
516.5 507.05 L
S
GR
GS
[0.75 0 0 0.75 18 230] CT
0 GC
2 setlinecap
10.0 ML
N
576 513 M
576 507.05 L
S
GR
GS
[0.75 0 0 0.75 18 230] CT
0 GC
2 setlinecap
10.0 ML
N
635.5 513 M
635.5 507.05 L
S
GR
GS
[0.75 0 0 0.75 18 230] CT
0 GC
2 setlinecap
10.0 ML
N
695 513 M
695 507.05 L
S
GR
GS
[0.75 0 0 0.75 18 230] CT
0 GC
2 setlinecap
10.0 ML
N
100 43 M
100 48.95 L
S
GR
GS
[0.75 0 0 0.75 18 230] CT
0 GC
2 setlinecap
10.0 ML
N
159.5 43 M
159.5 48.95 L
S
GR
GS
[0.75 0 0 0.75 18 230] CT
0 GC
2 setlinecap
10.0 ML
N
219 43 M
219 48.95 L
S
GR
GS
[0.75 0 0 0.75 18 230] CT
0 GC
2 setlinecap
10.0 ML
N
278.5 43 M
278.5 48.95 L
S
GR
GS
[0.75 0 0 0.75 18 230] CT
0 GC
2 setlinecap
10.0 ML
N
338 43 M
338 48.95 L
S
GR
GS
[0.75 0 0 0.75 18 230] CT
0 GC
2 setlinecap
10.0 ML
N
397.5 43 M
397.5 48.95 L
S
GR
GS
[0.75 0 0 0.75 18 230] CT
0 GC
2 setlinecap
10.0 ML
N
457 43 M
457 48.95 L
S
GR
GS
[0.75 0 0 0.75 18 230] CT
0 GC
2 setlinecap
10.0 ML
N
516.5 43 M
516.5 48.95 L
S
GR
GS
[0.75 0 0 0.75 18 230] CT
0 GC
2 setlinecap
10.0 ML
N
576 43 M
576 48.95 L
S
GR
GS
[0.75 0 0 0.75 18 230] CT
0 GC
2 setlinecap
10.0 ML
N
635.5 43 M
635.5 48.95 L
S
GR
GS
[0.75 0 0 0.75 18 230] CT
0 GC
2 setlinecap
10.0 ML
N
695 43 M
695 48.95 L
S
GR
GS
[0.75 0 0 0.75 93 618.74998] CT
0 GC
/Helvetica 13 F
GS
[1 0 0 1 0 0] CT
-4 14 moveto 
1 -1 scale
(0) t 
GR
GR
GS
[0.75 0 0 0.75 137.625 618.74998] CT
0 GC
/Helvetica 13 F
GS
[1 0 0 1 0 0] CT
-11 14 moveto 
1 -1 scale
(100) t 
GR
GR
GS
[0.75 0 0 0.75 182.25 618.74998] CT
0 GC
/Helvetica 13 F
GS
[1 0 0 1 0 0] CT
-11 14 moveto 
1 -1 scale
(200) t 
GR
GR
GS
[0.75 0 0 0.75 226.875 618.74998] CT
0 GC
/Helvetica 13 F
GS
[1 0 0 1 0 0] CT
-11 14 moveto 
1 -1 scale
(300) t 
GR
GR
GS
[0.75 0 0 0.75 271.5 618.74998] CT
0 GC
/Helvetica 13 F
GS
[1 0 0 1 0 0] CT
-11 14 moveto 
1 -1 scale
(400) t 
GR
GR
GS
[0.75 0 0 0.75 316.125 618.74998] CT
0 GC
/Helvetica 13 F
GS
[1 0 0 1 0 0] CT
-11 14 moveto 
1 -1 scale
(500) t 
GR
GR
GS
[0.75 0 0 0.75 360.75 618.74998] CT
0 GC
/Helvetica 13 F
GS
[1 0 0 1 0 0] CT
-11 14 moveto 
1 -1 scale
(600) t 
GR
GR
GS
[0.75 0 0 0.75 405.375 618.74998] CT
0 GC
/Helvetica 13 F
GS
[1 0 0 1 0 0] CT
-11 14 moveto 
1 -1 scale
(700) t 
GR
GR
GS
[0.75 0 0 0.75 450 618.74998] CT
0 GC
/Helvetica 13 F
GS
[1 0 0 1 0 0] CT
-11 14 moveto 
1 -1 scale
(800) t 
GR
GR
GS
[0.75 0 0 0.75 494.625 618.74998] CT
0 GC
/Helvetica 13 F
GS
[1 0 0 1 0 0] CT
-11 14 moveto 
1 -1 scale
(900) t 
GR
GR
GS
[0.75 0 0 0.75 539.25 618.74998] CT
0 GC
/Helvetica 13 F
GS
[1 0 0 1 0 0] CT
-14.5 14 moveto 
1 -1 scale
(1000) t 
GR
GR
GS
[0.75 0 0 0.75 18 230] CT
0 GC
2 setlinecap
10.0 ML
N
100 513 M
100 43 L
S
GR
GS
[0.75 0 0 0.75 18 230] CT
0 GC
2 setlinecap
10.0 ML
N
695 513 M
695 43 L
S
GR
GS
[0.75 0 0 0.75 18 230] CT
0 GC
2 setlinecap
10.0 ML
N
100 513 M
105.95 513 L
S
GR
GS
[0.75 0 0 0.75 18 230] CT
0 GC
2 setlinecap
10.0 ML
N
100 454.25 M
105.95 454.25 L
S
GR
GS
[0.75 0 0 0.75 18 230] CT
0 GC
2 setlinecap
10.0 ML
N
100 395.5 M
105.95 395.5 L
S
GR
GS
[0.75 0 0 0.75 18 230] CT
0 GC
2 setlinecap
10.0 ML
N
100 336.75 M
105.95 336.75 L
S
GR
GS
[0.75 0 0 0.75 18 230] CT
0 GC
2 setlinecap
10.0 ML
N
100 278 M
105.95 278 L
S
GR
GS
[0.75 0 0 0.75 18 230] CT
0 GC
2 setlinecap
10.0 ML
N
100 219.25 M
105.95 219.25 L
S
GR
GS
[0.75 0 0 0.75 18 230] CT
0 GC
2 setlinecap
10.0 ML
N
100 160.5 M
105.95 160.5 L
S
GR
GS
[0.75 0 0 0.75 18 230] CT
0 GC
2 setlinecap
10.0 ML
N
100 101.75 M
105.95 101.75 L
S
GR
GS
[0.75 0 0 0.75 18 230] CT
0 GC
2 setlinecap
10.0 ML
N
100 43 M
105.95 43 L
S
GR
GS
[0.75 0 0 0.75 18 230] CT
0 GC
2 setlinecap
10.0 ML
N
695 513 M
689.05 513 L
S
GR
GS
[0.75 0 0 0.75 18 230] CT
0 GC
2 setlinecap
10.0 ML
N
695 454.25 M
689.05 454.25 L
S
GR
GS
[0.75 0 0 0.75 18 230] CT
0 GC
2 setlinecap
10.0 ML
N
695 395.5 M
689.05 395.5 L
S
GR
GS
[0.75 0 0 0.75 18 230] CT
0 GC
2 setlinecap
10.0 ML
N
695 336.75 M
689.05 336.75 L
S
GR
GS
[0.75 0 0 0.75 18 230] CT
0 GC
2 setlinecap
10.0 ML
N
695 278 M
689.05 278 L
S
GR
GS
[0.75 0 0 0.75 18 230] CT
0 GC
2 setlinecap
10.0 ML
N
695 219.25 M
689.05 219.25 L
S
GR
GS
[0.75 0 0 0.75 18 230] CT
0 GC
2 setlinecap
10.0 ML
N
695 160.5 M
689.05 160.5 L
S
GR
GS
[0.75 0 0 0.75 18 230] CT
0 GC
2 setlinecap
10.0 ML
N
695 101.75 M
689.05 101.75 L
S
GR
GS
[0.75 0 0 0.75 18 230] CT
0 GC
2 setlinecap
10.0 ML
N
695 43 M
689.05 43 L
S
GR
GS
[0.75 0 0 0.75 89 614.75] CT
0 GC
/Helvetica 13 F
GS
[1 0 0 1 0 0] CT
-12 5.5 moveto 
1 -1 scale
(-4) t 
GR
GR
GS
[0.75 0 0 0.75 89 570.6875] CT
0 GC
/Helvetica 13 F
GS
[1 0 0 1 0 0] CT
-12 5.5 moveto 
1 -1 scale
(-3) t 
GR
GR
GS
[0.75 0 0 0.75 89 526.625] CT
0 GC
/Helvetica 13 F
GS
[1 0 0 1 0 0] CT
-12 5.5 moveto 
1 -1 scale
(-2) t 
GR
GR
GS
[0.75 0 0 0.75 89 482.5625] CT
0 GC
/Helvetica 13 F
GS
[1 0 0 1 0 0] CT
-12 5.5 moveto 
1 -1 scale
(-1) t 
GR
GR
GS
[0.75 0 0 0.75 89 438.5] CT
0 GC
/Helvetica 13 F
GS
[1 0 0 1 0 0] CT
-8 5.5 moveto 
1 -1 scale
(0) t 
GR
GR
GS
[0.75 0 0 0.75 89 394.4375] CT
0 GC
/Helvetica 13 F
GS
[1 0 0 1 0 0] CT
-8 5.5 moveto 
1 -1 scale
(1) t 
GR
GR
GS
[0.75 0 0 0.75 89 350.375] CT
0 GC
/Helvetica 13 F
GS
[1 0 0 1 0 0] CT
-8 5.5 moveto 
1 -1 scale
(2) t 
GR
GR
GS
[0.75 0 0 0.75 89 306.3125] CT
0 GC
/Helvetica 13 F
GS
[1 0 0 1 0 0] CT
-8 5.5 moveto 
1 -1 scale
(3) t 
GR
GR
GS
[0.75 0 0 0.75 89 262.25] CT
0 GC
/Helvetica 13 F
GS
[1 0 0 1 0 0] CT
-8 5.5 moveto 
1 -1 scale
(4) t 
GR
GR
GS
[0.75 0 0 0.75 18 230] CT
0 GC
2 LJ
N
100.595 309.335 M
101.19 201.126 L
101.785 363.871 L
102.38 270.119 L
102.975 280.101 L
103.57 266.299 L
104.165 287.673 L
104.76 326.577 L
105.355 238.185 L
105.95 353.22 L
106.545 281.3 L
107.14 224.975 L
107.735 204.867 L
108.33 273.163 L
108.925 318.553 L
109.52 266.386 L
110.115 218.414 L
110.71 347.566 L
111.305 216.773 L
111.9 294.156 L
112.495 275.949 L
113.09 412.103 L
113.685 302.893 L
114.28 233.58 L
114.875 350.899 L
115.47 340.175 L
116.065 194.821 L
116.66 274.582 L
117.255 315.65 L
117.85 320.805 L
118.445 256.606 L
119.04 279.671 L
119.635 233.017 L
120.23 245.137 L
120.825 201.599 L
121.42 174.042 L
122.015 305.896 L
122.61 203.293 L
123.205 258.769 L
123.8 193.042 L
124.395 254.383 L
124.99 314.982 L
125.585 266.818 L
126.18 280.845 L
126.775 225.039 L
127.37 325.517 L
127.965 201.399 L
128.56 276.724 L
129.155 204.528 L
129.75 238.99 L
S
GR
GS
[0.75 0 0 0.75 18 230] CT
0 GC
2 LJ
N
129.75 238.99 M
130.345 350.83 L
130.94 317.217 L
131.535 301.085 L
132.13 289.027 L
132.725 239.864 L
133.32 311.809 L
133.915 338.206 L
134.51 276.333 L
135.105 234.806 L
135.7 238.982 L
136.295 149.04 L
136.89 199.128 L
137.485 207.565 L
138.08 242.82 L
138.675 190.947 L
139.27 283.035 L
139.865 223.848 L
140.46 291.863 L
141.055 220.235 L
141.65 255.601 L
142.245 280.917 L
142.84 463.721 L
143.435 324.264 L
144.03 285.339 L
144.625 307.146 L
145.22 169.41 L
145.815 264.779 L
146.41 254.951 L
147.005 343.585 L
147.6 327.639 L
148.195 232.707 L
148.79 226.731 L
149.385 337.918 L
149.98 280.66 L
150.575 226.988 L
151.17 265.38 L
151.765 293.603 L
152.36 356.407 L
152.955 347.224 L
153.55 391.71 L
154.145 197.109 L
154.74 371.338 L
155.335 318.447 L
155.93 294.946 L
156.525 415.708 L
157.12 203.932 L
157.715 214.47 L
158.31 268.797 L
158.905 254.078 L
S
GR
GS
[0.75 0 0 0.75 18 230] CT
0 GC
2 LJ
N
158.905 254.078 M
159.5 345.398 L
160.095 242.561 L
160.69 220.253 L
161.285 378.419 L
161.88 243.995 L
162.475 356.494 L
163.07 321.593 L
163.665 346.05 L
164.26 414.375 L
164.855 323.36 L
165.45 324.27 L
166.045 250.062 L
166.64 316.932 L
167.235 290.451 L
167.83 400.982 L
168.425 342.087 L
169.02 237.351 L
169.615 436.373 L
170.21 395.152 L
170.805 277.738 L
171.4 364.908 L
171.995 241.871 L
172.59 233.503 L
173.185 240.924 L
173.78 281.4 L
174.375 214.538 L
174.97 223.045 L
175.565 238.738 L
176.16 285.533 L
176.755 224.383 L
177.35 246.237 L
177.945 193.581 L
178.54 274.479 L
179.135 332.784 L
179.73 243.229 L
180.325 212.735 L
180.92 99.676 L
181.515 297.222 L
182.11 255.786 L
182.705 320.931 L
183.3 238.798 L
183.895 270.553 L
184.49 313.704 L
185.085 256.899 L
185.68 407.427 L
186.275 282.457 L
186.87 281.961 L
187.465 251.227 L
188.06 326.222 L
S
GR
GS
[0.75 0 0 0.75 18 230] CT
0 GC
2 LJ
N
188.06 326.222 M
188.655 240.526 L
189.25 353.925 L
189.845 148.536 L
190.44 251.091 L
191.035 266.872 L
191.63 189.306 L
192.225 306.379 L
192.82 294.236 L
193.415 190.753 L
194.01 316.798 L
194.605 305.187 L
195.2 247.333 L
195.795 308.548 L
196.39 350.925 L
196.985 326.044 L
197.58 314.558 L
198.175 319.481 L
198.77 406.055 L
199.365 283.998 L
199.96 237.565 L
200.555 240.76 L
201.15 270.93 L
201.745 274.512 L
202.34 317.259 L
202.935 218.226 L
203.53 135.348 L
204.125 345.086 L
204.72 311.681 L
205.315 328.593 L
205.91 319.675 L
206.505 219.198 L
207.1 253.14 L
207.695 230.648 L
208.29 311.57 L
208.885 214.218 L
209.48 309.85 L
210.075 296.961 L
210.67 210.891 L
211.265 336.177 L
211.86 273.037 L
212.455 330.733 L
213.05 276.557 L
213.645 262.002 L
214.24 306.201 L
214.835 258.041 L
215.43 311.419 L
216.025 267.757 L
216.62 248.963 L
217.215 291.62 L
S
GR
GS
[0.75 0 0 0.75 18 230] CT
0 GC
2 LJ
N
217.215 291.62 M
217.81 331.23 L
218.405 271.128 L
219 231.906 L
219.595 303.345 L
220.19 227.186 L
220.785 287.617 L
221.38 309.358 L
221.975 255.938 L
222.57 417.437 L
223.165 261.979 L
223.76 406.254 L
224.355 327.605 L
224.95 262.586 L
225.545 314.832 L
226.14 327.186 L
226.735 313.34 L
227.33 257.581 L
227.925 272.673 L
228.52 346.937 L
229.115 289.65 L
229.71 240.931 L
230.305 186.467 L
230.9 355.085 L
231.495 285.829 L
232.09 221.45 L
232.685 138.55 L
233.28 195.224 L
233.875 325.838 L
234.47 277.432 L
235.065 217.165 L
235.66 273.449 L
236.255 327.59 L
236.85 288.809 L
237.445 238.869 L
238.04 238.632 L
238.635 249.693 L
239.23 347.436 L
239.825 408.32 L
240.42 311.807 L
241.015 274.794 L
241.61 209.645 L
242.205 363.219 L
242.8 301.572 L
243.395 222.168 L
243.99 276.958 L
244.585 277.06 L
245.18 253.107 L
245.775 222.675 L
246.37 207.015 L
S
GR
GS
[0.75 0 0 0.75 18 230] CT
0 GC
2 LJ
N
246.37 207.015 M
246.965 347.956 L
247.56 454.641 L
248.155 238.225 L
248.75 309.335 L
249.345 302.337 L
249.94 219.764 L
250.535 156.416 L
251.13 315.822 L
251.725 359.482 L
252.32 254.344 L
252.915 260.005 L
253.51 248.244 L
254.105 218.916 L
254.7 286.773 L
255.295 242.632 L
255.89 257.662 L
256.485 257.503 L
257.08 125.503 L
257.675 297.958 L
258.27 212.919 L
258.865 326.957 L
259.46 313.205 L
260.055 251.108 L
260.65 247.352 L
261.245 249.182 L
261.84 304.974 L
262.435 254.593 L
263.03 235.526 L
263.625 293.396 L
264.22 216.043 L
264.815 312.78 L
265.41 249.91 L
266.005 262.978 L
266.6 249.079 L
267.195 298.915 L
267.79 240.555 L
268.385 235.543 L
268.98 211.644 L
269.575 280.002 L
270.17 253.839 L
270.765 223.228 L
271.36 291.819 L
271.955 290.241 L
272.55 267.388 L
273.145 267.021 L
273.74 202.439 L
274.335 214.3 L
274.93 258.311 L
275.525 144.098 L
S
GR
GS
[0.75 0 0 0.75 18 230] CT
0 GC
2 LJ
N
275.525 144.098 M
276.12 325.586 L
276.715 268.912 L
277.31 238.1 L
277.905 213.372 L
278.5 180.004 L
279.095 261.049 L
279.69 266.938 L
280.285 264.191 L
280.88 216.238 L
281.475 205.795 L
282.07 306.824 L
282.665 181.71 L
283.26 317.242 L
283.855 110.795 L
284.45 328.176 L
285.045 286.766 L
285.64 315.622 L
286.235 344.763 L
286.83 313.897 L
287.425 292.063 L
288.02 275.116 L
288.615 267.909 L
289.21 320.72 L
289.805 277.851 L
290.4 242.767 L
290.995 205.696 L
291.59 201.985 L
292.185 257.977 L
292.78 354.289 L
293.375 200.771 L
293.97 245.985 L
294.565 340.382 L
295.16 314.468 L
295.755 336.667 L
296.35 312.659 L
296.945 334.65 L
297.54 352.426 L
298.135 169.801 L
298.73 270.351 L
299.325 220.512 L
299.92 284.519 L
300.515 316.392 L
301.11 314.148 L
301.705 273.827 L
302.3 227.207 L
302.895 297.161 L
303.49 228.275 L
304.085 257.036 L
304.68 270.258 L
S
GR
GS
[0.75 0 0 0.75 18 230] CT
0 GC
2 LJ
N
304.68 270.258 M
305.275 263.897 L
305.87 207.907 L
306.465 330.536 L
307.06 279.753 L
307.655 139.166 L
308.25 260.794 L
308.845 260.167 L
309.44 412.168 L
310.035 330.093 L
310.63 252.997 L
311.225 273.529 L
311.82 225.944 L
312.415 303.397 L
313.01 346.32 L
313.605 275.948 L
314.2 212.023 L
314.795 270.839 L
315.39 279.473 L
315.985 259.548 L
316.58 253.694 L
317.175 321.654 L
317.77 277.326 L
318.365 212.464 L
318.96 239.721 L
319.555 216.923 L
320.15 381.337 L
320.745 275.3 L
321.34 262.622 L
321.935 186.153 L
322.53 304.358 L
323.125 307.859 L
323.72 322.425 L
324.315 239.648 L
324.91 281.973 L
325.505 324.797 L
326.1 376.474 L
326.695 225.606 L
327.29 340.194 L
327.885 243.596 L
328.48 329.419 L
329.075 224.651 L
329.67 295.144 L
330.265 249.305 L
330.86 346.605 L
331.455 276.945 L
332.05 321.093 L
332.645 199.651 L
333.24 360.449 L
333.835 222.546 L
S
GR
GS
[0.75 0 0 0.75 18 230] CT
0 GC
2 LJ
N
333.835 222.546 M
334.43 316.564 L
335.025 308.613 L
335.62 359.848 L
336.215 271.1 L
336.81 327.012 L
337.405 328.596 L
338 307.8 L
338.595 294.887 L
339.19 268.46 L
339.785 316.964 L
340.38 291.557 L
340.975 214.183 L
341.57 242.045 L
342.165 263.296 L
342.76 323.07 L
343.355 182.543 L
343.95 340.665 L
344.545 287.065 L
345.14 239.023 L
345.735 308.854 L
346.33 224.117 L
346.925 249.06 L
347.52 255.728 L
348.115 361.592 L
348.71 341.399 L
349.305 319.301 L
349.9 185.187 L
350.495 329.616 L
351.09 320.246 L
351.685 270.38 L
352.28 243.776 L
352.875 253.606 L
353.47 198.102 L
354.065 345.05 L
354.66 281.338 L
355.255 259.032 L
355.85 253.628 L
356.445 366.805 L
357.04 282.675 L
357.635 377.281 L
358.23 276.414 L
358.825 325.714 L
359.42 261.229 L
360.015 163.329 L
360.61 282.367 L
361.205 290.966 L
361.8 348.959 L
362.395 225.517 L
362.99 280.073 L
S
GR
GS
[0.75 0 0 0.75 18 230] CT
0 GC
2 LJ
N
362.99 280.073 M
363.585 137.757 L
364.18 210.029 L
364.775 219.854 L
365.37 268.436 L
365.965 281.632 L
366.56 316.103 L
367.155 264.534 L
367.75 258.597 L
368.345 318.842 L
368.94 246.682 L
369.535 239.51 L
370.13 234.396 L
370.725 242.456 L
371.32 329.095 L
371.915 153.408 L
372.51 385.608 L
373.105 244.853 L
373.7 259.704 L
374.295 315.05 L
374.89 286.044 L
375.485 338.232 L
376.08 251.543 L
376.675 337.889 L
377.27 235.743 L
377.865 169.388 L
378.46 322.787 L
379.055 273.046 L
379.65 328.61 L
380.245 253.741 L
380.84 246.897 L
381.435 282.729 L
382.03 236.491 L
382.625 335.439 L
383.22 289.626 L
383.815 243.795 L
384.41 360.191 L
385.005 229.769 L
385.6 237.577 L
386.195 232.154 L
386.79 230.832 L
387.385 335.028 L
387.98 284.054 L
388.575 230.659 L
389.17 236.279 L
389.765 269.604 L
390.36 317.342 L
390.955 216.128 L
391.55 273.858 L
392.145 269.104 L
S
GR
GS
[0.75 0 0 0.75 18 230] CT
0 GC
2 LJ
N
392.145 269.104 M
392.74 204.805 L
393.335 293.132 L
393.93 183.301 L
394.525 222.571 L
395.12 206.729 L
395.715 242.529 L
396.31 214.674 L
396.905 232.691 L
397.5 300.973 L
398.095 299.511 L
398.69 236.579 L
399.285 266.756 L
399.88 234.121 L
400.475 274.28 L
401.07 235.133 L
401.665 160.108 L
402.26 325.34 L
402.855 213.305 L
403.45 188.191 L
404.045 234.691 L
404.64 421.631 L
405.235 251.95 L
405.83 298.852 L
406.425 269.25 L
407.02 298.605 L
407.615 294.671 L
408.21 253.036 L
408.805 232.035 L
409.4 222.174 L
409.995 351.043 L
410.59 236.374 L
411.185 192.343 L
411.78 337.041 L
412.375 205.853 L
412.97 328.81 L
413.565 369.545 L
414.16 293.751 L
414.755 292.182 L
415.35 303.981 L
415.945 183.847 L
416.54 422.947 L
417.135 185.929 L
417.73 250.342 L
418.325 164.584 L
418.92 293.009 L
419.515 227.456 L
420.11 485.758 L
420.705 276.317 L
421.3 308.529 L
S
GR
GS
[0.75 0 0 0.75 18 230] CT
0 GC
2 LJ
N
421.3 308.529 M
421.895 289.997 L
422.49 221.085 L
423.085 328.085 L
423.68 277.446 L
424.275 261 L
424.87 282.1 L
425.465 199.792 L
426.06 266.019 L
426.655 322.053 L
427.25 154.661 L
427.845 252.972 L
428.44 180.329 L
429.035 351.65 L
429.63 281.324 L
430.225 322.569 L
430.82 177.236 L
431.415 275.897 L
432.01 299.03 L
432.605 266.671 L
433.2 321.835 L
433.795 316.04 L
434.39 271.438 L
434.985 252.424 L
435.58 225.873 L
436.175 323.814 L
436.77 183.069 L
437.365 278.218 L
437.96 319.551 L
438.555 264.887 L
439.15 216.735 L
439.745 289.194 L
440.34 229.454 L
440.935 314.3 L
441.53 196.42 L
442.125 277.738 L
442.72 245.289 L
443.315 287.146 L
443.91 331.411 L
444.505 235.078 L
445.1 326.09 L
445.695 331.78 L
446.29 254.946 L
446.885 167.089 L
447.48 292.738 L
448.075 290.245 L
448.67 268.3 L
449.265 190.509 L
449.86 367.509 L
450.455 188.389 L
S
GR
GS
[0.75 0 0 0.75 18 230] CT
0 GC
2 LJ
N
450.455 188.389 M
451.05 347.081 L
451.645 260.462 L
452.24 340.219 L
452.835 412.73 L
453.43 265.893 L
454.025 210.691 L
454.62 321.919 L
455.215 427.476 L
455.81 332.333 L
456.405 262.648 L
457 239.628 L
457.595 99.913 L
458.19 372.219 L
458.785 303.223 L
459.38 268.799 L
459.975 231.585 L
460.57 363.682 L
461.165 212.908 L
461.76 298.799 L
462.355 320.846 L
462.95 385.422 L
463.545 388.307 L
464.14 337.693 L
464.735 224.265 L
465.33 231.297 L
465.925 299.011 L
466.52 293.58 L
467.115 286.644 L
467.71 309.872 L
468.305 203.281 L
468.9 243.607 L
469.495 254.536 L
470.09 272.683 L
470.685 311.125 L
471.28 211.234 L
471.875 216.015 L
472.47 182.953 L
473.065 323.348 L
473.66 312.934 L
474.255 301.938 L
474.85 172.243 L
475.445 217.777 L
476.04 282.104 L
476.635 218.372 L
477.23 243.806 L
477.825 267.086 L
478.42 228.049 L
479.015 122.923 L
479.61 199.36 L
S
GR
GS
[0.75 0 0 0.75 18 230] CT
0 GC
2 LJ
N
479.61 199.36 M
480.205 291.715 L
480.8 217.849 L
481.395 222.557 L
481.99 110.222 L
482.585 232.926 L
483.18 234.88 L
483.775 151.516 L
484.37 335.708 L
484.965 279.737 L
485.56 252.826 L
486.155 360.627 L
486.75 214.532 L
487.345 199.958 L
487.94 253.471 L
488.535 141.048 L
489.13 194.626 L
489.725 159.569 L
490.32 301.921 L
490.915 311.545 L
491.51 255.261 L
492.105 272.408 L
492.7 183.503 L
493.295 306.663 L
493.89 326.77 L
494.485 250.506 L
495.08 145.81 L
495.675 291.088 L
496.27 259.532 L
496.865 229.576 L
497.46 191.91 L
498.055 395.71 L
498.65 202.348 L
499.245 182.103 L
499.84 357.526 L
500.435 297.978 L
501.03 316.94 L
501.625 268.867 L
502.22 231.22 L
502.815 224.75 L
503.41 247.511 L
504.005 388.151 L
504.6 239.411 L
505.195 270.336 L
505.79 400.298 L
506.385 237.669 L
506.98 326.818 L
507.575 307.865 L
508.17 289.563 L
508.765 368.442 L
S
GR
GS
[0.75 0 0 0.75 18 230] CT
0 GC
2 LJ
N
508.765 368.442 M
509.36 290.446 L
509.955 224.994 L
510.55 209.822 L
511.145 193.564 L
511.74 218.422 L
512.335 357.49 L
512.93 351.694 L
513.525 315.93 L
514.12 247.673 L
514.715 232.632 L
515.31 190.276 L
515.905 196.656 L
516.5 315.208 L
517.095 177.526 L
517.69 253.877 L
518.285 270.675 L
518.88 241.201 L
519.475 248.662 L
520.07 294.262 L
520.665 280.122 L
521.26 142.079 L
521.855 304.834 L
522.45 269.318 L
523.045 361.952 L
523.64 222.604 L
524.235 313.589 L
524.83 96.079 L
525.425 302.702 L
526.02 272.301 L
526.615 308.92 L
527.21 137.233 L
527.805 298.073 L
528.4 237.664 L
528.995 272.724 L
529.59 266.86 L
530.185 253.928 L
530.78 344.101 L
531.375 341.309 L
531.97 232.815 L
532.565 234.188 L
533.16 286.245 L
533.755 290.15 L
534.35 273.502 L
534.945 275.626 L
535.54 251.698 L
536.135 250.653 L
536.73 395.488 L
537.325 223.214 L
537.92 309.892 L
S
GR
GS
[0.75 0 0 0.75 18 230] CT
0 GC
2 LJ
N
537.92 309.892 M
538.515 332.635 L
539.11 252.887 L
539.705 384.753 L
540.3 352.709 L
540.895 263.541 L
541.49 309.223 L
542.085 193.18 L
542.68 399.384 L
543.275 314.563 L
543.87 227.473 L
544.465 230.357 L
545.06 299.216 L
545.655 231.733 L
546.25 302.068 L
546.845 165.83 L
547.44 344.191 L
548.035 311.167 L
548.63 245.347 L
549.225 265.041 L
549.82 165.34 L
550.415 268.405 L
551.01 299.733 L
551.605 285.942 L
552.2 267.283 L
552.795 326.65 L
553.39 234.827 L
553.985 245.907 L
554.58 362.997 L
555.175 313.672 L
555.77 201.123 L
556.365 313.785 L
556.96 316.865 L
557.555 255.942 L
558.15 246.539 L
558.745 235.169 L
559.34 203.74 L
559.935 237.111 L
560.53 284.387 L
561.125 226.062 L
561.72 410.067 L
562.315 180.025 L
562.91 195.144 L
563.505 178.331 L
564.1 225.505 L
564.695 245.249 L
565.29 221.618 L
565.885 247.947 L
566.48 223.128 L
567.075 317.219 L
S
GR
GS
[0.75 0 0 0.75 18 230] CT
0 GC
2 LJ
N
567.075 317.219 M
567.67 337.164 L
568.265 282.496 L
568.86 314.44 L
569.455 338.406 L
570.05 245.785 L
570.645 256.671 L
571.24 416.851 L
571.835 323.158 L
572.43 200.922 L
573.025 218.099 L
573.62 243.182 L
574.215 246.352 L
574.81 317.195 L
575.405 280.372 L
576 245.529 L
576.595 270.286 L
577.19 281.983 L
577.785 333.06 L
578.38 353.911 L
578.975 287.515 L
579.57 353.942 L
580.165 231.01 L
580.76 268.883 L
581.355 269.983 L
581.95 314.334 L
582.545 339.468 L
583.14 271.126 L
583.735 234.557 L
584.33 180.877 L
584.925 297.673 L
585.52 281.767 L
586.115 216.982 L
586.71 321.301 L
587.305 227.12 L
587.9 273.099 L
588.495 324.87 L
589.09 237.365 L
589.685 265.153 L
590.28 166.468 L
590.875 382.633 L
591.47 333.154 L
592.065 262.48 L
592.66 251.494 L
593.255 278.002 L
593.85 289.085 L
594.445 346.24 L
595.04 145.391 L
595.635 346.154 L
596.23 349.865 L
S
GR
GS
[0.75 0 0 0.75 18 230] CT
0 GC
2 LJ
N
596.23 349.865 M
596.825 258.268 L
597.42 376.75 L
598.015 297.19 L
598.61 300.249 L
599.205 337.539 L
599.8 257.803 L
600.395 351.893 L
600.99 338.113 L
601.585 196.933 L
602.18 300.332 L
602.775 349.997 L
603.37 337.343 L
603.965 120.548 L
604.56 234.679 L
605.155 371.517 L
605.75 309.72 L
606.345 287.193 L
606.94 331.038 L
607.535 143.893 L
608.13 297.906 L
608.725 352.03 L
609.32 244.263 L
609.915 212.68 L
610.51 202.594 L
611.105 223.099 L
611.7 216.466 L
612.295 154.726 L
612.89 241.788 L
613.485 364.63 L
614.08 268.223 L
614.675 290.82 L
615.27 196.405 L
615.865 236.1 L
616.46 289.468 L
617.055 258.641 L
617.65 337.676 L
618.245 253.262 L
618.84 192.131 L
619.435 334.317 L
620.03 378.257 L
620.625 188.016 L
621.22 265.309 L
621.815 262.835 L
622.41 228.861 L
623.005 379.214 L
623.6 282.928 L
624.195 281.068 L
624.79 271.381 L
625.385 337.922 L
S
GR
GS
[0.75 0 0 0.75 18 230] CT
0 GC
2 LJ
N
625.385 337.922 M
625.98 287.497 L
626.575 256.337 L
627.17 314.962 L
627.765 201.557 L
628.36 354.789 L
628.955 212.481 L
629.55 259.084 L
630.145 305.904 L
630.74 264.239 L
631.335 244.535 L
631.93 277.049 L
632.525 194.908 L
633.12 244.027 L
633.715 318.743 L
634.31 295.899 L
634.905 277.637 L
635.5 295.152 L
636.095 376.572 L
636.69 285.568 L
637.285 315.181 L
637.88 402.004 L
638.475 311.26 L
639.07 273.249 L
639.665 230.546 L
640.26 163.89 L
640.855 299.946 L
641.45 233.803 L
642.045 377.503 L
642.64 273.427 L
643.235 231.106 L
643.83 208.384 L
644.425 347.668 L
645.02 269.434 L
645.615 346.62 L
646.21 297.655 L
646.805 292.824 L
647.4 426.882 L
647.995 284.831 L
648.59 270.426 L
649.185 224.283 L
649.78 242.287 L
650.375 280.962 L
650.97 240.344 L
651.565 258.153 L
652.16 256.493 L
652.755 234.371 L
653.35 268.054 L
653.945 290.031 L
654.54 227.796 L
S
GR
GS
[0.75 0 0 0.75 18 230] CT
0 GC
2 LJ
N
654.54 227.796 M
655.135 271.169 L
655.73 246.266 L
656.325 291.783 L
656.92 300.866 L
657.515 245.892 L
658.11 329.69 L
658.705 422.923 L
659.3 231.049 L
659.895 319.338 L
660.49 187.499 L
661.085 287.887 L
661.68 314.674 L
662.275 364.071 L
662.87 297.854 L
663.465 150.424 L
664.06 326.261 L
664.655 233.707 L
665.25 296.57 L
665.845 327.597 L
666.44 343.741 L
667.035 309.129 L
667.63 165.774 L
668.225 203.615 L
668.82 259.912 L
669.415 249.622 L
670.01 282.077 L
670.605 178.277 L
671.2 311.136 L
671.795 235.51 L
672.39 320.477 L
672.985 254.102 L
673.58 393.81 L
674.175 362.152 L
674.77 224.227 L
675.365 366.306 L
675.96 227.962 L
676.555 251.279 L
677.15 330.513 L
677.745 281.296 L
678.34 257.253 L
678.935 253.527 L
679.53 267.55 L
680.125 278.387 L
680.72 306.43 L
681.315 301.113 L
681.91 285.228 L
682.505 290.283 L
683.1 308.379 L
683.695 339.347 L
S
GR
GS
[0.75 0 0 0.75 18 230] CT
0 GC
2 LJ
N
683.695 339.347 M
684.29 319.826 L
684.885 272.393 L
685.48 180.275 L
686.075 251.848 L
686.67 287.356 L
687.265 223.784 L
687.86 217.806 L
688.455 387.373 L
689.05 234.358 L
689.645 270.713 L
690.24 211.2 L
690.835 250.97 L
691.43 262.707 L
692.025 257.981 L
692.62 290.573 L
693.215 316.581 L
693.81 317.102 L
694.405 275.344 L
695 270.363 L
S
GR
GS
[0.75 0 0 0.75 316.12527 260.18749] CT
0 GC
/Helvetica-Bold 15 F
GS
[1 0 0 1 0 0] CT
-293 -4 moveto 
1 -1 scale
(Unrelated<->Extracted Watermark Correlation Coefficents Alpha:0.5 Position:1000) t 
GR
GR
showpage
%%Trailer
%%BoundingBox: 79 210 550 596
%%Pages: 1
%%EOF
