%!PS-Adobe-3.0
%%Creator: (MATLAB, The Mathworks, Inc. Version 8.5.0.197613 \(R2015a\). Operating System: Windows 7)
%%Title: ./output/WmIm_05_2/extractedWatermarkCorrelationCoefficient.eps
%%CreationDate: 2015-11-04T23:49:11
%%Pages: (atend)
%%BoundingBox: (atend)
%%LanguageLevel: 3
%%EndComments
%%BeginDefaults
%%EndDefaults
%%BeginProlog
%%EndProlog
%%BeginSetup
%%BeginResource: procset (Apache XML Graphics Std ProcSet) 1.2 0
%%Version: 1.2 0
%%Copyright: (Copyright 2001-2003,2010 The Apache Software Foundation. License terms: http://www.apache.org/licenses/LICENSE-2.0)
/bd{bind def}bind def
/ld{load def}bd
/GR/grestore ld
/M/moveto ld
/LJ/setlinejoin ld
/C/curveto ld
/f/fill ld
/LW/setlinewidth ld
/GC/setgray ld
/t/show ld
/N/newpath ld
/CT/concat ld
/cp/closepath ld
/S/stroke ld
/L/lineto ld
/CC/setcmykcolor ld
/A/ashow ld
/GS/gsave ld
/RC/setrgbcolor ld
/RM/rmoveto ld
/ML/setmiterlimit ld
/re {4 2 roll M
1 index 0 rlineto
0 exch rlineto
neg 0 rlineto
cp } bd
/_ctm matrix def
/_tm matrix def
/BT { _ctm currentmatrix pop matrix _tm copy pop 0 0 moveto } bd
/ET { _ctm setmatrix } bd
/iTm { _ctm setmatrix _tm concat } bd
/Tm { _tm astore pop iTm 0 0 moveto } bd
/ux 0.0 def
/uy 0.0 def
/F {
  /Tp exch def
  /Tf exch def
  Tf findfont Tp scalefont setfont
  /cf Tf def  /cs Tp def
} bd
/ULS {currentpoint /uy exch def /ux exch def} bd
/ULE {
  /Tcx currentpoint pop def
  gsave
  newpath
  cf findfont cs scalefont dup
  /FontMatrix get 0 get /Ts exch def /FontInfo get dup
  /UnderlinePosition get Ts mul /To exch def
  /UnderlineThickness get Ts mul /Tt exch def
  ux uy To add moveto  Tcx uy To add lineto
  Tt setlinewidth stroke
  grestore
} bd
/OLE {
  /Tcx currentpoint pop def
  gsave
  newpath
  cf findfont cs scalefont dup
  /FontMatrix get 0 get /Ts exch def /FontInfo get dup
  /UnderlinePosition get Ts mul /To exch def
  /UnderlineThickness get Ts mul /Tt exch def
  ux uy To add cs add moveto Tcx uy To add cs add lineto
  Tt setlinewidth stroke
  grestore
} bd
/SOE {
  /Tcx currentpoint pop def
  gsave
  newpath
  cf findfont cs scalefont dup
  /FontMatrix get 0 get /Ts exch def /FontInfo get dup
  /UnderlinePosition get Ts mul /To exch def
  /UnderlineThickness get Ts mul /Tt exch def
  ux uy To add cs 10 mul 26 idiv add moveto Tcx uy To add cs 10 mul 26 idiv add lineto
  Tt setlinewidth stroke
  grestore
} bd
/QT {
/Y22 exch store
/X22 exch store
/Y21 exch store
/X21 exch store
currentpoint
/Y21 load 2 mul add 3 div exch
/X21 load 2 mul add 3 div exch
/X21 load 2 mul /X22 load add 3 div
/Y21 load 2 mul /Y22 load add 3 div
/X22 load /Y22 load curveto
} bd
/SSPD {
dup length /d exch dict def
{
/v exch def
/k exch def
currentpagedevice k known {
/cpdv currentpagedevice k get def
v cpdv ne {
/upd false def
/nullv v type /nulltype eq def
/nullcpdv cpdv type /nulltype eq def
nullv nullcpdv or
{
/upd true def
} {
/sametype v type cpdv type eq def
sametype {
v type /arraytype eq {
/vlen v length def
/cpdvlen cpdv length def
vlen cpdvlen eq {
0 1 vlen 1 sub {
/i exch def
/obj v i get def
/cpdobj cpdv i get def
obj cpdobj ne {
/upd true def
exit
} if
} for
} {
/upd true def
} ifelse
} {
v type /dicttype eq {
v {
/dv exch def
/dk exch def
/cpddv cpdv dk get def
dv cpddv ne {
/upd true def
exit
} if
} forall
} {
/upd true def
} ifelse
} ifelse
} if
} ifelse
upd true eq {
d k v put
} if
} if
} if
} forall
d length 0 gt {
d setpagedevice
} if
} bd
%%EndResource
%%BeginResource: procset (Apache XML Graphics EPS ProcSet) 1.0 0
%%Version: 1.0 0
%%Copyright: (Copyright 2002-2003 The Apache Software Foundation. License terms: http://www.apache.org/licenses/LICENSE-2.0)
/BeginEPSF { %def
/b4_Inc_state save def         % Save state for cleanup
/dict_count countdictstack def % Count objects on dict stack
/op_count count 1 sub def      % Count objects on operand stack
userdict begin                 % Push userdict on dict stack
/showpage { } def              % Redefine showpage, { } = null proc
0 setgray 0 setlinecap         % Prepare graphics state
1 setlinewidth 0 setlinejoin
10 setmiterlimit [ ] 0 setdash newpath
/languagelevel where           % If level not equal to 1 then
{pop languagelevel             % set strokeadjust and
1 ne                           % overprint to their defaults.
{false setstrokeadjust false setoverprint
} if
} if
} bd
/EndEPSF { %def
count op_count sub {pop} repeat            % Clean up stacks
countdictstack dict_count sub {end} repeat
b4_Inc_state restore
} bd
%%EndResource
%FOPBeginFontDict
%%IncludeResource: font Courier-Bold
%%IncludeResource: font Helvetica
%%IncludeResource: font Courier-BoldOblique
%%IncludeResource: font Courier-Oblique
%%IncludeResource: font Times-Roman
%%IncludeResource: font Helvetica-BoldOblique
%%IncludeResource: font Helvetica-Bold
%%IncludeResource: font Helvetica-Oblique
%%IncludeResource: font Times-BoldItalic
%%IncludeResource: font Courier
%%IncludeResource: font Times-Italic
%%IncludeResource: font Times-Bold
%%IncludeResource: font Symbol
%%IncludeResource: font ZapfDingbats
%FOPEndFontDict
%%BeginResource: encoding WinAnsiEncoding
/WinAnsiEncoding [
/.notdef /.notdef /.notdef /.notdef /.notdef
/.notdef /.notdef /.notdef /.notdef /.notdef
/.notdef /.notdef /.notdef /.notdef /.notdef
/.notdef /.notdef /.notdef /.notdef /.notdef
/.notdef /.notdef /.notdef /.notdef /.notdef
/.notdef /.notdef /.notdef /.notdef /.notdef
/.notdef /.notdef /space /exclam /quotedbl
/numbersign /dollar /percent /ampersand /quotesingle
/parenleft /parenright /asterisk /plus /comma
/hyphen /period /slash /zero /one
/two /three /four /five /six
/seven /eight /nine /colon /semicolon
/less /equal /greater /question /at
/A /B /C /D /E
/F /G /H /I /J
/K /L /M /N /O
/P /Q /R /S /T
/U /V /W /X /Y
/Z /bracketleft /backslash /bracketright /asciicircum
/underscore /quoteleft /a /b /c
/d /e /f /g /h
/i /j /k /l /m
/n /o /p /q /r
/s /t /u /v /w
/x /y /z /braceleft /bar
/braceright /asciitilde /bullet /Euro /bullet
/quotesinglbase /florin /quotedblbase /ellipsis /dagger
/daggerdbl /circumflex /perthousand /Scaron /guilsinglleft
/OE /bullet /Zcaron /bullet /bullet
/quoteleft /quoteright /quotedblleft /quotedblright /bullet
/endash /emdash /asciitilde /trademark /scaron
/guilsinglright /oe /bullet /zcaron /Ydieresis
/space /exclamdown /cent /sterling /currency
/yen /brokenbar /section /dieresis /copyright
/ordfeminine /guillemotleft /logicalnot /sfthyphen /registered
/macron /degree /plusminus /twosuperior /threesuperior
/acute /mu /paragraph /middot /cedilla
/onesuperior /ordmasculine /guillemotright /onequarter /onehalf
/threequarters /questiondown /Agrave /Aacute /Acircumflex
/Atilde /Adieresis /Aring /AE /Ccedilla
/Egrave /Eacute /Ecircumflex /Edieresis /Igrave
/Iacute /Icircumflex /Idieresis /Eth /Ntilde
/Ograve /Oacute /Ocircumflex /Otilde /Odieresis
/multiply /Oslash /Ugrave /Uacute /Ucircumflex
/Udieresis /Yacute /Thorn /germandbls /agrave
/aacute /acircumflex /atilde /adieresis /aring
/ae /ccedilla /egrave /eacute /ecircumflex
/edieresis /igrave /iacute /icircumflex /idieresis
/eth /ntilde /ograve /oacute /ocircumflex
/otilde /odieresis /divide /oslash /ugrave
/uacute /ucircumflex /udieresis /yacute /thorn
/ydieresis
] def
%%EndResource
%FOPBeginFontReencode
/Courier-Bold findfont
dup length dict begin
  {1 index /FID ne {def} {pop pop} ifelse} forall
  /Encoding WinAnsiEncoding def
  currentdict
end
/Courier-Bold exch definefont pop
/Helvetica findfont
dup length dict begin
  {1 index /FID ne {def} {pop pop} ifelse} forall
  /Encoding WinAnsiEncoding def
  currentdict
end
/Helvetica exch definefont pop
/Courier-BoldOblique findfont
dup length dict begin
  {1 index /FID ne {def} {pop pop} ifelse} forall
  /Encoding WinAnsiEncoding def
  currentdict
end
/Courier-BoldOblique exch definefont pop
/Courier-Oblique findfont
dup length dict begin
  {1 index /FID ne {def} {pop pop} ifelse} forall
  /Encoding WinAnsiEncoding def
  currentdict
end
/Courier-Oblique exch definefont pop
/Times-Roman findfont
dup length dict begin
  {1 index /FID ne {def} {pop pop} ifelse} forall
  /Encoding WinAnsiEncoding def
  currentdict
end
/Times-Roman exch definefont pop
/Helvetica-BoldOblique findfont
dup length dict begin
  {1 index /FID ne {def} {pop pop} ifelse} forall
  /Encoding WinAnsiEncoding def
  currentdict
end
/Helvetica-BoldOblique exch definefont pop
/Helvetica-Bold findfont
dup length dict begin
  {1 index /FID ne {def} {pop pop} ifelse} forall
  /Encoding WinAnsiEncoding def
  currentdict
end
/Helvetica-Bold exch definefont pop
/Helvetica-Oblique findfont
dup length dict begin
  {1 index /FID ne {def} {pop pop} ifelse} forall
  /Encoding WinAnsiEncoding def
  currentdict
end
/Helvetica-Oblique exch definefont pop
/Times-BoldItalic findfont
dup length dict begin
  {1 index /FID ne {def} {pop pop} ifelse} forall
  /Encoding WinAnsiEncoding def
  currentdict
end
/Times-BoldItalic exch definefont pop
/Courier findfont
dup length dict begin
  {1 index /FID ne {def} {pop pop} ifelse} forall
  /Encoding WinAnsiEncoding def
  currentdict
end
/Courier exch definefont pop
/Times-Italic findfont
dup length dict begin
  {1 index /FID ne {def} {pop pop} ifelse} forall
  /Encoding WinAnsiEncoding def
  currentdict
end
/Times-Italic exch definefont pop
/Times-Bold findfont
dup length dict begin
  {1 index /FID ne {def} {pop pop} ifelse} forall
  /Encoding WinAnsiEncoding def
  currentdict
end
/Times-Bold exch definefont pop
%FOPEndFontReencode
%%EndSetup
%%Page: 1 1
%%PageBoundingBox: 0 0 595 842
%%BeginPageSetup
<<
/PageSize [595 842]
/ImagingBBox null
>> setpagedevice
[1 0 0 -1 0 842] CT
%%EndPageSetup
GS
[0.75 0 0 0.75 18 230] CT
0.997 GC
N
0 0 768 576 re
f
GR
GS
[0.75 0 0 0.75 18 230] CT
0.997 GC
N
0 0 768 576 re
f
GR
GS
[0.75 0 0 0.75 18 230] CT
0.997 GC
N
100 513 M
695 513 L
695 43 L
100 43 L
cp
f
GR
GS
[0.75 0 0 0.75 18 230] CT
0 GC
2 setlinecap
10.0 ML
N
100 513 M
695 513 L
S
GR
GS
[0.75 0 0 0.75 18 230] CT
0 GC
2 setlinecap
10.0 ML
N
100 43 M
695 43 L
S
GR
GS
[0.75 0 0 0.75 18 230] CT
0 GC
2 setlinecap
10.0 ML
N
100 513 M
100 507.05 L
S
GR
GS
[0.75 0 0 0.75 18 230] CT
0 GC
2 setlinecap
10.0 ML
N
159.5 513 M
159.5 507.05 L
S
GR
GS
[0.75 0 0 0.75 18 230] CT
0 GC
2 setlinecap
10.0 ML
N
219 513 M
219 507.05 L
S
GR
GS
[0.75 0 0 0.75 18 230] CT
0 GC
2 setlinecap
10.0 ML
N
278.5 513 M
278.5 507.05 L
S
GR
GS
[0.75 0 0 0.75 18 230] CT
0 GC
2 setlinecap
10.0 ML
N
338 513 M
338 507.05 L
S
GR
GS
[0.75 0 0 0.75 18 230] CT
0 GC
2 setlinecap
10.0 ML
N
397.5 513 M
397.5 507.05 L
S
GR
GS
[0.75 0 0 0.75 18 230] CT
0 GC
2 setlinecap
10.0 ML
N
457 513 M
457 507.05 L
S
GR
GS
[0.75 0 0 0.75 18 230] CT
0 GC
2 setlinecap
10.0 ML
N
516.5 513 M
516.5 507.05 L
S
GR
GS
[0.75 0 0 0.75 18 230] CT
0 GC
2 setlinecap
10.0 ML
N
576 513 M
576 507.05 L
S
GR
GS
[0.75 0 0 0.75 18 230] CT
0 GC
2 setlinecap
10.0 ML
N
635.5 513 M
635.5 507.05 L
S
GR
GS
[0.75 0 0 0.75 18 230] CT
0 GC
2 setlinecap
10.0 ML
N
695 513 M
695 507.05 L
S
GR
GS
[0.75 0 0 0.75 18 230] CT
0 GC
2 setlinecap
10.0 ML
N
100 43 M
100 48.95 L
S
GR
GS
[0.75 0 0 0.75 18 230] CT
0 GC
2 setlinecap
10.0 ML
N
159.5 43 M
159.5 48.95 L
S
GR
GS
[0.75 0 0 0.75 18 230] CT
0 GC
2 setlinecap
10.0 ML
N
219 43 M
219 48.95 L
S
GR
GS
[0.75 0 0 0.75 18 230] CT
0 GC
2 setlinecap
10.0 ML
N
278.5 43 M
278.5 48.95 L
S
GR
GS
[0.75 0 0 0.75 18 230] CT
0 GC
2 setlinecap
10.0 ML
N
338 43 M
338 48.95 L
S
GR
GS
[0.75 0 0 0.75 18 230] CT
0 GC
2 setlinecap
10.0 ML
N
397.5 43 M
397.5 48.95 L
S
GR
GS
[0.75 0 0 0.75 18 230] CT
0 GC
2 setlinecap
10.0 ML
N
457 43 M
457 48.95 L
S
GR
GS
[0.75 0 0 0.75 18 230] CT
0 GC
2 setlinecap
10.0 ML
N
516.5 43 M
516.5 48.95 L
S
GR
GS
[0.75 0 0 0.75 18 230] CT
0 GC
2 setlinecap
10.0 ML
N
576 43 M
576 48.95 L
S
GR
GS
[0.75 0 0 0.75 18 230] CT
0 GC
2 setlinecap
10.0 ML
N
635.5 43 M
635.5 48.95 L
S
GR
GS
[0.75 0 0 0.75 18 230] CT
0 GC
2 setlinecap
10.0 ML
N
695 43 M
695 48.95 L
S
GR
GS
[0.75 0 0 0.75 93 618.74998] CT
0 GC
/Helvetica 13 F
GS
[1 0 0 1 0 0] CT
-4 14 moveto 
1 -1 scale
(0) t 
GR
GR
GS
[0.75 0 0 0.75 137.625 618.74998] CT
0 GC
/Helvetica 13 F
GS
[1 0 0 1 0 0] CT
-11 14 moveto 
1 -1 scale
(100) t 
GR
GR
GS
[0.75 0 0 0.75 182.25 618.74998] CT
0 GC
/Helvetica 13 F
GS
[1 0 0 1 0 0] CT
-11 14 moveto 
1 -1 scale
(200) t 
GR
GR
GS
[0.75 0 0 0.75 226.875 618.74998] CT
0 GC
/Helvetica 13 F
GS
[1 0 0 1 0 0] CT
-11 14 moveto 
1 -1 scale
(300) t 
GR
GR
GS
[0.75 0 0 0.75 271.5 618.74998] CT
0 GC
/Helvetica 13 F
GS
[1 0 0 1 0 0] CT
-11 14 moveto 
1 -1 scale
(400) t 
GR
GR
GS
[0.75 0 0 0.75 316.125 618.74998] CT
0 GC
/Helvetica 13 F
GS
[1 0 0 1 0 0] CT
-11 14 moveto 
1 -1 scale
(500) t 
GR
GR
GS
[0.75 0 0 0.75 360.75 618.74998] CT
0 GC
/Helvetica 13 F
GS
[1 0 0 1 0 0] CT
-11 14 moveto 
1 -1 scale
(600) t 
GR
GR
GS
[0.75 0 0 0.75 405.375 618.74998] CT
0 GC
/Helvetica 13 F
GS
[1 0 0 1 0 0] CT
-11 14 moveto 
1 -1 scale
(700) t 
GR
GR
GS
[0.75 0 0 0.75 450 618.74998] CT
0 GC
/Helvetica 13 F
GS
[1 0 0 1 0 0] CT
-11 14 moveto 
1 -1 scale
(800) t 
GR
GR
GS
[0.75 0 0 0.75 494.625 618.74998] CT
0 GC
/Helvetica 13 F
GS
[1 0 0 1 0 0] CT
-11 14 moveto 
1 -1 scale
(900) t 
GR
GR
GS
[0.75 0 0 0.75 539.25 618.74998] CT
0 GC
/Helvetica 13 F
GS
[1 0 0 1 0 0] CT
-14.5 14 moveto 
1 -1 scale
(1000) t 
GR
GR
GS
[0.75 0 0 0.75 18 230] CT
0 GC
2 setlinecap
10.0 ML
N
100 513 M
100 43 L
S
GR
GS
[0.75 0 0 0.75 18 230] CT
0 GC
2 setlinecap
10.0 ML
N
695 513 M
695 43 L
S
GR
GS
[0.75 0 0 0.75 18 230] CT
0 GC
2 setlinecap
10.0 ML
N
100 513 M
105.95 513 L
S
GR
GS
[0.75 0 0 0.75 18 230] CT
0 GC
2 setlinecap
10.0 ML
N
100 460.778 M
105.95 460.778 L
S
GR
GS
[0.75 0 0 0.75 18 230] CT
0 GC
2 setlinecap
10.0 ML
N
100 408.556 M
105.95 408.556 L
S
GR
GS
[0.75 0 0 0.75 18 230] CT
0 GC
2 setlinecap
10.0 ML
N
100 356.333 M
105.95 356.333 L
S
GR
GS
[0.75 0 0 0.75 18 230] CT
0 GC
2 setlinecap
10.0 ML
N
100 304.111 M
105.95 304.111 L
S
GR
GS
[0.75 0 0 0.75 18 230] CT
0 GC
2 setlinecap
10.0 ML
N
100 251.889 M
105.95 251.889 L
S
GR
GS
[0.75 0 0 0.75 18 230] CT
0 GC
2 setlinecap
10.0 ML
N
100 199.667 M
105.95 199.667 L
S
GR
GS
[0.75 0 0 0.75 18 230] CT
0 GC
2 setlinecap
10.0 ML
N
100 147.444 M
105.95 147.444 L
S
GR
GS
[0.75 0 0 0.75 18 230] CT
0 GC
2 setlinecap
10.0 ML
N
100 95.222 M
105.95 95.222 L
S
GR
GS
[0.75 0 0 0.75 18 230] CT
0 GC
2 setlinecap
10.0 ML
N
100 43 M
105.95 43 L
S
GR
GS
[0.75 0 0 0.75 18 230] CT
0 GC
2 setlinecap
10.0 ML
N
695 513 M
689.05 513 L
S
GR
GS
[0.75 0 0 0.75 18 230] CT
0 GC
2 setlinecap
10.0 ML
N
695 460.778 M
689.05 460.778 L
S
GR
GS
[0.75 0 0 0.75 18 230] CT
0 GC
2 setlinecap
10.0 ML
N
695 408.556 M
689.05 408.556 L
S
GR
GS
[0.75 0 0 0.75 18 230] CT
0 GC
2 setlinecap
10.0 ML
N
695 356.333 M
689.05 356.333 L
S
GR
GS
[0.75 0 0 0.75 18 230] CT
0 GC
2 setlinecap
10.0 ML
N
695 304.111 M
689.05 304.111 L
S
GR
GS
[0.75 0 0 0.75 18 230] CT
0 GC
2 setlinecap
10.0 ML
N
695 251.889 M
689.05 251.889 L
S
GR
GS
[0.75 0 0 0.75 18 230] CT
0 GC
2 setlinecap
10.0 ML
N
695 199.667 M
689.05 199.667 L
S
GR
GS
[0.75 0 0 0.75 18 230] CT
0 GC
2 setlinecap
10.0 ML
N
695 147.444 M
689.05 147.444 L
S
GR
GS
[0.75 0 0 0.75 18 230] CT
0 GC
2 setlinecap
10.0 ML
N
695 95.222 M
689.05 95.222 L
S
GR
GS
[0.75 0 0 0.75 18 230] CT
0 GC
2 setlinecap
10.0 ML
N
695 43 M
689.05 43 L
S
GR
GS
[0.75 0 0 0.75 89 614.75] CT
0 GC
/Helvetica 13 F
GS
[1 0 0 1 0 0] CT
-12 5.5 moveto 
1 -1 scale
(-3) t 
GR
GR
GS
[0.75 0 0 0.75 89 575.58333] CT
0 GC
/Helvetica 13 F
GS
[1 0 0 1 0 0] CT
-12 5.5 moveto 
1 -1 scale
(-2) t 
GR
GR
GS
[0.75 0 0 0.75 89 536.41666] CT
0 GC
/Helvetica 13 F
GS
[1 0 0 1 0 0] CT
-12 5.5 moveto 
1 -1 scale
(-1) t 
GR
GR
GS
[0.75 0 0 0.75 89 497.25001] CT
0 GC
/Helvetica 13 F
GS
[1 0 0 1 0 0] CT
-8 5.5 moveto 
1 -1 scale
(0) t 
GR
GR
GS
[0.75 0 0 0.75 89 458.08334] CT
0 GC
/Helvetica 13 F
GS
[1 0 0 1 0 0] CT
-8 5.5 moveto 
1 -1 scale
(1) t 
GR
GR
GS
[0.75 0 0 0.75 89 418.91666] CT
0 GC
/Helvetica 13 F
GS
[1 0 0 1 0 0] CT
-8 5.5 moveto 
1 -1 scale
(2) t 
GR
GR
GS
[0.75 0 0 0.75 89 379.75] CT
0 GC
/Helvetica 13 F
GS
[1 0 0 1 0 0] CT
-8 5.5 moveto 
1 -1 scale
(3) t 
GR
GR
GS
[0.75 0 0 0.75 89 340.58333] CT
0 GC
/Helvetica 13 F
GS
[1 0 0 1 0 0] CT
-8 5.5 moveto 
1 -1 scale
(4) t 
GR
GR
GS
[0.75 0 0 0.75 89 301.41667] CT
0 GC
/Helvetica 13 F
GS
[1 0 0 1 0 0] CT
-8 5.5 moveto 
1 -1 scale
(5) t 
GR
GR
GS
[0.75 0 0 0.75 89 262.25] CT
0 GC
/Helvetica 13 F
GS
[1 0 0 1 0 0] CT
-8 5.5 moveto 
1 -1 scale
(6) t 
GR
GR
GS
[0.75 0 0 0.75 18 230] CT
0 GC
2 LJ
N
100.595 300.779 M
101.19 349.563 L
101.785 330.663 L
102.38 340.494 L
102.975 335.06 L
103.57 377.507 L
104.165 363.555 L
104.76 323.161 L
105.355 337.979 L
105.95 362.562 L
106.545 342.369 L
107.14 426.242 L
107.735 424.575 L
108.33 311.694 L
108.925 341.08 L
109.52 288.082 L
110.115 260.736 L
110.71 392.003 L
111.305 415.247 L
111.9 323.724 L
112.495 275.679 L
113.09 444.912 L
113.685 415.518 L
114.28 429.04 L
114.875 301.677 L
115.47 368.08 L
116.065 285.096 L
116.66 292.188 L
117.255 368.818 L
117.85 330.668 L
118.445 362.592 L
119.04 403.258 L
119.635 376.708 L
120.23 318.877 L
120.825 376.542 L
121.42 263.685 L
122.015 274.197 L
122.61 330.679 L
123.205 302.253 L
123.8 372.206 L
124.395 304.567 L
124.99 306.251 L
125.585 403.834 L
126.18 294.718 L
126.775 259.214 L
127.37 433.093 L
127.965 294.512 L
128.56 270.807 L
129.155 281.004 L
129.75 434.18 L
S
GR
GS
[0.75 0 0 0.75 18 230] CT
0 GC
2 LJ
N
129.75 434.18 M
130.345 324.209 L
130.94 391.151 L
131.535 408.942 L
132.13 424.559 L
132.725 370.991 L
133.32 419.62 L
133.915 462.698 L
134.51 288.829 L
135.105 352.098 L
135.7 374.091 L
136.295 274.314 L
136.89 271.765 L
137.485 322.779 L
138.08 330.799 L
138.675 331.672 L
139.27 269.29 L
139.865 372.368 L
140.46 323.901 L
141.055 297.421 L
141.65 384.626 L
142.245 399.944 L
142.84 471.173 L
143.435 414.753 L
144.03 351.977 L
144.625 325.697 L
145.22 336.67 L
145.815 326.818 L
146.41 293.536 L
147.005 340.423 L
147.6 275.131 L
148.195 362.571 L
148.79 341.979 L
149.385 310.557 L
149.98 450.717 L
150.575 404.799 L
151.17 291.068 L
151.765 382.717 L
152.36 374.176 L
152.955 298.426 L
153.55 429.06 L
154.145 335.124 L
154.74 400.518 L
155.335 405.841 L
155.93 294.236 L
156.525 362.964 L
157.12 300.003 L
157.715 293.407 L
158.31 412.135 L
158.905 364.836 L
S
GR
GS
[0.75 0 0 0.75 18 230] CT
0 GC
2 LJ
N
158.905 364.836 M
159.5 439.783 L
160.095 399.75 L
160.69 393.858 L
161.285 368.63 L
161.88 326.327 L
162.475 293.189 L
163.07 324.414 L
163.665 366.534 L
164.26 467.708 L
164.855 293.571 L
165.45 329.017 L
166.045 344.612 L
166.64 285.576 L
167.235 430.454 L
167.83 361.17 L
168.425 409.27 L
169.02 380.983 L
169.615 291.881 L
170.21 316.87 L
170.805 442.971 L
171.4 398.056 L
171.995 387.793 L
172.59 387.881 L
173.185 417.685 L
173.78 407.089 L
174.375 271.31 L
174.97 312.567 L
175.565 352.945 L
176.16 296.673 L
176.755 327.437 L
177.35 363.703 L
177.945 304.362 L
178.54 382.981 L
179.135 291.653 L
179.73 316.585 L
180.325 284.386 L
180.92 304.104 L
181.515 399.212 L
182.11 373.517 L
182.705 394.094 L
183.3 311.253 L
183.895 365.973 L
184.49 409.659 L
185.085 392.736 L
185.68 366.476 L
186.275 444.075 L
186.87 362.726 L
187.465 301.188 L
188.06 425.976 L
S
GR
GS
[0.75 0 0 0.75 18 230] CT
0 GC
2 LJ
N
188.06 425.976 M
188.655 280.417 L
189.25 316.366 L
189.845 335.705 L
190.44 411.658 L
191.035 409.56 L
191.63 422.085 L
192.225 426.275 L
192.82 400.012 L
193.415 422.928 L
194.01 344.293 L
194.605 274.934 L
195.2 374.041 L
195.795 293.985 L
196.39 410.901 L
196.985 372.836 L
197.58 447.311 L
198.175 392.041 L
198.77 302.168 L
199.365 389.378 L
199.96 349.22 L
200.555 271.313 L
201.15 344.996 L
201.745 307.59 L
202.34 378.061 L
202.935 263.911 L
203.53 395.406 L
204.125 279.156 L
204.72 356.94 L
205.315 354.528 L
205.91 351.989 L
206.505 411.318 L
207.1 400.52 L
207.695 410.18 L
208.29 332.32 L
208.885 263.413 L
209.48 301.017 L
210.075 357.646 L
210.67 331.937 L
211.265 443.322 L
211.86 361.29 L
212.455 357.134 L
213.05 312.238 L
213.645 265.955 L
214.24 276.797 L
214.835 335.881 L
215.43 368.442 L
216.025 362.561 L
216.62 374.742 L
217.215 400.465 L
S
GR
GS
[0.75 0 0 0.75 18 230] CT
0 GC
2 LJ
N
217.215 400.465 M
217.81 324.731 L
218.405 396.037 L
219 402.313 L
219.595 370.447 L
220.19 322.947 L
220.785 413.693 L
221.38 386.962 L
221.975 440.352 L
222.57 365.141 L
223.165 319.186 L
223.76 328.107 L
224.355 364.398 L
224.95 284.441 L
225.545 390.134 L
226.14 351.99 L
226.735 332.115 L
227.33 325.318 L
227.925 356.057 L
228.52 440.749 L
229.115 428.803 L
229.71 268.547 L
230.305 373.774 L
230.9 281.087 L
231.495 294.022 L
232.09 310.528 L
232.685 272.251 L
233.28 420.736 L
233.875 364.419 L
234.47 363.104 L
235.065 425.039 L
235.66 426.575 L
236.255 434.324 L
236.85 278.77 L
237.445 361.078 L
238.04 407.693 L
238.635 408.765 L
239.23 431.623 L
239.825 363.307 L
240.42 336.527 L
241.015 422.334 L
241.61 314.343 L
242.205 365.516 L
242.8 324.662 L
243.395 307.104 L
243.99 399.502 L
244.585 289.27 L
245.18 359.089 L
245.775 263.277 L
246.37 379.027 L
S
GR
GS
[0.75 0 0 0.75 18 230] CT
0 GC
2 LJ
N
246.37 379.027 M
246.965 282.847 L
247.56 448.935 L
248.155 273.43 L
248.75 80.271 L
249.345 317.011 L
249.94 388.219 L
250.535 382.447 L
251.13 322.289 L
251.725 287.29 L
252.32 334.216 L
252.915 352.054 L
253.51 371.301 L
254.105 443.179 L
254.7 414.338 L
255.295 264.61 L
255.89 332.911 L
256.485 393.573 L
257.08 339.329 L
257.675 404.137 L
258.27 306.235 L
258.865 411.295 L
259.46 279.576 L
260.055 374.662 L
260.65 285.384 L
261.245 412.63 L
261.84 361.576 L
262.435 430.41 L
263.03 266.74 L
263.625 375.602 L
264.22 271.611 L
264.815 354.012 L
265.41 366.24 L
266.005 349.696 L
266.6 420.529 L
267.195 422.134 L
267.79 424.925 L
268.385 413.803 L
268.98 314.609 L
269.575 391.307 L
270.17 416.658 L
270.765 341.823 L
271.36 317.441 L
271.955 423.546 L
272.55 342.922 L
273.145 385.286 L
273.74 437.292 L
274.335 368.483 L
274.93 279.006 L
275.525 341.975 L
S
GR
GS
[0.75 0 0 0.75 18 230] CT
0 GC
2 LJ
N
275.525 341.975 M
276.12 419.098 L
276.715 318.969 L
277.31 362.993 L
277.905 317.39 L
278.5 370.068 L
279.095 422.643 L
279.69 323.863 L
280.285 303.075 L
280.88 407.622 L
281.475 269.221 L
282.07 407.236 L
282.665 349.512 L
283.26 273.177 L
283.855 301.762 L
284.45 319.419 L
285.045 313.56 L
285.64 436.507 L
286.235 391.502 L
286.83 300.699 L
287.425 330.71 L
288.02 368.177 L
288.615 383.47 L
289.21 403.751 L
289.805 434.256 L
290.4 325.426 L
290.995 425.51 L
291.59 338.055 L
292.185 380.33 L
292.78 427.193 L
293.375 388.393 L
293.97 257.703 L
294.565 414.045 L
295.16 401.826 L
295.755 439.891 L
296.35 290.404 L
296.945 310.502 L
297.54 294.393 L
298.135 412.144 L
298.73 438.042 L
299.325 375.417 L
299.92 307.86 L
300.515 297.405 L
301.11 427.959 L
301.705 402.294 L
302.3 413.1 L
302.895 383.628 L
303.49 382.206 L
304.085 298.093 L
304.68 348.094 L
S
GR
GS
[0.75 0 0 0.75 18 230] CT
0 GC
2 LJ
N
304.68 348.094 M
305.275 451.16 L
305.87 332.821 L
306.465 404.323 L
307.06 370.702 L
307.655 310.018 L
308.25 322.431 L
308.845 396.943 L
309.44 416.724 L
310.035 346.364 L
310.63 271.706 L
311.225 333.804 L
311.82 427.751 L
312.415 266.05 L
313.01 343.013 L
313.605 306.281 L
314.2 336.118 L
314.795 330.274 L
315.39 416.108 L
315.985 391.267 L
316.58 438.814 L
317.175 288.408 L
317.77 296.46 L
318.365 308.285 L
318.96 335.564 L
319.555 337.769 L
320.15 295.976 L
320.745 409.651 L
321.34 404.84 L
321.935 314.328 L
322.53 323.244 L
323.125 378.37 L
323.72 333.758 L
324.315 273.53 L
324.91 316.301 L
325.505 328.88 L
326.1 449.94 L
326.695 425.627 L
327.29 348.316 L
327.885 380.843 L
328.48 338.692 L
329.075 421.073 L
329.67 384.02 L
330.265 290.917 L
330.86 431.815 L
331.455 327.25 L
332.05 434.98 L
332.645 344.891 L
333.24 319.281 L
333.835 449.478 L
S
GR
GS
[0.75 0 0 0.75 18 230] CT
0 GC
2 LJ
N
333.835 449.478 M
334.43 295.594 L
335.025 454.985 L
335.62 409.627 L
336.215 429.192 L
336.81 397.601 L
337.405 347.135 L
338 316.834 L
338.595 295.491 L
339.19 298.194 L
339.785 329.726 L
340.38 406.216 L
340.975 344.179 L
341.57 300.356 L
342.165 282.038 L
342.76 323.98 L
343.355 380.006 L
343.95 305.139 L
344.545 422.856 L
345.14 303.231 L
345.735 381.667 L
346.33 353.491 L
346.925 429.823 L
347.52 293.331 L
348.115 416.556 L
348.71 413.013 L
349.305 414.136 L
349.9 352.849 L
350.495 314.239 L
351.09 360.909 L
351.685 345.18 L
352.28 436.007 L
352.875 413.638 L
353.47 316.649 L
354.065 357.277 L
354.66 306.092 L
355.255 407.824 L
355.85 379.929 L
356.445 431.829 L
357.04 303.548 L
357.635 292.162 L
358.23 281.949 L
358.825 435.42 L
359.42 380.141 L
360.015 415.715 L
360.61 428.108 L
361.205 435.54 L
361.8 404.881 L
362.395 356.075 L
362.99 384.611 L
S
GR
GS
[0.75 0 0 0.75 18 230] CT
0 GC
2 LJ
N
362.99 384.611 M
363.585 346.332 L
364.18 406.255 L
364.775 355.857 L
365.37 419.91 L
365.965 391.362 L
366.56 333.504 L
367.155 264.842 L
367.75 425.049 L
368.345 406.176 L
368.94 282.187 L
369.535 287.158 L
370.13 434.759 L
370.725 318.612 L
371.32 371.768 L
371.915 296.879 L
372.51 401.131 L
373.105 421.999 L
373.7 375.599 L
374.295 410.63 L
374.89 375.303 L
375.485 307.892 L
376.08 401.184 L
376.675 394.282 L
377.27 393.094 L
377.865 330.692 L
378.46 393.713 L
379.055 336.241 L
379.65 372.313 L
380.245 393.184 L
380.84 271.051 L
381.435 372.69 L
382.03 328.35 L
382.625 345.511 L
383.22 350.302 L
383.815 428.939 L
384.41 307.194 L
385.005 366.213 L
385.6 290.393 L
386.195 351.812 L
386.79 400.035 L
387.385 290.993 L
387.98 314.349 L
388.575 295.623 L
389.17 253.309 L
389.765 400.106 L
390.36 429.02 L
390.955 340.023 L
391.55 331.088 L
392.145 421.737 L
S
GR
GS
[0.75 0 0 0.75 18 230] CT
0 GC
2 LJ
N
392.145 421.737 M
392.74 279.612 L
393.335 298.963 L
393.93 341.402 L
394.525 343.054 L
395.12 317.908 L
395.715 432.623 L
396.31 272.185 L
396.905 285.228 L
397.5 281.432 L
398.095 273.445 L
398.69 343.953 L
399.285 305.916 L
399.88 432.52 L
400.475 414.641 L
401.07 283.095 L
401.665 355.691 L
402.26 368.13 L
402.855 370.439 L
403.45 366.707 L
404.045 385.762 L
404.64 436.534 L
405.235 307.327 L
405.83 268.512 L
406.425 379.099 L
407.02 273.797 L
407.615 276.894 L
408.21 350.462 L
408.805 350.245 L
409.4 252.7 L
409.995 419.165 L
410.59 392.159 L
411.185 271.415 L
411.78 352.695 L
412.375 371.945 L
412.97 308.61 L
413.565 380.832 L
414.16 372.583 L
414.755 383.235 L
415.35 450.321 L
415.945 381.237 L
416.54 437.308 L
417.135 400.958 L
417.73 403.626 L
418.325 434.415 L
418.92 276.986 L
419.515 301.88 L
420.11 384.609 L
420.705 308.838 L
421.3 312.91 L
S
GR
GS
[0.75 0 0 0.75 18 230] CT
0 GC
2 LJ
N
421.3 312.91 M
421.895 280.091 L
422.49 388.31 L
423.085 435.378 L
423.68 361.167 L
424.275 319.875 L
424.87 404.891 L
425.465 304.789 L
426.06 433.331 L
426.655 323.558 L
427.25 378.608 L
427.845 399.318 L
428.44 372.188 L
429.035 333.035 L
429.63 347.033 L
430.225 299.211 L
430.82 273.546 L
431.415 394.613 L
432.01 401.755 L
432.605 360.396 L
433.2 329.904 L
433.795 301.809 L
434.39 318.091 L
434.985 330.146 L
435.58 354.068 L
436.175 431.973 L
436.77 290.388 L
437.365 427.01 L
437.96 379.378 L
438.555 305.018 L
439.15 344.893 L
439.745 314.272 L
440.34 369.844 L
440.935 336.21 L
441.53 309.033 L
442.125 400.147 L
442.72 399.959 L
443.315 330.311 L
443.91 281.167 L
444.505 326.206 L
445.1 409.59 L
445.695 398.314 L
446.29 360.5 L
446.885 413.405 L
447.48 351.655 L
448.075 285.019 L
448.67 298.066 L
449.265 426.957 L
449.86 393.033 L
450.455 361.665 L
S
GR
GS
[0.75 0 0 0.75 18 230] CT
0 GC
2 LJ
N
450.455 361.665 M
451.05 293.418 L
451.645 256.698 L
452.24 361.439 L
452.835 288.077 L
453.43 366.83 L
454.025 259.744 L
454.62 310.985 L
455.215 431.575 L
455.81 318.979 L
456.405 270.073 L
457 376.845 L
457.595 249.456 L
458.19 329.135 L
458.785 363.918 L
459.38 401.326 L
459.975 431.646 L
460.57 390.852 L
461.165 286.93 L
461.76 373.803 L
462.355 343.445 L
462.95 421.705 L
463.545 354.246 L
464.14 389.673 L
464.735 382.151 L
465.33 287.618 L
465.925 353.02 L
466.52 321.071 L
467.115 406.391 L
467.71 357.413 L
468.305 420.644 L
468.9 353.1 L
469.495 331.498 L
470.09 341.97 L
470.685 293.653 L
471.28 396.012 L
471.875 436.87 L
472.47 300.177 L
473.065 347.714 L
473.66 292.695 L
474.255 290.701 L
474.85 403.828 L
475.445 375.109 L
476.04 312.721 L
476.635 362.749 L
477.23 323.413 L
477.825 279.875 L
478.42 326.225 L
479.015 389.361 L
479.61 405.308 L
S
GR
GS
[0.75 0 0 0.75 18 230] CT
0 GC
2 LJ
N
479.61 405.308 M
480.205 395.042 L
480.8 405.192 L
481.395 278.26 L
481.99 405.178 L
482.585 431.309 L
483.18 337.061 L
483.775 378.601 L
484.37 362.032 L
484.965 363.836 L
485.56 271.206 L
486.155 370.761 L
486.75 264.084 L
487.345 400.913 L
487.94 408.251 L
488.535 384.639 L
489.13 267.495 L
489.725 258.511 L
490.32 396.838 L
490.915 391.037 L
491.51 264.935 L
492.105 343.982 L
492.7 336.041 L
493.295 371.775 L
493.89 293.715 L
494.485 285.386 L
495.08 269.874 L
495.675 374.107 L
496.27 305.765 L
496.865 370.524 L
497.46 444.671 L
498.055 295.444 L
498.65 271.384 L
499.245 399.997 L
499.84 393.869 L
500.435 288.248 L
501.03 328.578 L
501.625 425.8 L
502.22 367.439 L
502.815 428.485 L
503.41 362.423 L
504.005 368.512 L
504.6 297.608 L
505.195 316.795 L
505.79 394.131 L
506.385 271.355 L
506.98 310.195 L
507.575 299.488 L
508.17 395.438 L
508.765 355.561 L
S
GR
GS
[0.75 0 0 0.75 18 230] CT
0 GC
2 LJ
N
508.765 355.561 M
509.36 334.197 L
509.955 289.164 L
510.55 367.941 L
511.145 284.43 L
511.74 419.961 L
512.335 454.106 L
512.93 456.96 L
513.525 374.919 L
514.12 335.027 L
514.715 403.363 L
515.31 369.298 L
515.905 299.221 L
516.5 289.87 L
517.095 333.528 L
517.69 296.349 L
518.285 283.706 L
518.88 385.803 L
519.475 288.225 L
520.07 368.183 L
520.665 352.712 L
521.26 280.582 L
521.855 319.216 L
522.45 445.583 L
523.045 417.768 L
523.64 331.147 L
524.235 320.003 L
524.83 400.971 L
525.425 384.983 L
526.02 324.359 L
526.615 440.913 L
527.21 276.395 L
527.805 390.593 L
528.4 289.602 L
528.995 312.961 L
529.59 419.674 L
530.185 293.72 L
530.78 418.142 L
531.375 337.195 L
531.97 276.143 L
532.565 378.223 L
533.16 438.554 L
533.755 358.603 L
534.35 269.8 L
534.945 423.167 L
535.54 264.542 L
536.135 286.39 L
536.73 376.434 L
537.325 318.122 L
537.92 407.278 L
S
GR
GS
[0.75 0 0 0.75 18 230] CT
0 GC
2 LJ
N
537.92 407.278 M
538.515 268.002 L
539.11 350.86 L
539.705 343.185 L
540.3 334.62 L
540.895 302.036 L
541.49 305.914 L
542.085 360.76 L
542.68 389.728 L
543.275 285.228 L
543.87 320.764 L
544.465 353.167 L
545.06 314.908 L
545.655 288.325 L
546.25 405.167 L
546.845 318.173 L
547.44 299.312 L
548.035 314.958 L
548.63 348.866 L
549.225 381.815 L
549.82 312.927 L
550.415 442.737 L
551.01 426.498 L
551.605 385.601 L
552.2 279.378 L
552.795 370.221 L
553.39 309.607 L
553.985 314.251 L
554.58 369.711 L
555.175 371.514 L
555.77 412.734 L
556.365 335.38 L
556.96 380.854 L
557.555 345.842 L
558.15 334.234 L
558.745 291.413 L
559.34 285.684 L
559.935 359.469 L
560.53 441.207 L
561.125 347.371 L
561.72 293.119 L
562.315 387.912 L
562.91 339.382 L
563.505 358.434 L
564.1 370.241 L
564.695 385.124 L
565.29 382.659 L
565.885 381.844 L
566.48 249.338 L
567.075 434.14 L
S
GR
GS
[0.75 0 0 0.75 18 230] CT
0 GC
2 LJ
N
567.075 434.14 M
567.67 284.004 L
568.265 272.245 L
568.86 346.474 L
569.455 293.612 L
570.05 332.083 L
570.645 302.859 L
571.24 345.697 L
571.835 311.483 L
572.43 302.618 L
573.025 272.471 L
573.62 416.01 L
574.215 410.79 L
574.81 334.161 L
575.405 337.28 L
576 262.915 L
576.595 293.283 L
577.19 433.884 L
577.785 314.304 L
578.38 410.432 L
578.975 327.954 L
579.57 331.59 L
580.165 300.913 L
580.76 417.525 L
581.355 373.747 L
581.95 372.483 L
582.545 420.696 L
583.14 315.044 L
583.735 334.865 L
584.33 266.487 L
584.925 394.249 L
585.52 311.504 L
586.115 317.992 L
586.71 406.572 L
587.305 399.375 L
587.9 401.662 L
588.495 317.606 L
589.09 398.448 L
589.685 384.017 L
590.28 294.046 L
590.875 438.388 L
591.47 398.23 L
592.065 410.052 L
592.66 290.112 L
593.255 308.923 L
593.85 432.505 L
594.445 408.753 L
595.04 385.036 L
595.635 329.588 L
596.23 383.52 L
S
GR
GS
[0.75 0 0 0.75 18 230] CT
0 GC
2 LJ
N
596.23 383.52 M
596.825 337.133 L
597.42 420.177 L
598.015 365.231 L
598.61 281.694 L
599.205 392.816 L
599.8 401.04 L
600.395 427.271 L
600.99 315.555 L
601.585 415.651 L
602.18 362.081 L
602.775 385.788 L
603.37 408.087 L
603.965 398.469 L
604.56 340.184 L
605.155 406.365 L
605.75 303.004 L
606.345 418.612 L
606.94 408.856 L
607.535 270.561 L
608.13 292.161 L
608.725 365.082 L
609.32 291.981 L
609.915 414.977 L
610.51 381.691 L
611.105 272.553 L
611.7 278.387 L
612.295 429.034 L
612.89 297.849 L
613.485 403.441 L
614.08 408.466 L
614.675 424.055 L
615.27 412.654 L
615.865 351.369 L
616.46 321.831 L
617.055 422.981 L
617.65 346.88 L
618.245 447.576 L
618.84 415.39 L
619.435 391.734 L
620.03 433.884 L
620.625 401.363 L
621.22 308.324 L
621.815 297.461 L
622.41 414.791 L
623.005 291.556 L
623.6 407.775 L
624.195 347.202 L
624.79 431.841 L
625.385 455.743 L
S
GR
GS
[0.75 0 0 0.75 18 230] CT
0 GC
2 LJ
N
625.385 455.743 M
625.98 433.555 L
626.575 281.179 L
627.17 398.478 L
627.765 344.211 L
628.36 281.976 L
628.955 429.056 L
629.55 316.836 L
630.145 306.013 L
630.74 385.18 L
631.335 361.564 L
631.93 312.213 L
632.525 344.182 L
633.12 429.985 L
633.715 361.619 L
634.31 291.247 L
634.905 328.794 L
635.5 280.324 L
636.095 358.399 L
636.69 293.86 L
637.285 439.384 L
637.88 444.521 L
638.475 341.231 L
639.07 386.925 L
639.665 327.262 L
640.26 423 L
640.855 291.267 L
641.45 393.594 L
642.045 373.047 L
642.64 313.881 L
643.235 251.936 L
643.83 380.921 L
644.425 418.029 L
645.02 332.462 L
645.615 321.279 L
646.21 364.682 L
646.805 428.711 L
647.4 436.961 L
647.995 343.494 L
648.59 358.808 L
649.185 435.222 L
649.78 429.438 L
650.375 282.349 L
650.97 343.178 L
651.565 451.359 L
652.16 385.35 L
652.755 302.466 L
653.35 344.954 L
653.945 259.912 L
654.54 367.234 L
S
GR
GS
[0.75 0 0 0.75 18 230] CT
0 GC
2 LJ
N
654.54 367.234 M
655.135 368.163 L
655.73 303.53 L
656.325 323.789 L
656.92 333.534 L
657.515 341.082 L
658.11 282.02 L
658.705 330.958 L
659.3 308.28 L
659.895 459.322 L
660.49 295.693 L
661.085 305.529 L
661.68 334.962 L
662.275 399.445 L
662.87 422.214 L
663.465 257.248 L
664.06 424.277 L
664.655 395.609 L
665.25 422.543 L
665.845 464.655 L
666.44 333.124 L
667.035 403.874 L
667.63 333.884 L
668.225 291.751 L
668.82 375.83 L
669.415 283.911 L
670.01 288.518 L
670.605 272.992 L
671.2 395.343 L
671.795 408.771 L
672.39 413.91 L
672.985 414.19 L
673.58 419.448 L
674.175 409.969 L
674.77 409.549 L
675.365 438.801 L
675.96 391.91 L
676.555 398.828 L
677.15 358.85 L
677.745 363.955 L
678.34 320.77 L
678.935 278.552 L
679.53 368.334 L
680.125 402.749 L
680.72 283.035 L
681.315 420.586 L
681.91 408.536 L
682.505 429.094 L
683.1 409.934 L
683.695 301.611 L
S
GR
GS
[0.75 0 0 0.75 18 230] CT
0 GC
2 LJ
N
683.695 301.611 M
684.29 302.079 L
684.885 432.84 L
685.48 399.104 L
686.075 403.465 L
686.67 410.969 L
687.265 401.423 L
687.86 294.809 L
688.455 306.758 L
689.05 308.049 L
689.645 402.189 L
690.24 390.064 L
690.835 403.542 L
691.43 323.999 L
692.025 284.24 L
692.62 430.122 L
693.215 366.782 L
693.81 433.785 L
694.405 267.238 L
695 420.295 L
S
GR
GS
[0.75 0 0 0.75 316.12527 260.1875] CT
0 GC
/Helvetica-Bold 15 F
GS
[1 0 0 1 0 0] CT
-274 -4 moveto 
1 -1 scale
(Original<->Extracted Watermark Correlation Coefficents Alpha:0.5 Position:2) t 
GR
GR
showpage
%%Trailer
%%BoundingBox: 79 210 550 596
%%Pages: 1
%%EOF
