%!PS-Adobe-3.0
%%Creator: (MATLAB, The Mathworks, Inc. Version 8.5.0.197613 \(R2015a\). Operating System: Windows 7)
%%Title: ./output/WmIm_05_2/unrelatedWatermarkCorrelationCoefficient.eps
%%CreationDate: 2015-11-04T23:49:12
%%Pages: (atend)
%%BoundingBox: (atend)
%%LanguageLevel: 3
%%EndComments
%%BeginDefaults
%%EndDefaults
%%BeginProlog
%%EndProlog
%%BeginSetup
%%BeginResource: procset (Apache XML Graphics Std ProcSet) 1.2 0
%%Version: 1.2 0
%%Copyright: (Copyright 2001-2003,2010 The Apache Software Foundation. License terms: http://www.apache.org/licenses/LICENSE-2.0)
/bd{bind def}bind def
/ld{load def}bd
/GR/grestore ld
/M/moveto ld
/LJ/setlinejoin ld
/C/curveto ld
/f/fill ld
/LW/setlinewidth ld
/GC/setgray ld
/t/show ld
/N/newpath ld
/CT/concat ld
/cp/closepath ld
/S/stroke ld
/L/lineto ld
/CC/setcmykcolor ld
/A/ashow ld
/GS/gsave ld
/RC/setrgbcolor ld
/RM/rmoveto ld
/ML/setmiterlimit ld
/re {4 2 roll M
1 index 0 rlineto
0 exch rlineto
neg 0 rlineto
cp } bd
/_ctm matrix def
/_tm matrix def
/BT { _ctm currentmatrix pop matrix _tm copy pop 0 0 moveto } bd
/ET { _ctm setmatrix } bd
/iTm { _ctm setmatrix _tm concat } bd
/Tm { _tm astore pop iTm 0 0 moveto } bd
/ux 0.0 def
/uy 0.0 def
/F {
  /Tp exch def
  /Tf exch def
  Tf findfont Tp scalefont setfont
  /cf Tf def  /cs Tp def
} bd
/ULS {currentpoint /uy exch def /ux exch def} bd
/ULE {
  /Tcx currentpoint pop def
  gsave
  newpath
  cf findfont cs scalefont dup
  /FontMatrix get 0 get /Ts exch def /FontInfo get dup
  /UnderlinePosition get Ts mul /To exch def
  /UnderlineThickness get Ts mul /Tt exch def
  ux uy To add moveto  Tcx uy To add lineto
  Tt setlinewidth stroke
  grestore
} bd
/OLE {
  /Tcx currentpoint pop def
  gsave
  newpath
  cf findfont cs scalefont dup
  /FontMatrix get 0 get /Ts exch def /FontInfo get dup
  /UnderlinePosition get Ts mul /To exch def
  /UnderlineThickness get Ts mul /Tt exch def
  ux uy To add cs add moveto Tcx uy To add cs add lineto
  Tt setlinewidth stroke
  grestore
} bd
/SOE {
  /Tcx currentpoint pop def
  gsave
  newpath
  cf findfont cs scalefont dup
  /FontMatrix get 0 get /Ts exch def /FontInfo get dup
  /UnderlinePosition get Ts mul /To exch def
  /UnderlineThickness get Ts mul /Tt exch def
  ux uy To add cs 10 mul 26 idiv add moveto Tcx uy To add cs 10 mul 26 idiv add lineto
  Tt setlinewidth stroke
  grestore
} bd
/QT {
/Y22 exch store
/X22 exch store
/Y21 exch store
/X21 exch store
currentpoint
/Y21 load 2 mul add 3 div exch
/X21 load 2 mul add 3 div exch
/X21 load 2 mul /X22 load add 3 div
/Y21 load 2 mul /Y22 load add 3 div
/X22 load /Y22 load curveto
} bd
/SSPD {
dup length /d exch dict def
{
/v exch def
/k exch def
currentpagedevice k known {
/cpdv currentpagedevice k get def
v cpdv ne {
/upd false def
/nullv v type /nulltype eq def
/nullcpdv cpdv type /nulltype eq def
nullv nullcpdv or
{
/upd true def
} {
/sametype v type cpdv type eq def
sametype {
v type /arraytype eq {
/vlen v length def
/cpdvlen cpdv length def
vlen cpdvlen eq {
0 1 vlen 1 sub {
/i exch def
/obj v i get def
/cpdobj cpdv i get def
obj cpdobj ne {
/upd true def
exit
} if
} for
} {
/upd true def
} ifelse
} {
v type /dicttype eq {
v {
/dv exch def
/dk exch def
/cpddv cpdv dk get def
dv cpddv ne {
/upd true def
exit
} if
} forall
} {
/upd true def
} ifelse
} ifelse
} if
} ifelse
upd true eq {
d k v put
} if
} if
} if
} forall
d length 0 gt {
d setpagedevice
} if
} bd
%%EndResource
%%BeginResource: procset (Apache XML Graphics EPS ProcSet) 1.0 0
%%Version: 1.0 0
%%Copyright: (Copyright 2002-2003 The Apache Software Foundation. License terms: http://www.apache.org/licenses/LICENSE-2.0)
/BeginEPSF { %def
/b4_Inc_state save def         % Save state for cleanup
/dict_count countdictstack def % Count objects on dict stack
/op_count count 1 sub def      % Count objects on operand stack
userdict begin                 % Push userdict on dict stack
/showpage { } def              % Redefine showpage, { } = null proc
0 setgray 0 setlinecap         % Prepare graphics state
1 setlinewidth 0 setlinejoin
10 setmiterlimit [ ] 0 setdash newpath
/languagelevel where           % If level not equal to 1 then
{pop languagelevel             % set strokeadjust and
1 ne                           % overprint to their defaults.
{false setstrokeadjust false setoverprint
} if
} if
} bd
/EndEPSF { %def
count op_count sub {pop} repeat            % Clean up stacks
countdictstack dict_count sub {end} repeat
b4_Inc_state restore
} bd
%%EndResource
%FOPBeginFontDict
%%IncludeResource: font Courier-Bold
%%IncludeResource: font Helvetica
%%IncludeResource: font Courier-BoldOblique
%%IncludeResource: font Courier-Oblique
%%IncludeResource: font Times-Roman
%%IncludeResource: font Helvetica-BoldOblique
%%IncludeResource: font Helvetica-Bold
%%IncludeResource: font Helvetica-Oblique
%%IncludeResource: font Times-BoldItalic
%%IncludeResource: font Courier
%%IncludeResource: font Times-Italic
%%IncludeResource: font Times-Bold
%%IncludeResource: font Symbol
%%IncludeResource: font ZapfDingbats
%FOPEndFontDict
%%BeginResource: encoding WinAnsiEncoding
/WinAnsiEncoding [
/.notdef /.notdef /.notdef /.notdef /.notdef
/.notdef /.notdef /.notdef /.notdef /.notdef
/.notdef /.notdef /.notdef /.notdef /.notdef
/.notdef /.notdef /.notdef /.notdef /.notdef
/.notdef /.notdef /.notdef /.notdef /.notdef
/.notdef /.notdef /.notdef /.notdef /.notdef
/.notdef /.notdef /space /exclam /quotedbl
/numbersign /dollar /percent /ampersand /quotesingle
/parenleft /parenright /asterisk /plus /comma
/hyphen /period /slash /zero /one
/two /three /four /five /six
/seven /eight /nine /colon /semicolon
/less /equal /greater /question /at
/A /B /C /D /E
/F /G /H /I /J
/K /L /M /N /O
/P /Q /R /S /T
/U /V /W /X /Y
/Z /bracketleft /backslash /bracketright /asciicircum
/underscore /quoteleft /a /b /c
/d /e /f /g /h
/i /j /k /l /m
/n /o /p /q /r
/s /t /u /v /w
/x /y /z /braceleft /bar
/braceright /asciitilde /bullet /Euro /bullet
/quotesinglbase /florin /quotedblbase /ellipsis /dagger
/daggerdbl /circumflex /perthousand /Scaron /guilsinglleft
/OE /bullet /Zcaron /bullet /bullet
/quoteleft /quoteright /quotedblleft /quotedblright /bullet
/endash /emdash /asciitilde /trademark /scaron
/guilsinglright /oe /bullet /zcaron /Ydieresis
/space /exclamdown /cent /sterling /currency
/yen /brokenbar /section /dieresis /copyright
/ordfeminine /guillemotleft /logicalnot /sfthyphen /registered
/macron /degree /plusminus /twosuperior /threesuperior
/acute /mu /paragraph /middot /cedilla
/onesuperior /ordmasculine /guillemotright /onequarter /onehalf
/threequarters /questiondown /Agrave /Aacute /Acircumflex
/Atilde /Adieresis /Aring /AE /Ccedilla
/Egrave /Eacute /Ecircumflex /Edieresis /Igrave
/Iacute /Icircumflex /Idieresis /Eth /Ntilde
/Ograve /Oacute /Ocircumflex /Otilde /Odieresis
/multiply /Oslash /Ugrave /Uacute /Ucircumflex
/Udieresis /Yacute /Thorn /germandbls /agrave
/aacute /acircumflex /atilde /adieresis /aring
/ae /ccedilla /egrave /eacute /ecircumflex
/edieresis /igrave /iacute /icircumflex /idieresis
/eth /ntilde /ograve /oacute /ocircumflex
/otilde /odieresis /divide /oslash /ugrave
/uacute /ucircumflex /udieresis /yacute /thorn
/ydieresis
] def
%%EndResource
%FOPBeginFontReencode
/Courier-Bold findfont
dup length dict begin
  {1 index /FID ne {def} {pop pop} ifelse} forall
  /Encoding WinAnsiEncoding def
  currentdict
end
/Courier-Bold exch definefont pop
/Helvetica findfont
dup length dict begin
  {1 index /FID ne {def} {pop pop} ifelse} forall
  /Encoding WinAnsiEncoding def
  currentdict
end
/Helvetica exch definefont pop
/Courier-BoldOblique findfont
dup length dict begin
  {1 index /FID ne {def} {pop pop} ifelse} forall
  /Encoding WinAnsiEncoding def
  currentdict
end
/Courier-BoldOblique exch definefont pop
/Courier-Oblique findfont
dup length dict begin
  {1 index /FID ne {def} {pop pop} ifelse} forall
  /Encoding WinAnsiEncoding def
  currentdict
end
/Courier-Oblique exch definefont pop
/Times-Roman findfont
dup length dict begin
  {1 index /FID ne {def} {pop pop} ifelse} forall
  /Encoding WinAnsiEncoding def
  currentdict
end
/Times-Roman exch definefont pop
/Helvetica-BoldOblique findfont
dup length dict begin
  {1 index /FID ne {def} {pop pop} ifelse} forall
  /Encoding WinAnsiEncoding def
  currentdict
end
/Helvetica-BoldOblique exch definefont pop
/Helvetica-Bold findfont
dup length dict begin
  {1 index /FID ne {def} {pop pop} ifelse} forall
  /Encoding WinAnsiEncoding def
  currentdict
end
/Helvetica-Bold exch definefont pop
/Helvetica-Oblique findfont
dup length dict begin
  {1 index /FID ne {def} {pop pop} ifelse} forall
  /Encoding WinAnsiEncoding def
  currentdict
end
/Helvetica-Oblique exch definefont pop
/Times-BoldItalic findfont
dup length dict begin
  {1 index /FID ne {def} {pop pop} ifelse} forall
  /Encoding WinAnsiEncoding def
  currentdict
end
/Times-BoldItalic exch definefont pop
/Courier findfont
dup length dict begin
  {1 index /FID ne {def} {pop pop} ifelse} forall
  /Encoding WinAnsiEncoding def
  currentdict
end
/Courier exch definefont pop
/Times-Italic findfont
dup length dict begin
  {1 index /FID ne {def} {pop pop} ifelse} forall
  /Encoding WinAnsiEncoding def
  currentdict
end
/Times-Italic exch definefont pop
/Times-Bold findfont
dup length dict begin
  {1 index /FID ne {def} {pop pop} ifelse} forall
  /Encoding WinAnsiEncoding def
  currentdict
end
/Times-Bold exch definefont pop
%FOPEndFontReencode
%%EndSetup
%%Page: 1 1
%%PageBoundingBox: 0 0 595 842
%%BeginPageSetup
<<
/PageSize [595 842]
/ImagingBBox null
>> setpagedevice
[1 0 0 -1 0 842] CT
%%EndPageSetup
GS
[0.75 0 0 0.75 18 230] CT
0.997 GC
N
0 0 768 576 re
f
GR
GS
[0.75 0 0 0.75 18 230] CT
0.997 GC
N
0 0 768 576 re
f
GR
GS
[0.75 0 0 0.75 18 230] CT
0.997 GC
N
100 513 M
695 513 L
695 43 L
100 43 L
cp
f
GR
GS
[0.75 0 0 0.75 18 230] CT
0 GC
2 setlinecap
10.0 ML
N
100 513 M
695 513 L
S
GR
GS
[0.75 0 0 0.75 18 230] CT
0 GC
2 setlinecap
10.0 ML
N
100 43 M
695 43 L
S
GR
GS
[0.75 0 0 0.75 18 230] CT
0 GC
2 setlinecap
10.0 ML
N
100 513 M
100 507.05 L
S
GR
GS
[0.75 0 0 0.75 18 230] CT
0 GC
2 setlinecap
10.0 ML
N
159.5 513 M
159.5 507.05 L
S
GR
GS
[0.75 0 0 0.75 18 230] CT
0 GC
2 setlinecap
10.0 ML
N
219 513 M
219 507.05 L
S
GR
GS
[0.75 0 0 0.75 18 230] CT
0 GC
2 setlinecap
10.0 ML
N
278.5 513 M
278.5 507.05 L
S
GR
GS
[0.75 0 0 0.75 18 230] CT
0 GC
2 setlinecap
10.0 ML
N
338 513 M
338 507.05 L
S
GR
GS
[0.75 0 0 0.75 18 230] CT
0 GC
2 setlinecap
10.0 ML
N
397.5 513 M
397.5 507.05 L
S
GR
GS
[0.75 0 0 0.75 18 230] CT
0 GC
2 setlinecap
10.0 ML
N
457 513 M
457 507.05 L
S
GR
GS
[0.75 0 0 0.75 18 230] CT
0 GC
2 setlinecap
10.0 ML
N
516.5 513 M
516.5 507.05 L
S
GR
GS
[0.75 0 0 0.75 18 230] CT
0 GC
2 setlinecap
10.0 ML
N
576 513 M
576 507.05 L
S
GR
GS
[0.75 0 0 0.75 18 230] CT
0 GC
2 setlinecap
10.0 ML
N
635.5 513 M
635.5 507.05 L
S
GR
GS
[0.75 0 0 0.75 18 230] CT
0 GC
2 setlinecap
10.0 ML
N
695 513 M
695 507.05 L
S
GR
GS
[0.75 0 0 0.75 18 230] CT
0 GC
2 setlinecap
10.0 ML
N
100 43 M
100 48.95 L
S
GR
GS
[0.75 0 0 0.75 18 230] CT
0 GC
2 setlinecap
10.0 ML
N
159.5 43 M
159.5 48.95 L
S
GR
GS
[0.75 0 0 0.75 18 230] CT
0 GC
2 setlinecap
10.0 ML
N
219 43 M
219 48.95 L
S
GR
GS
[0.75 0 0 0.75 18 230] CT
0 GC
2 setlinecap
10.0 ML
N
278.5 43 M
278.5 48.95 L
S
GR
GS
[0.75 0 0 0.75 18 230] CT
0 GC
2 setlinecap
10.0 ML
N
338 43 M
338 48.95 L
S
GR
GS
[0.75 0 0 0.75 18 230] CT
0 GC
2 setlinecap
10.0 ML
N
397.5 43 M
397.5 48.95 L
S
GR
GS
[0.75 0 0 0.75 18 230] CT
0 GC
2 setlinecap
10.0 ML
N
457 43 M
457 48.95 L
S
GR
GS
[0.75 0 0 0.75 18 230] CT
0 GC
2 setlinecap
10.0 ML
N
516.5 43 M
516.5 48.95 L
S
GR
GS
[0.75 0 0 0.75 18 230] CT
0 GC
2 setlinecap
10.0 ML
N
576 43 M
576 48.95 L
S
GR
GS
[0.75 0 0 0.75 18 230] CT
0 GC
2 setlinecap
10.0 ML
N
635.5 43 M
635.5 48.95 L
S
GR
GS
[0.75 0 0 0.75 18 230] CT
0 GC
2 setlinecap
10.0 ML
N
695 43 M
695 48.95 L
S
GR
GS
[0.75 0 0 0.75 93 618.74998] CT
0 GC
/Helvetica 13 F
GS
[1 0 0 1 0 0] CT
-4 14 moveto 
1 -1 scale
(0) t 
GR
GR
GS
[0.75 0 0 0.75 137.625 618.74998] CT
0 GC
/Helvetica 13 F
GS
[1 0 0 1 0 0] CT
-11 14 moveto 
1 -1 scale
(100) t 
GR
GR
GS
[0.75 0 0 0.75 182.25 618.74998] CT
0 GC
/Helvetica 13 F
GS
[1 0 0 1 0 0] CT
-11 14 moveto 
1 -1 scale
(200) t 
GR
GR
GS
[0.75 0 0 0.75 226.875 618.74998] CT
0 GC
/Helvetica 13 F
GS
[1 0 0 1 0 0] CT
-11 14 moveto 
1 -1 scale
(300) t 
GR
GR
GS
[0.75 0 0 0.75 271.5 618.74998] CT
0 GC
/Helvetica 13 F
GS
[1 0 0 1 0 0] CT
-11 14 moveto 
1 -1 scale
(400) t 
GR
GR
GS
[0.75 0 0 0.75 316.125 618.74998] CT
0 GC
/Helvetica 13 F
GS
[1 0 0 1 0 0] CT
-11 14 moveto 
1 -1 scale
(500) t 
GR
GR
GS
[0.75 0 0 0.75 360.75 618.74998] CT
0 GC
/Helvetica 13 F
GS
[1 0 0 1 0 0] CT
-11 14 moveto 
1 -1 scale
(600) t 
GR
GR
GS
[0.75 0 0 0.75 405.375 618.74998] CT
0 GC
/Helvetica 13 F
GS
[1 0 0 1 0 0] CT
-11 14 moveto 
1 -1 scale
(700) t 
GR
GR
GS
[0.75 0 0 0.75 450 618.74998] CT
0 GC
/Helvetica 13 F
GS
[1 0 0 1 0 0] CT
-11 14 moveto 
1 -1 scale
(800) t 
GR
GR
GS
[0.75 0 0 0.75 494.625 618.74998] CT
0 GC
/Helvetica 13 F
GS
[1 0 0 1 0 0] CT
-11 14 moveto 
1 -1 scale
(900) t 
GR
GR
GS
[0.75 0 0 0.75 539.25 618.74998] CT
0 GC
/Helvetica 13 F
GS
[1 0 0 1 0 0] CT
-14.5 14 moveto 
1 -1 scale
(1000) t 
GR
GR
GS
[0.75 0 0 0.75 18 230] CT
0 GC
2 setlinecap
10.0 ML
N
100 513 M
100 43 L
S
GR
GS
[0.75 0 0 0.75 18 230] CT
0 GC
2 setlinecap
10.0 ML
N
695 513 M
695 43 L
S
GR
GS
[0.75 0 0 0.75 18 230] CT
0 GC
2 setlinecap
10.0 ML
N
100 513 M
105.95 513 L
S
GR
GS
[0.75 0 0 0.75 18 230] CT
0 GC
2 setlinecap
10.0 ML
N
100 466 M
105.95 466 L
S
GR
GS
[0.75 0 0 0.75 18 230] CT
0 GC
2 setlinecap
10.0 ML
N
100 419 M
105.95 419 L
S
GR
GS
[0.75 0 0 0.75 18 230] CT
0 GC
2 setlinecap
10.0 ML
N
100 372 M
105.95 372 L
S
GR
GS
[0.75 0 0 0.75 18 230] CT
0 GC
2 setlinecap
10.0 ML
N
100 325 M
105.95 325 L
S
GR
GS
[0.75 0 0 0.75 18 230] CT
0 GC
2 setlinecap
10.0 ML
N
100 278 M
105.95 278 L
S
GR
GS
[0.75 0 0 0.75 18 230] CT
0 GC
2 setlinecap
10.0 ML
N
100 231 M
105.95 231 L
S
GR
GS
[0.75 0 0 0.75 18 230] CT
0 GC
2 setlinecap
10.0 ML
N
100 184 M
105.95 184 L
S
GR
GS
[0.75 0 0 0.75 18 230] CT
0 GC
2 setlinecap
10.0 ML
N
100 137 M
105.95 137 L
S
GR
GS
[0.75 0 0 0.75 18 230] CT
0 GC
2 setlinecap
10.0 ML
N
100 90 M
105.95 90 L
S
GR
GS
[0.75 0 0 0.75 18 230] CT
0 GC
2 setlinecap
10.0 ML
N
100 43 M
105.95 43 L
S
GR
GS
[0.75 0 0 0.75 18 230] CT
0 GC
2 setlinecap
10.0 ML
N
695 513 M
689.05 513 L
S
GR
GS
[0.75 0 0 0.75 18 230] CT
0 GC
2 setlinecap
10.0 ML
N
695 466 M
689.05 466 L
S
GR
GS
[0.75 0 0 0.75 18 230] CT
0 GC
2 setlinecap
10.0 ML
N
695 419 M
689.05 419 L
S
GR
GS
[0.75 0 0 0.75 18 230] CT
0 GC
2 setlinecap
10.0 ML
N
695 372 M
689.05 372 L
S
GR
GS
[0.75 0 0 0.75 18 230] CT
0 GC
2 setlinecap
10.0 ML
N
695 325 M
689.05 325 L
S
GR
GS
[0.75 0 0 0.75 18 230] CT
0 GC
2 setlinecap
10.0 ML
N
695 278 M
689.05 278 L
S
GR
GS
[0.75 0 0 0.75 18 230] CT
0 GC
2 setlinecap
10.0 ML
N
695 231 M
689.05 231 L
S
GR
GS
[0.75 0 0 0.75 18 230] CT
0 GC
2 setlinecap
10.0 ML
N
695 184 M
689.05 184 L
S
GR
GS
[0.75 0 0 0.75 18 230] CT
0 GC
2 setlinecap
10.0 ML
N
695 137 M
689.05 137 L
S
GR
GS
[0.75 0 0 0.75 18 230] CT
0 GC
2 setlinecap
10.0 ML
N
695 90 M
689.05 90 L
S
GR
GS
[0.75 0 0 0.75 18 230] CT
0 GC
2 setlinecap
10.0 ML
N
695 43 M
689.05 43 L
S
GR
GS
[0.75 0 0 0.75 89 614.75] CT
0 GC
/Helvetica 13 F
GS
[1 0 0 1 0 0] CT
-23 5.5 moveto 
1 -1 scale
(-2.5) t 
GR
GR
GS
[0.75 0 0 0.75 89 579.5] CT
0 GC
/Helvetica 13 F
GS
[1 0 0 1 0 0] CT
-12 5.5 moveto 
1 -1 scale
(-2) t 
GR
GR
GS
[0.75 0 0 0.75 89 544.25] CT
0 GC
/Helvetica 13 F
GS
[1 0 0 1 0 0] CT
-23 5.5 moveto 
1 -1 scale
(-1.5) t 
GR
GR
GS
[0.75 0 0 0.75 89 509] CT
0 GC
/Helvetica 13 F
GS
[1 0 0 1 0 0] CT
-12 5.5 moveto 
1 -1 scale
(-1) t 
GR
GR
GS
[0.75 0 0 0.75 89 473.75] CT
0 GC
/Helvetica 13 F
GS
[1 0 0 1 0 0] CT
-23 5.5 moveto 
1 -1 scale
(-0.5) t 
GR
GR
GS
[0.75 0 0 0.75 89 438.5] CT
0 GC
/Helvetica 13 F
GS
[1 0 0 1 0 0] CT
-8 5.5 moveto 
1 -1 scale
(0) t 
GR
GR
GS
[0.75 0 0 0.75 89 403.25] CT
0 GC
/Helvetica 13 F
GS
[1 0 0 1 0 0] CT
-19 5.5 moveto 
1 -1 scale
(0.5) t 
GR
GR
GS
[0.75 0 0 0.75 89 368] CT
0 GC
/Helvetica 13 F
GS
[1 0 0 1 0 0] CT
-8 5.5 moveto 
1 -1 scale
(1) t 
GR
GR
GS
[0.75 0 0 0.75 89 332.75] CT
0 GC
/Helvetica 13 F
GS
[1 0 0 1 0 0] CT
-19 5.5 moveto 
1 -1 scale
(1.5) t 
GR
GR
GS
[0.75 0 0 0.75 89 297.5] CT
0 GC
/Helvetica 13 F
GS
[1 0 0 1 0 0] CT
-8 5.5 moveto 
1 -1 scale
(2) t 
GR
GR
GS
[0.75 0 0 0.75 89 262.25] CT
0 GC
/Helvetica 13 F
GS
[1 0 0 1 0 0] CT
-19 5.5 moveto 
1 -1 scale
(2.5) t 
GR
GR
GS
[0.75 0 0 0.75 18 230] CT
0 GC
2 LJ
N
100.595 178.002 M
101.19 265.814 L
101.785 231.794 L
102.38 249.489 L
102.975 239.708 L
103.57 316.113 L
104.165 290.998 L
104.76 218.289 L
105.355 244.962 L
105.95 289.212 L
106.545 252.864 L
107.14 403.835 L
107.735 400.834 L
108.33 197.65 L
108.925 250.545 L
109.52 155.148 L
110.115 105.925 L
110.71 342.206 L
111.305 384.045 L
111.9 219.303 L
112.495 132.821 L
113.09 437.442 L
113.685 384.533 L
114.28 408.872 L
114.875 179.618 L
115.47 299.145 L
116.065 149.772 L
116.66 162.538 L
117.255 300.472 L
117.85 231.803 L
118.445 289.265 L
119.04 362.464 L
119.635 314.674 L
120.23 210.578 L
120.825 314.375 L
121.42 111.233 L
122.015 130.155 L
122.61 231.821 L
123.205 180.655 L
123.8 306.572 L
124.395 184.821 L
124.99 187.853 L
125.585 363.5 L
126.18 167.092 L
126.775 103.185 L
127.37 416.167 L
127.965 166.721 L
128.56 124.053 L
129.155 142.407 L
129.75 418.124 L
S
GR
GS
[0.75 0 0 0.75 18 230] CT
0 GC
2 LJ
N
129.75 418.124 M
130.345 220.177 L
130.94 340.672 L
131.535 372.696 L
132.13 400.806 L
132.725 304.384 L
133.32 391.916 L
133.915 469.456 L
134.51 156.492 L
135.105 270.376 L
135.7 309.963 L
136.295 130.365 L
136.89 125.776 L
137.485 217.603 L
138.08 232.039 L
138.675 233.61 L
139.27 121.322 L
139.865 306.863 L
140.46 219.622 L
141.055 171.957 L
141.65 328.927 L
142.245 356.499 L
142.84 484.712 L
143.435 383.156 L
144.03 270.159 L
144.625 222.855 L
145.22 242.605 L
145.815 224.873 L
146.41 164.965 L
147.005 249.361 L
147.6 131.836 L
148.195 289.228 L
148.79 252.162 L
149.385 195.602 L
149.98 447.891 L
150.575 365.238 L
151.17 160.523 L
151.765 325.49 L
152.36 310.118 L
152.955 173.767 L
153.55 408.908 L
154.145 239.822 L
154.74 357.532 L
155.335 367.114 L
155.93 166.225 L
156.525 289.935 L
157.12 176.606 L
157.715 164.733 L
158.31 378.443 L
158.905 293.304 L
S
GR
GS
[0.75 0 0 0.75 18 230] CT
0 GC
2 LJ
N
158.905 293.304 M
159.5 428.209 L
160.095 356.149 L
160.69 345.545 L
161.285 300.135 L
161.88 223.988 L
162.475 164.34 L
163.07 220.545 L
163.665 296.361 L
164.26 478.475 L
164.855 165.027 L
165.45 228.83 L
166.045 256.901 L
166.64 150.636 L
167.235 411.417 L
167.83 286.705 L
168.425 373.286 L
169.02 322.37 L
169.615 161.986 L
170.21 206.966 L
170.805 433.948 L
171.4 353.101 L
171.995 334.627 L
172.59 334.785 L
173.185 388.434 L
173.78 369.359 L
174.375 124.958 L
174.97 199.22 L
175.565 271.901 L
176.16 170.611 L
176.755 225.987 L
177.35 291.265 L
177.945 184.452 L
178.54 325.965 L
179.135 161.575 L
179.73 206.452 L
180.325 148.495 L
180.92 183.987 L
181.515 355.182 L
182.11 308.93 L
182.705 345.969 L
183.3 196.855 L
183.895 295.351 L
184.49 373.987 L
185.085 343.525 L
185.68 296.257 L
186.275 435.935 L
186.87 289.507 L
187.465 178.738 L
188.06 403.358 L
S
GR
GS
[0.75 0 0 0.75 18 230] CT
0 GC
2 LJ
N
188.06 403.358 M
188.655 141.35 L
189.25 206.059 L
189.845 240.869 L
190.44 377.584 L
191.035 373.808 L
191.63 396.354 L
192.225 403.896 L
192.82 356.622 L
193.415 397.87 L
194.01 256.327 L
194.605 131.482 L
195.2 309.874 L
195.795 165.774 L
196.39 376.221 L
196.985 307.705 L
197.58 441.76 L
198.175 342.273 L
198.77 180.502 L
199.365 337.481 L
199.96 265.196 L
200.555 124.964 L
201.15 257.592 L
201.745 190.262 L
202.34 317.111 L
202.935 111.639 L
203.53 348.332 L
204.125 139.081 L
204.72 279.091 L
205.315 274.75 L
205.91 270.18 L
206.505 376.972 L
207.1 357.536 L
207.695 374.924 L
208.29 234.775 L
208.885 110.743 L
209.48 178.43 L
210.075 280.363 L
210.67 234.087 L
211.265 434.579 L
211.86 286.922 L
212.455 279.441 L
213.05 198.629 L
213.645 115.319 L
214.24 134.834 L
214.835 241.186 L
215.43 299.795 L
216.025 289.209 L
216.62 311.136 L
217.215 357.437 L
S
GR
GS
[0.75 0 0 0.75 18 230] CT
0 GC
2 LJ
N
217.215 357.437 M
217.81 221.117 L
218.405 349.466 L
219 360.764 L
219.595 303.404 L
220.19 217.904 L
220.785 381.248 L
221.38 333.132 L
221.975 429.234 L
222.57 293.853 L
223.165 211.135 L
223.76 227.193 L
224.355 292.517 L
224.95 148.594 L
225.545 338.841 L
226.14 270.182 L
226.735 234.407 L
227.33 222.173 L
227.925 277.503 L
228.52 429.948 L
229.115 408.445 L
229.71 119.984 L
230.305 309.393 L
230.9 142.557 L
231.495 165.839 L
232.09 195.551 L
232.685 126.651 L
233.28 393.924 L
233.875 292.555 L
234.47 290.188 L
235.065 401.67 L
235.66 404.435 L
236.255 418.383 L
236.85 138.387 L
237.445 286.541 L
238.04 370.447 L
238.635 372.378 L
239.23 413.521 L
239.825 290.553 L
240.42 242.349 L
241.015 396.801 L
241.61 202.418 L
242.205 294.529 L
242.8 220.992 L
243.395 189.388 L
243.99 355.703 L
244.585 157.286 L
245.18 282.96 L
245.775 110.499 L
246.37 318.848 L
S
GR
GS
[0.75 0 0 0.75 18 230] CT
0 GC
2 LJ
N
246.37 318.848 M
246.965 145.725 L
247.56 444.683 L
248.155 128.773 L
248.75 178.002 L
249.345 207.221 L
249.94 335.394 L
250.535 325.004 L
251.13 216.72 L
251.725 153.721 L
252.32 238.189 L
252.915 270.297 L
253.51 304.943 L
254.105 434.322 L
254.7 382.408 L
255.295 112.897 L
255.89 235.84 L
256.485 345.031 L
257.08 247.392 L
257.675 364.047 L
258.27 187.823 L
258.865 376.93 L
259.46 139.837 L
260.055 310.992 L
260.65 150.292 L
261.245 379.333 L
261.84 287.436 L
262.435 411.338 L
263.03 116.733 L
263.625 312.684 L
264.22 125.499 L
264.815 273.821 L
265.41 295.831 L
266.005 266.053 L
266.6 393.551 L
267.195 396.441 L
267.79 401.466 L
268.385 381.445 L
268.98 202.896 L
269.575 340.952 L
270.17 386.584 L
270.765 251.881 L
271.36 207.993 L
271.955 398.982 L
272.55 253.86 L
273.145 330.114 L
273.74 423.725 L
274.335 299.869 L
274.93 138.81 L
275.525 252.155 L
S
GR
GS
[0.75 0 0 0.75 18 230] CT
0 GC
2 LJ
N
275.525 252.155 M
276.12 390.976 L
276.715 210.745 L
277.31 289.987 L
277.905 207.903 L
278.5 302.722 L
279.095 397.357 L
279.69 219.553 L
280.285 182.136 L
280.88 370.32 L
281.475 121.197 L
282.07 369.625 L
282.665 265.721 L
283.26 128.318 L
283.855 179.772 L
284.45 211.554 L
285.045 201.009 L
285.64 422.313 L
286.235 341.303 L
286.83 177.858 L
287.425 231.879 L
288.02 299.319 L
288.615 326.846 L
289.21 363.353 L
289.805 418.262 L
290.4 222.368 L
290.995 402.517 L
291.59 245.099 L
292.185 321.194 L
292.78 405.548 L
293.375 335.707 L
293.97 100.465 L
294.565 381.881 L
295.16 359.886 L
295.755 428.404 L
296.35 159.327 L
296.945 195.503 L
297.54 166.507 L
298.135 378.46 L
298.73 425.075 L
299.325 312.351 L
299.92 190.748 L
300.515 171.929 L
301.11 406.926 L
301.705 360.73 L
302.3 380.18 L
302.895 327.13 L
303.49 324.571 L
304.085 173.167 L
304.68 263.17 L
S
GR
GS
[0.75 0 0 0.75 18 230] CT
0 GC
2 LJ
N
304.68 263.17 M
305.275 448.689 L
305.87 235.677 L
306.465 364.381 L
307.06 303.864 L
307.655 194.633 L
308.25 216.975 L
308.845 351.097 L
309.44 386.703 L
310.035 260.055 L
310.63 125.67 L
311.225 237.447 L
311.82 406.553 L
312.415 115.49 L
313.01 254.024 L
313.605 187.905 L
314.2 241.613 L
314.795 231.093 L
315.39 385.595 L
315.985 340.88 L
316.58 426.464 L
317.175 155.734 L
317.77 170.228 L
318.365 191.513 L
318.96 240.616 L
319.555 244.585 L
320.15 169.357 L
320.745 373.971 L
321.34 365.312 L
321.935 202.391 L
322.53 218.44 L
323.125 317.665 L
323.72 237.365 L
324.315 128.954 L
324.91 205.941 L
325.505 228.584 L
326.1 446.492 L
326.695 402.729 L
327.29 263.569 L
327.885 322.118 L
328.48 246.245 L
329.075 394.531 L
329.67 327.836 L
330.265 160.25 L
330.86 413.868 L
331.455 225.65 L
332.05 419.563 L
332.645 257.405 L
333.24 211.305 L
333.835 445.661 L
S
GR
GS
[0.75 0 0 0.75 18 230] CT
0 GC
2 LJ
N
333.835 445.661 M
334.43 168.669 L
335.025 455.573 L
335.62 373.928 L
336.215 409.146 L
336.81 352.282 L
337.405 261.444 L
338 206.901 L
338.595 168.484 L
339.19 173.35 L
339.785 230.106 L
340.38 367.788 L
340.975 256.122 L
341.57 177.241 L
342.165 144.268 L
342.76 219.764 L
343.355 320.61 L
343.95 185.851 L
344.545 397.741 L
345.14 182.416 L
345.735 323.6 L
346.33 272.883 L
346.925 410.281 L
347.52 164.596 L
348.115 386.401 L
348.71 380.024 L
349.305 382.045 L
349.9 271.728 L
350.495 202.23 L
351.09 286.237 L
351.685 257.924 L
352.28 421.412 L
352.875 381.148 L
353.47 206.568 L
354.065 279.699 L
354.66 187.565 L
355.255 370.684 L
355.85 320.473 L
356.445 413.893 L
357.04 182.987 L
357.635 162.492 L
358.23 144.109 L
358.825 420.355 L
359.42 320.853 L
360.015 384.886 L
360.61 407.195 L
361.205 420.572 L
361.8 365.385 L
362.395 277.536 L
362.99 328.901 L
S
GR
GS
[0.75 0 0 0.75 18 230] CT
0 GC
2 LJ
N
362.99 328.901 M
363.585 259.997 L
364.18 367.86 L
364.775 277.143 L
365.37 392.438 L
365.965 341.052 L
366.56 236.906 L
367.155 113.315 L
367.75 401.689 L
368.345 367.718 L
368.94 144.537 L
369.535 153.485 L
370.13 419.166 L
370.725 210.101 L
371.32 305.782 L
371.915 170.981 L
372.51 358.636 L
373.105 396.199 L
373.7 312.679 L
374.295 375.733 L
374.89 312.146 L
375.485 190.805 L
376.08 358.732 L
376.675 346.307 L
377.27 344.17 L
377.865 231.845 L
378.46 345.284 L
379.055 241.834 L
379.65 306.763 L
380.245 344.331 L
380.84 124.493 L
381.435 307.442 L
382.03 227.63 L
382.625 258.519 L
383.22 267.143 L
383.815 408.69 L
384.41 189.549 L
385.005 295.783 L
385.6 159.307 L
386.195 269.862 L
386.79 356.664 L
387.385 160.388 L
387.98 202.429 L
388.575 168.721 L
389.17 92.556 L
389.765 356.791 L
390.36 408.835 L
390.955 248.641 L
391.55 232.559 L
392.145 395.726 L
S
GR
GS
[0.75 0 0 0.75 18 230] CT
0 GC
2 LJ
N
392.145 395.726 M
392.74 139.901 L
393.335 174.734 L
393.93 251.123 L
394.525 254.097 L
395.12 208.834 L
395.715 415.321 L
396.31 126.533 L
396.905 150.01 L
397.5 143.177 L
398.095 128.801 L
398.69 255.716 L
399.285 187.249 L
399.88 415.135 L
400.475 382.953 L
401.07 146.172 L
401.665 276.844 L
402.26 299.234 L
402.855 303.39 L
403.45 296.672 L
404.045 330.971 L
404.64 422.361 L
405.235 189.788 L
405.83 119.922 L
406.425 318.979 L
407.02 129.435 L
407.615 135.009 L
408.21 267.431 L
408.805 267.041 L
409.4 91.46 L
409.995 391.098 L
410.59 342.486 L
411.185 125.146 L
411.78 271.451 L
412.375 306.101 L
412.97 192.099 L
413.565 322.097 L
414.16 307.249 L
414.755 326.424 L
415.35 447.178 L
415.945 322.826 L
416.54 423.754 L
417.135 358.324 L
417.73 363.127 L
418.325 418.547 L
418.92 135.175 L
419.515 179.984 L
420.11 328.896 L
420.705 192.508 L
421.3 199.838 L
S
GR
GS
[0.75 0 0 0.75 18 230] CT
0 GC
2 LJ
N
421.3 199.838 M
421.895 140.763 L
422.49 335.559 L
423.085 420.28 L
423.68 286.701 L
424.275 212.375 L
424.87 365.405 L
425.465 185.22 L
426.06 416.596 L
426.655 219.004 L
427.25 318.095 L
427.845 355.372 L
428.44 306.539 L
429.035 236.063 L
429.63 261.259 L
430.225 175.18 L
430.82 128.984 L
431.415 346.903 L
432.01 359.759 L
432.605 285.313 L
433.2 230.428 L
433.795 179.856 L
434.39 209.164 L
434.985 230.863 L
435.58 273.922 L
436.175 414.151 L
436.77 159.298 L
437.365 405.217 L
437.96 319.48 L
438.555 185.632 L
439.15 257.408 L
439.745 202.289 L
440.34 302.319 L
440.935 241.777 L
441.53 192.86 L
442.125 356.864 L
442.72 356.527 L
443.315 231.16 L
443.91 142.701 L
444.505 223.771 L
445.1 373.861 L
445.695 353.565 L
446.29 285.5 L
446.885 380.73 L
447.48 269.579 L
448.075 149.635 L
448.67 173.119 L
449.265 405.122 L
449.86 344.06 L
450.455 287.597 L
S
GR
GS
[0.75 0 0 0.75 18 230] CT
0 GC
2 LJ
N
450.455 287.597 M
451.05 164.753 L
451.645 98.657 L
452.24 287.19 L
452.835 155.139 L
453.43 296.894 L
454.025 104.138 L
454.62 196.373 L
455.215 413.435 L
455.81 210.762 L
456.405 122.731 L
457 314.921 L
457.595 85.621 L
458.19 229.043 L
458.785 291.653 L
459.38 358.986 L
459.975 413.562 L
460.57 340.134 L
461.165 153.074 L
461.76 309.445 L
462.355 254.8 L
462.95 395.668 L
463.545 274.243 L
464.14 338.012 L
464.735 324.472 L
465.33 154.313 L
465.925 272.036 L
466.52 214.528 L
467.115 368.104 L
467.71 279.943 L
468.305 393.759 L
468.9 272.179 L
469.495 233.296 L
470.09 252.145 L
470.685 165.175 L
471.28 349.422 L
471.875 422.967 L
472.47 176.918 L
473.065 262.485 L
473.66 163.45 L
474.255 159.861 L
474.85 363.49 L
475.445 311.797 L
476.04 199.498 L
476.635 289.549 L
477.23 218.744 L
477.825 140.376 L
478.42 223.805 L
479.015 337.45 L
479.61 366.154 L
S
GR
GS
[0.75 0 0 0.75 18 230] CT
0 GC
2 LJ
N
479.61 366.154 M
480.205 347.675 L
480.8 365.945 L
481.395 137.467 L
481.99 365.921 L
482.585 412.957 L
483.18 243.31 L
483.775 318.082 L
484.37 288.258 L
484.965 291.506 L
485.56 124.771 L
486.155 303.97 L
486.75 111.951 L
487.345 358.243 L
487.94 371.452 L
488.535 328.951 L
489.13 118.091 L
489.725 101.92 L
490.32 350.908 L
490.915 340.466 L
491.51 113.482 L
492.105 255.767 L
492.7 241.474 L
493.295 305.796 L
493.89 165.286 L
494.485 150.295 L
495.08 122.373 L
495.675 309.992 L
496.27 186.978 L
496.865 303.543 L
497.46 437.008 L
498.055 168.398 L
498.65 125.091 L
499.245 356.594 L
499.84 345.565 L
500.435 155.447 L
501.03 228.04 L
501.625 403.039 L
502.22 297.991 L
502.815 407.874 L
503.41 288.961 L
504.005 299.922 L
504.6 172.294 L
505.195 206.831 L
505.79 346.036 L
506.385 125.04 L
506.98 194.951 L
507.575 175.678 L
508.17 348.389 L
508.765 276.61 L
S
GR
GS
[0.75 0 0 0.75 18 230] CT
0 GC
2 LJ
N
508.765 276.61 M
509.36 238.155 L
509.955 157.095 L
510.55 298.893 L
511.145 148.573 L
511.74 392.53 L
512.335 453.99 L
512.93 459.128 L
513.525 311.455 L
514.12 239.648 L
514.715 362.654 L
515.31 301.337 L
515.905 175.197 L
516.5 158.366 L
517.095 236.95 L
517.69 170.029 L
518.285 147.271 L
518.88 331.045 L
519.475 155.406 L
520.07 299.33 L
520.665 271.482 L
521.26 141.647 L
521.855 211.189 L
522.45 438.649 L
523.045 388.583 L
523.64 232.665 L
524.235 212.606 L
524.83 358.348 L
525.425 329.57 L
526.02 220.447 L
526.615 430.244 L
527.21 134.112 L
527.805 339.668 L
528.4 157.883 L
528.995 199.929 L
529.59 392.013 L
530.185 165.296 L
530.78 389.256 L
531.375 243.552 L
531.97 133.658 L
532.565 317.402 L
533.16 425.996 L
533.755 282.085 L
534.35 122.239 L
534.945 398.3 L
535.54 112.776 L
536.135 152.102 L
536.73 314.18 L
537.325 209.219 L
537.92 369.701 L
S
GR
GS
[0.75 0 0 0.75 18 230] CT
0 GC
2 LJ
N
537.92 369.701 M
538.515 119.003 L
539.11 268.147 L
539.705 254.333 L
540.3 238.916 L
540.895 180.264 L
541.49 187.246 L
542.085 285.969 L
542.68 338.11 L
543.275 150.011 L
543.87 213.975 L
544.465 272.301 L
545.06 203.435 L
545.655 155.586 L
546.25 365.901 L
546.845 209.312 L
547.44 175.362 L
548.035 203.525 L
548.63 264.559 L
549.225 323.868 L
549.82 199.868 L
550.415 433.526 L
551.01 404.296 L
551.605 330.681 L
552.2 139.48 L
552.795 302.998 L
553.39 193.893 L
553.985 202.252 L
554.58 302.08 L
555.175 305.326 L
555.77 379.522 L
556.365 240.285 L
556.96 322.136 L
557.555 259.115 L
558.15 238.222 L
558.745 161.144 L
559.34 150.831 L
559.935 283.644 L
560.53 430.773 L
561.125 261.867 L
561.72 164.215 L
562.315 334.842 L
562.91 247.488 L
563.505 281.782 L
564.1 303.033 L
564.695 329.824 L
565.29 325.386 L
565.885 323.92 L
566.48 85.408 L
567.075 418.051 L
S
GR
GS
[0.75 0 0 0.75 18 230] CT
0 GC
2 LJ
N
567.075 418.051 M
567.67 147.807 L
568.265 126.641 L
568.86 260.253 L
569.455 165.102 L
570.05 234.35 L
570.645 181.747 L
571.24 258.854 L
571.835 197.27 L
572.43 181.312 L
573.025 127.048 L
573.62 385.418 L
574.215 376.022 L
574.81 238.089 L
575.405 243.704 L
576 109.847 L
576.595 164.51 L
577.19 417.591 L
577.785 202.348 L
578.38 375.377 L
578.975 226.917 L
579.57 233.462 L
580.165 178.243 L
580.76 388.145 L
581.355 309.345 L
581.95 307.069 L
582.545 393.852 L
583.14 203.68 L
583.735 239.356 L
584.33 116.276 L
584.925 346.247 L
585.52 197.307 L
586.115 208.985 L
586.71 368.429 L
587.305 355.474 L
587.9 359.591 L
588.495 208.291 L
589.09 353.806 L
589.685 327.831 L
590.28 165.884 L
590.875 425.699 L
591.47 353.415 L
592.065 374.694 L
592.66 158.801 L
593.255 192.661 L
593.85 415.11 L
594.445 372.356 L
595.04 329.664 L
595.635 229.859 L
596.23 326.936 L
S
GR
GS
[0.75 0 0 0.75 18 230] CT
0 GC
2 LJ
N
596.23 326.936 M
596.825 243.44 L
597.42 392.919 L
598.015 294.016 L
598.61 143.65 L
599.205 343.669 L
599.8 358.473 L
600.395 405.688 L
600.99 204.599 L
601.585 384.771 L
602.18 288.345 L
602.775 331.017 L
603.37 371.156 L
603.965 353.844 L
604.56 248.932 L
605.155 368.057 L
605.75 182.008 L
606.345 390.102 L
606.94 372.541 L
607.535 123.61 L
608.13 162.49 L
608.725 293.748 L
609.32 162.167 L
609.915 383.558 L
610.51 323.644 L
611.105 127.196 L
611.7 137.697 L
612.295 408.861 L
612.89 172.728 L
613.485 362.794 L
614.08 371.84 L
614.675 399.898 L
615.27 379.378 L
615.865 269.065 L
616.46 215.896 L
617.055 397.965 L
617.65 260.983 L
618.245 442.237 L
618.84 384.302 L
619.435 341.721 L
620.03 417.592 L
620.625 359.054 L
621.22 191.583 L
621.815 172.031 L
622.41 383.224 L
623.005 161.402 L
623.6 370.594 L
624.195 261.564 L
624.79 413.913 L
625.385 456.937 L
S
GR
GS
[0.75 0 0 0.75 18 230] CT
0 GC
2 LJ
N
625.385 456.937 M
625.98 416.999 L
626.575 142.722 L
627.17 353.86 L
627.765 256.18 L
628.36 144.157 L
628.955 408.901 L
629.55 206.904 L
630.145 187.423 L
630.74 329.924 L
631.335 287.415 L
631.93 198.583 L
632.525 256.128 L
633.12 410.573 L
633.715 287.514 L
634.31 160.845 L
634.905 228.429 L
635.5 141.183 L
636.095 281.719 L
636.69 165.548 L
637.285 427.491 L
637.88 436.738 L
638.475 250.815 L
639.07 333.065 L
639.665 225.672 L
640.26 397.999 L
640.855 160.881 L
641.45 345.068 L
642.045 308.084 L
642.64 201.585 L
643.235 90.085 L
643.83 322.258 L
644.425 389.052 L
645.02 235.031 L
645.615 214.903 L
646.21 293.028 L
646.805 408.28 L
647.4 423.13 L
647.995 254.889 L
648.59 282.455 L
649.185 419.999 L
649.78 409.589 L
650.375 144.828 L
650.97 254.321 L
651.565 449.046 L
652.16 330.23 L
652.755 181.038 L
653.35 257.517 L
653.945 104.442 L
654.54 297.62 L
S
GR
GS
[0.75 0 0 0.75 18 230] CT
0 GC
2 LJ
N
654.54 297.62 M
655.135 299.294 L
655.73 182.954 L
656.325 219.42 L
656.92 236.961 L
657.515 250.548 L
658.11 144.236 L
658.705 232.324 L
659.3 191.504 L
659.895 463.38 L
660.49 168.848 L
661.085 186.552 L
661.68 239.532 L
662.275 355.601 L
662.87 396.585 L
663.465 99.646 L
664.06 400.298 L
664.655 348.697 L
665.25 397.177 L
665.845 472.979 L
666.44 236.224 L
667.035 363.573 L
667.63 237.591 L
668.225 161.751 L
668.82 313.095 L
669.415 147.641 L
670.01 155.932 L
670.605 127.986 L
671.2 348.217 L
671.795 372.387 L
672.39 381.638 L
672.985 382.141 L
673.58 391.606 L
674.175 374.544 L
674.77 373.788 L
675.365 426.443 L
675.96 342.037 L
676.555 354.491 L
677.15 282.53 L
677.745 291.718 L
678.34 213.987 L
678.935 137.994 L
679.53 299.601 L
680.125 361.549 L
680.72 146.064 L
681.315 393.655 L
681.91 371.966 L
682.505 408.968 L
683.1 374.48 L
683.695 179.5 L
S
GR
GS
[0.75 0 0 0.75 18 230] CT
0 GC
2 LJ
N
683.695 179.5 M
684.29 180.342 L
684.885 415.711 L
685.48 354.988 L
686.075 362.836 L
686.67 376.344 L
687.265 359.161 L
687.86 167.256 L
688.455 188.765 L
689.05 191.089 L
689.645 360.539 L
690.24 338.716 L
690.835 362.975 L
691.43 219.798 L
692.025 148.231 L
692.62 410.819 L
693.215 296.807 L
693.81 417.414 L
694.405 117.629 L
695 393.13 L
S
GR
GS
[0.75 0 0 0.75 316.12527 260.18749] CT
0 GC
/Helvetica-Bold 15 F
GS
[1 0 0 1 0 0] CT
-280.5 -4 moveto 
1 -1 scale
(Unrelated<->Extracted Watermark Correlation Coefficents Alpha:0.5 Position:2) t 
GR
GR
showpage
%%Trailer
%%BoundingBox: 71 210 550 596
%%Pages: 1
%%EOF
