%!PS-Adobe-3.0
%%Creator: (MATLAB, The Mathworks, Inc. Version 8.5.0.197613 \(R2015a\). Operating System: Windows 7)
%%Title: ./output/WmIm_01_2/extractedWatermarkCorrelationCoefficient.eps
%%CreationDate: 2015-11-04T23:49:10
%%Pages: (atend)
%%BoundingBox: (atend)
%%LanguageLevel: 3
%%EndComments
%%BeginDefaults
%%EndDefaults
%%BeginProlog
%%EndProlog
%%BeginSetup
%%BeginResource: procset (Apache XML Graphics Std ProcSet) 1.2 0
%%Version: 1.2 0
%%Copyright: (Copyright 2001-2003,2010 The Apache Software Foundation. License terms: http://www.apache.org/licenses/LICENSE-2.0)
/bd{bind def}bind def
/ld{load def}bd
/GR/grestore ld
/M/moveto ld
/LJ/setlinejoin ld
/C/curveto ld
/f/fill ld
/LW/setlinewidth ld
/GC/setgray ld
/t/show ld
/N/newpath ld
/CT/concat ld
/cp/closepath ld
/S/stroke ld
/L/lineto ld
/CC/setcmykcolor ld
/A/ashow ld
/GS/gsave ld
/RC/setrgbcolor ld
/RM/rmoveto ld
/ML/setmiterlimit ld
/re {4 2 roll M
1 index 0 rlineto
0 exch rlineto
neg 0 rlineto
cp } bd
/_ctm matrix def
/_tm matrix def
/BT { _ctm currentmatrix pop matrix _tm copy pop 0 0 moveto } bd
/ET { _ctm setmatrix } bd
/iTm { _ctm setmatrix _tm concat } bd
/Tm { _tm astore pop iTm 0 0 moveto } bd
/ux 0.0 def
/uy 0.0 def
/F {
  /Tp exch def
  /Tf exch def
  Tf findfont Tp scalefont setfont
  /cf Tf def  /cs Tp def
} bd
/ULS {currentpoint /uy exch def /ux exch def} bd
/ULE {
  /Tcx currentpoint pop def
  gsave
  newpath
  cf findfont cs scalefont dup
  /FontMatrix get 0 get /Ts exch def /FontInfo get dup
  /UnderlinePosition get Ts mul /To exch def
  /UnderlineThickness get Ts mul /Tt exch def
  ux uy To add moveto  Tcx uy To add lineto
  Tt setlinewidth stroke
  grestore
} bd
/OLE {
  /Tcx currentpoint pop def
  gsave
  newpath
  cf findfont cs scalefont dup
  /FontMatrix get 0 get /Ts exch def /FontInfo get dup
  /UnderlinePosition get Ts mul /To exch def
  /UnderlineThickness get Ts mul /Tt exch def
  ux uy To add cs add moveto Tcx uy To add cs add lineto
  Tt setlinewidth stroke
  grestore
} bd
/SOE {
  /Tcx currentpoint pop def
  gsave
  newpath
  cf findfont cs scalefont dup
  /FontMatrix get 0 get /Ts exch def /FontInfo get dup
  /UnderlinePosition get Ts mul /To exch def
  /UnderlineThickness get Ts mul /Tt exch def
  ux uy To add cs 10 mul 26 idiv add moveto Tcx uy To add cs 10 mul 26 idiv add lineto
  Tt setlinewidth stroke
  grestore
} bd
/QT {
/Y22 exch store
/X22 exch store
/Y21 exch store
/X21 exch store
currentpoint
/Y21 load 2 mul add 3 div exch
/X21 load 2 mul add 3 div exch
/X21 load 2 mul /X22 load add 3 div
/Y21 load 2 mul /Y22 load add 3 div
/X22 load /Y22 load curveto
} bd
/SSPD {
dup length /d exch dict def
{
/v exch def
/k exch def
currentpagedevice k known {
/cpdv currentpagedevice k get def
v cpdv ne {
/upd false def
/nullv v type /nulltype eq def
/nullcpdv cpdv type /nulltype eq def
nullv nullcpdv or
{
/upd true def
} {
/sametype v type cpdv type eq def
sametype {
v type /arraytype eq {
/vlen v length def
/cpdvlen cpdv length def
vlen cpdvlen eq {
0 1 vlen 1 sub {
/i exch def
/obj v i get def
/cpdobj cpdv i get def
obj cpdobj ne {
/upd true def
exit
} if
} for
} {
/upd true def
} ifelse
} {
v type /dicttype eq {
v {
/dv exch def
/dk exch def
/cpddv cpdv dk get def
dv cpddv ne {
/upd true def
exit
} if
} forall
} {
/upd true def
} ifelse
} ifelse
} if
} ifelse
upd true eq {
d k v put
} if
} if
} if
} forall
d length 0 gt {
d setpagedevice
} if
} bd
%%EndResource
%%BeginResource: procset (Apache XML Graphics EPS ProcSet) 1.0 0
%%Version: 1.0 0
%%Copyright: (Copyright 2002-2003 The Apache Software Foundation. License terms: http://www.apache.org/licenses/LICENSE-2.0)
/BeginEPSF { %def
/b4_Inc_state save def         % Save state for cleanup
/dict_count countdictstack def % Count objects on dict stack
/op_count count 1 sub def      % Count objects on operand stack
userdict begin                 % Push userdict on dict stack
/showpage { } def              % Redefine showpage, { } = null proc
0 setgray 0 setlinecap         % Prepare graphics state
1 setlinewidth 0 setlinejoin
10 setmiterlimit [ ] 0 setdash newpath
/languagelevel where           % If level not equal to 1 then
{pop languagelevel             % set strokeadjust and
1 ne                           % overprint to their defaults.
{false setstrokeadjust false setoverprint
} if
} if
} bd
/EndEPSF { %def
count op_count sub {pop} repeat            % Clean up stacks
countdictstack dict_count sub {end} repeat
b4_Inc_state restore
} bd
%%EndResource
%FOPBeginFontDict
%%IncludeResource: font Courier-Bold
%%IncludeResource: font Helvetica
%%IncludeResource: font Courier-BoldOblique
%%IncludeResource: font Courier-Oblique
%%IncludeResource: font Times-Roman
%%IncludeResource: font Helvetica-BoldOblique
%%IncludeResource: font Helvetica-Bold
%%IncludeResource: font Helvetica-Oblique
%%IncludeResource: font Times-BoldItalic
%%IncludeResource: font Courier
%%IncludeResource: font Times-Italic
%%IncludeResource: font Times-Bold
%%IncludeResource: font Symbol
%%IncludeResource: font ZapfDingbats
%FOPEndFontDict
%%BeginResource: encoding WinAnsiEncoding
/WinAnsiEncoding [
/.notdef /.notdef /.notdef /.notdef /.notdef
/.notdef /.notdef /.notdef /.notdef /.notdef
/.notdef /.notdef /.notdef /.notdef /.notdef
/.notdef /.notdef /.notdef /.notdef /.notdef
/.notdef /.notdef /.notdef /.notdef /.notdef
/.notdef /.notdef /.notdef /.notdef /.notdef
/.notdef /.notdef /space /exclam /quotedbl
/numbersign /dollar /percent /ampersand /quotesingle
/parenleft /parenright /asterisk /plus /comma
/hyphen /period /slash /zero /one
/two /three /four /five /six
/seven /eight /nine /colon /semicolon
/less /equal /greater /question /at
/A /B /C /D /E
/F /G /H /I /J
/K /L /M /N /O
/P /Q /R /S /T
/U /V /W /X /Y
/Z /bracketleft /backslash /bracketright /asciicircum
/underscore /quoteleft /a /b /c
/d /e /f /g /h
/i /j /k /l /m
/n /o /p /q /r
/s /t /u /v /w
/x /y /z /braceleft /bar
/braceright /asciitilde /bullet /Euro /bullet
/quotesinglbase /florin /quotedblbase /ellipsis /dagger
/daggerdbl /circumflex /perthousand /Scaron /guilsinglleft
/OE /bullet /Zcaron /bullet /bullet
/quoteleft /quoteright /quotedblleft /quotedblright /bullet
/endash /emdash /asciitilde /trademark /scaron
/guilsinglright /oe /bullet /zcaron /Ydieresis
/space /exclamdown /cent /sterling /currency
/yen /brokenbar /section /dieresis /copyright
/ordfeminine /guillemotleft /logicalnot /sfthyphen /registered
/macron /degree /plusminus /twosuperior /threesuperior
/acute /mu /paragraph /middot /cedilla
/onesuperior /ordmasculine /guillemotright /onequarter /onehalf
/threequarters /questiondown /Agrave /Aacute /Acircumflex
/Atilde /Adieresis /Aring /AE /Ccedilla
/Egrave /Eacute /Ecircumflex /Edieresis /Igrave
/Iacute /Icircumflex /Idieresis /Eth /Ntilde
/Ograve /Oacute /Ocircumflex /Otilde /Odieresis
/multiply /Oslash /Ugrave /Uacute /Ucircumflex
/Udieresis /Yacute /Thorn /germandbls /agrave
/aacute /acircumflex /atilde /adieresis /aring
/ae /ccedilla /egrave /eacute /ecircumflex
/edieresis /igrave /iacute /icircumflex /idieresis
/eth /ntilde /ograve /oacute /ocircumflex
/otilde /odieresis /divide /oslash /ugrave
/uacute /ucircumflex /udieresis /yacute /thorn
/ydieresis
] def
%%EndResource
%FOPBeginFontReencode
/Courier-Bold findfont
dup length dict begin
  {1 index /FID ne {def} {pop pop} ifelse} forall
  /Encoding WinAnsiEncoding def
  currentdict
end
/Courier-Bold exch definefont pop
/Helvetica findfont
dup length dict begin
  {1 index /FID ne {def} {pop pop} ifelse} forall
  /Encoding WinAnsiEncoding def
  currentdict
end
/Helvetica exch definefont pop
/Courier-BoldOblique findfont
dup length dict begin
  {1 index /FID ne {def} {pop pop} ifelse} forall
  /Encoding WinAnsiEncoding def
  currentdict
end
/Courier-BoldOblique exch definefont pop
/Courier-Oblique findfont
dup length dict begin
  {1 index /FID ne {def} {pop pop} ifelse} forall
  /Encoding WinAnsiEncoding def
  currentdict
end
/Courier-Oblique exch definefont pop
/Times-Roman findfont
dup length dict begin
  {1 index /FID ne {def} {pop pop} ifelse} forall
  /Encoding WinAnsiEncoding def
  currentdict
end
/Times-Roman exch definefont pop
/Helvetica-BoldOblique findfont
dup length dict begin
  {1 index /FID ne {def} {pop pop} ifelse} forall
  /Encoding WinAnsiEncoding def
  currentdict
end
/Helvetica-BoldOblique exch definefont pop
/Helvetica-Bold findfont
dup length dict begin
  {1 index /FID ne {def} {pop pop} ifelse} forall
  /Encoding WinAnsiEncoding def
  currentdict
end
/Helvetica-Bold exch definefont pop
/Helvetica-Oblique findfont
dup length dict begin
  {1 index /FID ne {def} {pop pop} ifelse} forall
  /Encoding WinAnsiEncoding def
  currentdict
end
/Helvetica-Oblique exch definefont pop
/Times-BoldItalic findfont
dup length dict begin
  {1 index /FID ne {def} {pop pop} ifelse} forall
  /Encoding WinAnsiEncoding def
  currentdict
end
/Times-BoldItalic exch definefont pop
/Courier findfont
dup length dict begin
  {1 index /FID ne {def} {pop pop} ifelse} forall
  /Encoding WinAnsiEncoding def
  currentdict
end
/Courier exch definefont pop
/Times-Italic findfont
dup length dict begin
  {1 index /FID ne {def} {pop pop} ifelse} forall
  /Encoding WinAnsiEncoding def
  currentdict
end
/Times-Italic exch definefont pop
/Times-Bold findfont
dup length dict begin
  {1 index /FID ne {def} {pop pop} ifelse} forall
  /Encoding WinAnsiEncoding def
  currentdict
end
/Times-Bold exch definefont pop
%FOPEndFontReencode
%%EndSetup
%%Page: 1 1
%%PageBoundingBox: 0 0 595 842
%%BeginPageSetup
<<
/PageSize [595 842]
/ImagingBBox null
>> setpagedevice
[1 0 0 -1 0 842] CT
%%EndPageSetup
GS
[0.75 0 0 0.75 18 230] CT
0.997 GC
N
0 0 768 576 re
f
GR
GS
[0.75 0 0 0.75 18 230] CT
0.997 GC
N
0 0 768 576 re
f
GR
GS
[0.75 0 0 0.75 18 230] CT
0.997 GC
N
100 513 M
695 513 L
695 43 L
100 43 L
cp
f
GR
GS
[0.75 0 0 0.75 18 230] CT
0 GC
2 setlinecap
10.0 ML
N
100 513 M
695 513 L
S
GR
GS
[0.75 0 0 0.75 18 230] CT
0 GC
2 setlinecap
10.0 ML
N
100 43 M
695 43 L
S
GR
GS
[0.75 0 0 0.75 18 230] CT
0 GC
2 setlinecap
10.0 ML
N
100 513 M
100 507.05 L
S
GR
GS
[0.75 0 0 0.75 18 230] CT
0 GC
2 setlinecap
10.0 ML
N
159.5 513 M
159.5 507.05 L
S
GR
GS
[0.75 0 0 0.75 18 230] CT
0 GC
2 setlinecap
10.0 ML
N
219 513 M
219 507.05 L
S
GR
GS
[0.75 0 0 0.75 18 230] CT
0 GC
2 setlinecap
10.0 ML
N
278.5 513 M
278.5 507.05 L
S
GR
GS
[0.75 0 0 0.75 18 230] CT
0 GC
2 setlinecap
10.0 ML
N
338 513 M
338 507.05 L
S
GR
GS
[0.75 0 0 0.75 18 230] CT
0 GC
2 setlinecap
10.0 ML
N
397.5 513 M
397.5 507.05 L
S
GR
GS
[0.75 0 0 0.75 18 230] CT
0 GC
2 setlinecap
10.0 ML
N
457 513 M
457 507.05 L
S
GR
GS
[0.75 0 0 0.75 18 230] CT
0 GC
2 setlinecap
10.0 ML
N
516.5 513 M
516.5 507.05 L
S
GR
GS
[0.75 0 0 0.75 18 230] CT
0 GC
2 setlinecap
10.0 ML
N
576 513 M
576 507.05 L
S
GR
GS
[0.75 0 0 0.75 18 230] CT
0 GC
2 setlinecap
10.0 ML
N
635.5 513 M
635.5 507.05 L
S
GR
GS
[0.75 0 0 0.75 18 230] CT
0 GC
2 setlinecap
10.0 ML
N
695 513 M
695 507.05 L
S
GR
GS
[0.75 0 0 0.75 18 230] CT
0 GC
2 setlinecap
10.0 ML
N
100 43 M
100 48.95 L
S
GR
GS
[0.75 0 0 0.75 18 230] CT
0 GC
2 setlinecap
10.0 ML
N
159.5 43 M
159.5 48.95 L
S
GR
GS
[0.75 0 0 0.75 18 230] CT
0 GC
2 setlinecap
10.0 ML
N
219 43 M
219 48.95 L
S
GR
GS
[0.75 0 0 0.75 18 230] CT
0 GC
2 setlinecap
10.0 ML
N
278.5 43 M
278.5 48.95 L
S
GR
GS
[0.75 0 0 0.75 18 230] CT
0 GC
2 setlinecap
10.0 ML
N
338 43 M
338 48.95 L
S
GR
GS
[0.75 0 0 0.75 18 230] CT
0 GC
2 setlinecap
10.0 ML
N
397.5 43 M
397.5 48.95 L
S
GR
GS
[0.75 0 0 0.75 18 230] CT
0 GC
2 setlinecap
10.0 ML
N
457 43 M
457 48.95 L
S
GR
GS
[0.75 0 0 0.75 18 230] CT
0 GC
2 setlinecap
10.0 ML
N
516.5 43 M
516.5 48.95 L
S
GR
GS
[0.75 0 0 0.75 18 230] CT
0 GC
2 setlinecap
10.0 ML
N
576 43 M
576 48.95 L
S
GR
GS
[0.75 0 0 0.75 18 230] CT
0 GC
2 setlinecap
10.0 ML
N
635.5 43 M
635.5 48.95 L
S
GR
GS
[0.75 0 0 0.75 18 230] CT
0 GC
2 setlinecap
10.0 ML
N
695 43 M
695 48.95 L
S
GR
GS
[0.75 0 0 0.75 93 618.74998] CT
0 GC
/Helvetica 13 F
GS
[1 0 0 1 0 0] CT
-4 14 moveto 
1 -1 scale
(0) t 
GR
GR
GS
[0.75 0 0 0.75 137.625 618.74998] CT
0 GC
/Helvetica 13 F
GS
[1 0 0 1 0 0] CT
-11 14 moveto 
1 -1 scale
(100) t 
GR
GR
GS
[0.75 0 0 0.75 182.25 618.74998] CT
0 GC
/Helvetica 13 F
GS
[1 0 0 1 0 0] CT
-11 14 moveto 
1 -1 scale
(200) t 
GR
GR
GS
[0.75 0 0 0.75 226.875 618.74998] CT
0 GC
/Helvetica 13 F
GS
[1 0 0 1 0 0] CT
-11 14 moveto 
1 -1 scale
(300) t 
GR
GR
GS
[0.75 0 0 0.75 271.5 618.74998] CT
0 GC
/Helvetica 13 F
GS
[1 0 0 1 0 0] CT
-11 14 moveto 
1 -1 scale
(400) t 
GR
GR
GS
[0.75 0 0 0.75 316.125 618.74998] CT
0 GC
/Helvetica 13 F
GS
[1 0 0 1 0 0] CT
-11 14 moveto 
1 -1 scale
(500) t 
GR
GR
GS
[0.75 0 0 0.75 360.75 618.74998] CT
0 GC
/Helvetica 13 F
GS
[1 0 0 1 0 0] CT
-11 14 moveto 
1 -1 scale
(600) t 
GR
GR
GS
[0.75 0 0 0.75 405.375 618.74998] CT
0 GC
/Helvetica 13 F
GS
[1 0 0 1 0 0] CT
-11 14 moveto 
1 -1 scale
(700) t 
GR
GR
GS
[0.75 0 0 0.75 450 618.74998] CT
0 GC
/Helvetica 13 F
GS
[1 0 0 1 0 0] CT
-11 14 moveto 
1 -1 scale
(800) t 
GR
GR
GS
[0.75 0 0 0.75 494.625 618.74998] CT
0 GC
/Helvetica 13 F
GS
[1 0 0 1 0 0] CT
-11 14 moveto 
1 -1 scale
(900) t 
GR
GR
GS
[0.75 0 0 0.75 539.25 618.74998] CT
0 GC
/Helvetica 13 F
GS
[1 0 0 1 0 0] CT
-14.5 14 moveto 
1 -1 scale
(1000) t 
GR
GR
GS
[0.75 0 0 0.75 18 230] CT
0 GC
2 setlinecap
10.0 ML
N
100 513 M
100 43 L
S
GR
GS
[0.75 0 0 0.75 18 230] CT
0 GC
2 setlinecap
10.0 ML
N
695 513 M
695 43 L
S
GR
GS
[0.75 0 0 0.75 18 230] CT
0 GC
2 setlinecap
10.0 ML
N
100 513 M
105.95 513 L
S
GR
GS
[0.75 0 0 0.75 18 230] CT
0 GC
2 setlinecap
10.0 ML
N
100 434.667 M
105.95 434.667 L
S
GR
GS
[0.75 0 0 0.75 18 230] CT
0 GC
2 setlinecap
10.0 ML
N
100 356.333 M
105.95 356.333 L
S
GR
GS
[0.75 0 0 0.75 18 230] CT
0 GC
2 setlinecap
10.0 ML
N
100 278 M
105.95 278 L
S
GR
GS
[0.75 0 0 0.75 18 230] CT
0 GC
2 setlinecap
10.0 ML
N
100 199.667 M
105.95 199.667 L
S
GR
GS
[0.75 0 0 0.75 18 230] CT
0 GC
2 setlinecap
10.0 ML
N
100 121.333 M
105.95 121.333 L
S
GR
GS
[0.75 0 0 0.75 18 230] CT
0 GC
2 setlinecap
10.0 ML
N
100 43 M
105.95 43 L
S
GR
GS
[0.75 0 0 0.75 18 230] CT
0 GC
2 setlinecap
10.0 ML
N
695 513 M
689.05 513 L
S
GR
GS
[0.75 0 0 0.75 18 230] CT
0 GC
2 setlinecap
10.0 ML
N
695 434.667 M
689.05 434.667 L
S
GR
GS
[0.75 0 0 0.75 18 230] CT
0 GC
2 setlinecap
10.0 ML
N
695 356.333 M
689.05 356.333 L
S
GR
GS
[0.75 0 0 0.75 18 230] CT
0 GC
2 setlinecap
10.0 ML
N
695 278 M
689.05 278 L
S
GR
GS
[0.75 0 0 0.75 18 230] CT
0 GC
2 setlinecap
10.0 ML
N
695 199.667 M
689.05 199.667 L
S
GR
GS
[0.75 0 0 0.75 18 230] CT
0 GC
2 setlinecap
10.0 ML
N
695 121.333 M
689.05 121.333 L
S
GR
GS
[0.75 0 0 0.75 18 230] CT
0 GC
2 setlinecap
10.0 ML
N
695 43 M
689.05 43 L
S
GR
GS
[0.75 0 0 0.75 89 614.75] CT
0 GC
/Helvetica 13 F
GS
[1 0 0 1 0 0] CT
-12 5.5 moveto 
1 -1 scale
(-2) t 
GR
GR
GS
[0.75 0 0 0.75 89 555.99999] CT
0 GC
/Helvetica 13 F
GS
[1 0 0 1 0 0] CT
-12 5.5 moveto 
1 -1 scale
(-1) t 
GR
GR
GS
[0.75 0 0 0.75 89 497.25001] CT
0 GC
/Helvetica 13 F
GS
[1 0 0 1 0 0] CT
-8 5.5 moveto 
1 -1 scale
(0) t 
GR
GR
GS
[0.75 0 0 0.75 89 438.5] CT
0 GC
/Helvetica 13 F
GS
[1 0 0 1 0 0] CT
-8 5.5 moveto 
1 -1 scale
(1) t 
GR
GR
GS
[0.75 0 0 0.75 89 379.75] CT
0 GC
/Helvetica 13 F
GS
[1 0 0 1 0 0] CT
-8 5.5 moveto 
1 -1 scale
(2) t 
GR
GR
GS
[0.75 0 0 0.75 89 321] CT
0 GC
/Helvetica 13 F
GS
[1 0 0 1 0 0] CT
-8 5.5 moveto 
1 -1 scale
(3) t 
GR
GR
GS
[0.75 0 0 0.75 89 262.25] CT
0 GC
/Helvetica 13 F
GS
[1 0 0 1 0 0] CT
-8 5.5 moveto 
1 -1 scale
(4) t 
GR
GR
GS
[0.75 0 0 0.75 18 230] CT
0 GC
2 LJ
N
100.595 450.536 M
101.19 353.712 L
101.785 425.77 L
102.38 376.117 L
102.975 394.754 L
103.57 341.353 L
104.165 332.745 L
104.76 408.089 L
105.355 392.008 L
105.95 329.116 L
106.545 405.533 L
107.14 242.998 L
107.735 219.928 L
108.33 419.924 L
108.925 393.617 L
109.52 480.262 L
110.115 478.481 L
110.71 331.201 L
111.305 227.379 L
111.9 389.517 L
112.495 473.851 L
113.09 290.243 L
113.685 245.288 L
114.28 211.126 L
114.875 457.807 L
115.47 350.388 L
116.065 423.163 L
116.66 465.59 L
117.255 338.918 L
117.85 399.146 L
118.445 329.939 L
119.04 297.272 L
119.635 317.138 L
120.23 398.897 L
120.825 286.173 L
121.42 441.955 L
122.015 466.253 L
122.61 351.932 L
123.205 437.596 L
123.8 314.714 L
124.395 426.318 L
124.99 437.549 L
125.585 278.138 L
126.18 453.421 L
126.775 470.104 L
127.37 245.655 L
127.965 409.726 L
128.56 477.907 L
129.155 444.351 L
129.75 257.069 L
S
GR
GS
[0.75 0 0 0.75 18 230] CT
0 GC
2 LJ
N
129.75 257.069 M
130.345 431.658 L
130.94 314.818 L
131.535 280 L
132.13 252.424 L
132.725 318.335 L
133.32 275.379 L
133.915 221.169 L
134.51 452.027 L
135.105 348.047 L
135.7 315.307 L
136.295 438.746 L
136.89 458.04 L
137.485 366.903 L
138.08 361.148 L
138.675 373.339 L
139.27 473.11 L
139.865 317.825 L
140.46 428.674 L
141.055 426.354 L
141.65 291.856 L
142.245 270.938 L
142.84 240.76 L
143.435 277.786 L
144.03 373.724 L
144.625 400.13 L
145.22 352.729 L
145.815 405.943 L
146.41 452.988 L
147.005 404.503 L
147.6 488.232 L
148.195 375.269 L
148.79 354.629 L
149.385 430.878 L
149.98 240.495 L
150.575 266.208 L
151.17 439.824 L
151.765 321.776 L
152.36 356.833 L
152.955 457.603 L
153.55 288.884 L
154.145 356.042 L
154.74 334.349 L
155.335 300.655 L
155.93 456.972 L
156.525 402.824 L
157.12 407.772 L
157.715 448.741 L
158.31 265.387 L
158.905 337.802 L
S
GR
GS
[0.75 0 0 0.75 18 230] CT
0 GC
2 LJ
N
158.905 337.802 M
159.5 243.417 L
160.095 287.821 L
160.69 266.336 L
161.285 369.436 L
161.88 384.677 L
162.475 470.474 L
163.07 387.148 L
163.665 342.549 L
164.26 225.102 L
164.855 477.24 L
165.45 418.933 L
166.045 370.236 L
166.64 468.493 L
167.235 228.576 L
167.83 383.026 L
168.425 309.543 L
169.02 316.623 L
169.615 488.833 L
170.21 458.02 L
170.805 224.316 L
171.4 307.822 L
171.995 287.831 L
172.59 277.084 L
173.185 263.238 L
173.78 308.977 L
174.375 458.671 L
174.97 402.246 L
175.565 347.412 L
176.16 438.681 L
176.755 366.006 L
177.35 311.445 L
177.945 409.761 L
178.54 329.215 L
179.135 451.2 L
179.73 412.171 L
180.325 438.868 L
180.92 385.6 L
181.515 320.697 L
182.11 325.791 L
182.705 287.833 L
183.3 419.225 L
183.895 347.62 L
184.49 295.349 L
185.085 278.245 L
185.68 354.219 L
186.275 235.389 L
186.87 344.725 L
187.465 403.265 L
188.06 288.023 L
S
GR
GS
[0.75 0 0 0.75 18 230] CT
0 GC
2 LJ
N
188.06 288.023 M
188.655 465.396 L
189.25 440.857 L
189.845 333.284 L
190.44 240.207 L
191.035 269.743 L
191.63 219.988 L
192.225 281.99 L
192.82 293.368 L
193.415 221.612 L
194.01 388.957 L
194.605 475.05 L
195.2 331.022 L
195.795 452.354 L
196.39 279.523 L
196.985 331.399 L
197.58 249.84 L
198.175 320.23 L
198.77 482.278 L
199.365 295.341 L
199.96 373.391 L
200.555 480.553 L
201.15 376.444 L
201.745 431.226 L
202.34 319.004 L
202.935 477.417 L
203.53 247.043 L
204.125 478.862 L
204.72 351.888 L
205.315 356.745 L
205.91 376.945 L
206.505 256.563 L
207.1 284.227 L
207.695 254.4 L
208.29 385.482 L
208.885 450.401 L
209.48 450.24 L
210.075 354.317 L
210.67 369.642 L
211.265 236.297 L
211.86 334.257 L
212.455 375.262 L
213.05 412.635 L
213.645 468.613 L
214.24 487.202 L
214.835 372.295 L
215.43 320.613 L
216.025 339.443 L
216.62 310.969 L
217.215 293.05 L
S
GR
GS
[0.75 0 0 0.75 18 230] CT
0 GC
2 LJ
N
217.215 293.05 M
217.81 420.218 L
218.405 304.713 L
219 292.106 L
219.595 346.518 L
220.19 351.959 L
220.785 265.744 L
221.38 306.844 L
221.975 209.663 L
222.57 368.84 L
223.165 399.282 L
223.76 432.882 L
224.355 365.248 L
224.95 457.563 L
225.545 293.337 L
226.14 391.216 L
226.735 393.495 L
227.33 385.453 L
227.925 356.599 L
228.52 247.668 L
229.115 258.005 L
229.71 482.904 L
230.305 324.643 L
230.9 474.922 L
231.495 432.888 L
232.09 403.251 L
232.685 447.037 L
233.28 229.325 L
233.875 356.282 L
234.47 345.728 L
235.065 223.4 L
235.66 251.195 L
236.255 237.103 L
236.85 477.617 L
237.445 350.486 L
238.04 256.636 L
238.635 252.363 L
239.23 269.339 L
239.825 382.462 L
240.42 419.183 L
241.015 231.756 L
241.61 388.731 L
242.205 343.56 L
242.8 409.309 L
243.395 383.837 L
243.99 325.806 L
244.585 457.533 L
245.18 345.976 L
245.775 474.626 L
246.37 287.68 L
S
GR
GS
[0.75 0 0 0.75 18 230] CT
0 GC
2 LJ
N
246.37 287.68 M
246.965 485.566 L
247.56 262.901 L
248.155 442.898 L
248.75 85.594 L
249.345 433.752 L
249.94 277.431 L
250.535 289.006 L
251.13 430.846 L
251.725 498.211 L
252.32 384.9 L
252.915 362.188 L
253.51 318.224 L
254.105 215.025 L
254.7 283.462 L
255.295 480.005 L
255.89 392.517 L
256.485 281.679 L
257.08 311.861 L
257.675 299.457 L
258.27 412.276 L
258.865 266.698 L
259.46 501.133 L
260.055 314.212 L
260.65 460.667 L
261.245 277.268 L
261.84 358.568 L
262.435 234.21 L
263.03 474.465 L
263.625 317.093 L
264.22 468.956 L
264.815 353.317 L
265.41 360.198 L
266.005 369.218 L
266.6 259.702 L
267.195 256.493 L
267.79 230.992 L
268.385 265.463 L
268.98 405.819 L
269.575 294.722 L
270.17 252.373 L
270.765 361.872 L
271.36 435.173 L
271.955 267.219 L
272.55 370.998 L
273.145 331.641 L
273.74 221.99 L
274.335 338.917 L
274.93 484.443 L
275.525 317.378 L
S
GR
GS
[0.75 0 0 0.75 18 230] CT
0 GC
2 LJ
N
275.525 317.378 M
276.12 259.437 L
276.715 391.756 L
277.31 330.773 L
277.905 380.535 L
278.5 319.681 L
279.095 237.402 L
279.69 395.16 L
280.285 424.537 L
280.88 263.771 L
281.475 483.818 L
282.07 268.674 L
282.665 325.301 L
283.26 471.102 L
283.855 400.438 L
284.45 425.628 L
285.045 408.403 L
285.64 250.633 L
286.235 325.919 L
286.83 482.813 L
287.425 416.08 L
288.02 319.445 L
288.615 305.791 L
289.21 317.86 L
289.805 249.157 L
290.4 413.355 L
290.995 223.825 L
291.59 361.11 L
292.185 309.387 L
292.78 287.345 L
293.375 268.847 L
293.97 487.811 L
294.565 291.447 L
295.16 308.504 L
295.755 268.333 L
296.35 442.939 L
296.945 440.273 L
297.54 500.69 L
298.135 239.793 L
298.73 228.068 L
299.325 299.09 L
299.92 434.4 L
300.515 451.029 L
301.11 231.193 L
301.705 256.387 L
302.3 249.255 L
302.895 295.013 L
303.49 302.836 L
304.085 435.107 L
304.68 401.54 L
S
GR
GS
[0.75 0 0 0.75 18 230] CT
0 GC
2 LJ
N
304.68 401.54 M
305.275 225.779 L
305.87 374.708 L
306.465 293.787 L
307.06 320.824 L
307.655 382.405 L
308.25 419.413 L
308.845 291.863 L
309.44 297.763 L
310.035 387.15 L
310.63 458.735 L
311.225 404.258 L
311.82 233.868 L
312.415 487.538 L
313.01 368.214 L
313.605 432.742 L
314.2 369.553 L
314.795 377.742 L
315.39 287.49 L
315.985 315.386 L
316.58 223.024 L
317.175 485.271 L
317.77 440.668 L
318.365 408.235 L
318.96 377.094 L
319.555 356.994 L
320.15 485.794 L
320.745 272.471 L
321.34 271.358 L
321.935 384.057 L
322.53 395.229 L
323.125 367.529 L
323.72 412.285 L
324.315 475.453 L
324.91 426.526 L
325.505 410.112 L
326.1 248.19 L
326.695 236.626 L
327.29 370.105 L
327.885 304.696 L
328.48 398.98 L
329.075 254.47 L
329.67 311.479 L
330.265 419.032 L
330.86 282.649 L
331.455 395.375 L
332.05 245.413 L
332.645 377.553 L
333.24 424.301 L
333.835 212.217 L
S
GR
GS
[0.75 0 0 0.75 18 230] CT
0 GC
2 LJ
N
333.835 212.217 M
334.43 451.974 L
335.025 244.369 L
335.62 307.536 L
336.215 229.291 L
336.81 298.718 L
337.405 378.997 L
338 439.836 L
338.595 459.88 L
339.19 428.451 L
339.785 416.082 L
340.38 269.527 L
340.975 358.391 L
341.57 434.435 L
342.165 465.276 L
342.76 424.98 L
343.355 308.062 L
343.95 447.239 L
344.545 267.626 L
345.14 423.052 L
345.735 336.643 L
346.33 362.966 L
346.925 264.606 L
347.52 436.265 L
348.115 312.624 L
348.71 283.353 L
349.305 307.225 L
349.9 336.454 L
350.495 445.957 L
351.09 354.524 L
351.685 354.361 L
352.28 230.992 L
352.875 275.231 L
353.47 391.088 L
354.065 389.465 L
354.66 462.667 L
355.255 279.439 L
355.85 336.644 L
356.445 296.835 L
357.04 436.434 L
357.635 490.199 L
358.23 468.351 L
358.825 257.617 L
359.42 306.414 L
360.015 210.028 L
360.61 264.98 L
361.205 237.938 L
361.8 307.435 L
362.395 347.259 L
362.99 294.199 L
S
GR
GS
[0.75 0 0 0.75 18 230] CT
0 GC
2 LJ
N
362.99 294.199 M
363.585 326.056 L
364.18 255.352 L
364.775 296.516 L
365.37 269.577 L
365.965 302.299 L
366.56 399.859 L
367.155 458.702 L
367.75 231.634 L
368.345 310.333 L
368.94 437.647 L
369.535 435.203 L
370.13 238.737 L
370.725 382.749 L
371.32 358.267 L
371.915 411.479 L
372.51 312.15 L
373.105 256.981 L
373.7 298.459 L
374.295 286.692 L
374.89 328.052 L
375.485 439.856 L
376.08 299.041 L
376.675 331.218 L
377.27 290.778 L
377.865 385.709 L
378.46 319.924 L
379.055 363.789 L
379.65 326.93 L
380.245 295.146 L
380.84 470.28 L
381.435 334.068 L
382.03 385.45 L
382.625 399.882 L
383.22 400.59 L
383.815 231.354 L
384.41 461.108 L
385.005 306.171 L
385.6 443.781 L
386.195 366.905 L
386.79 279.768 L
387.385 466.264 L
387.98 408.31 L
388.575 439.034 L
389.17 490.731 L
389.765 265.867 L
390.36 254.665 L
390.955 386.199 L
391.55 402.761 L
392.145 239.474 L
S
GR
GS
[0.75 0 0 0.75 18 230] CT
0 GC
2 LJ
N
392.145 239.474 M
392.74 441.829 L
393.335 460.378 L
393.93 322.59 L
394.525 373.803 L
395.12 406.907 L
395.715 213.291 L
396.31 445.423 L
396.905 458.81 L
397.5 451.484 L
398.095 468.397 L
398.69 329.095 L
399.285 430.685 L
399.88 238.515 L
400.475 261.074 L
401.07 476.799 L
401.665 306.334 L
402.26 358.305 L
402.855 312.837 L
403.45 326.683 L
404.045 291.393 L
404.64 255.685 L
405.235 406.778 L
405.83 490.405 L
406.425 314.268 L
407.02 496.337 L
407.615 463.324 L
408.21 353.094 L
408.805 337.6 L
409.4 490.016 L
409.995 289.761 L
410.59 262.861 L
411.185 435.035 L
411.78 388.945 L
412.375 314.915 L
412.97 448.765 L
413.565 334.419 L
414.16 338.175 L
414.755 314.181 L
415.35 233.617 L
415.945 304.692 L
416.54 273.449 L
417.135 263.225 L
417.73 271.508 L
418.325 226.21 L
418.92 492.72 L
419.515 436.782 L
420.11 402.314 L
420.705 424.603 L
421.3 441.638 L
S
GR
GS
[0.75 0 0 0.75 18 230] CT
0 GC
2 LJ
N
421.3 441.638 M
421.895 497.307 L
422.49 286.069 L
423.085 287.661 L
423.68 341.164 L
424.275 418.317 L
424.87 295.215 L
425.465 421.029 L
426.06 225.401 L
426.655 414.668 L
427.25 301.885 L
427.845 273.329 L
428.44 296.847 L
429.035 397.455 L
429.63 373.41 L
430.225 455.675 L
430.82 466.011 L
431.415 306.932 L
432.01 279.471 L
432.605 343.937 L
433.2 430.335 L
433.795 464.266 L
434.39 403.471 L
434.985 381.549 L
435.58 352.491 L
436.175 237.956 L
436.77 420.329 L
437.365 229.429 L
437.96 341.91 L
438.555 424.848 L
439.15 360.806 L
439.745 428.657 L
440.34 322.669 L
440.935 367.718 L
441.53 398.011 L
442.125 289.224 L
442.72 265.864 L
443.315 402.248 L
443.91 487.807 L
444.505 380.355 L
445.1 284.21 L
445.695 299.849 L
446.29 335.406 L
446.885 242.445 L
447.48 369.285 L
448.075 493.654 L
448.67 447.757 L
449.265 213.69 L
449.86 306.515 L
450.455 320.785 L
S
GR
GS
[0.75 0 0 0.75 18 230] CT
0 GC
2 LJ
N
450.455 320.785 M
451.05 478.353 L
451.645 496.772 L
452.24 364.384 L
452.835 490.204 L
453.43 352.325 L
454.025 475.04 L
454.62 441.384 L
455.215 288.542 L
455.81 432.487 L
456.405 489.868 L
457 296.64 L
457.595 446.803 L
458.19 446.056 L
458.785 335.2 L
459.38 284.637 L
459.975 206.625 L
460.57 326.985 L
461.165 426.067 L
461.76 328.363 L
462.355 399.147 L
462.95 316.624 L
463.545 397.298 L
464.14 330.909 L
464.735 304.52 L
465.33 445.712 L
465.925 360.718 L
466.52 419.287 L
467.115 276.423 L
467.71 368.918 L
468.305 221.424 L
468.9 333.414 L
469.495 393.99 L
470.09 392.203 L
470.685 458.005 L
471.28 281.874 L
471.875 209.915 L
472.47 420.441 L
473.065 392.695 L
473.66 472.828 L
474.255 448.362 L
474.85 248.099 L
475.445 282.358 L
476.04 435.268 L
476.635 325.508 L
477.23 411.235 L
477.825 469.577 L
478.42 405.439 L
479.015 240.483 L
479.61 240.149 L
S
GR
GS
[0.75 0 0 0.75 18 230] CT
0 GC
2 LJ
N
479.61 240.149 M
480.205 293.002 L
480.8 265.305 L
481.395 459.507 L
481.99 223.164 L
482.585 237.066 L
483.18 371.003 L
483.775 291.749 L
484.37 376.54 L
484.965 332.564 L
485.56 473.383 L
486.155 348.148 L
486.75 468.936 L
487.345 274.469 L
487.94 264.742 L
488.535 264.945 L
489.13 469.513 L
489.725 467.999 L
490.32 286.835 L
490.915 325.834 L
491.51 489.789 L
492.105 375.935 L
492.7 345.034 L
493.295 347.905 L
493.89 482.232 L
494.485 472.516 L
495.08 476.488 L
495.675 341.199 L
496.27 440.04 L
496.865 333.35 L
497.46 227.934 L
498.055 470.67 L
498.65 456.482 L
499.245 263.415 L
499.84 348.683 L
500.435 492.741 L
501.03 392.486 L
501.625 226.903 L
502.22 319.96 L
502.815 199.64 L
503.41 330.963 L
504.005 371.262 L
504.6 416.378 L
505.195 413.777 L
505.79 336.525 L
506.385 477.233 L
506.98 426.409 L
507.575 473.911 L
508.17 294.707 L
508.765 400.293 L
S
GR
GS
[0.75 0 0 0.75 18 230] CT
0 GC
2 LJ
N
508.765 400.293 M
509.36 380.075 L
509.955 449.512 L
510.55 326.251 L
511.145 440.884 L
511.74 268.818 L
512.335 240.309 L
512.93 242.559 L
513.525 357.878 L
514.12 384.06 L
514.715 277.825 L
515.31 281.328 L
515.905 375.349 L
516.5 472.308 L
517.095 352.221 L
517.69 435.527 L
518.285 476.576 L
518.88 312.771 L
519.475 470.98 L
520.07 324.492 L
520.665 369.763 L
521.26 428.257 L
521.855 402.223 L
522.45 210.794 L
523.045 278.593 L
523.64 379.508 L
524.235 423.156 L
524.83 218.572 L
525.425 322.094 L
526.02 419.192 L
526.615 236.087 L
527.21 429.403 L
527.805 319.973 L
528.4 444.921 L
528.995 385.796 L
529.59 268.441 L
530.185 432.116 L
530.78 287.577 L
531.375 392.51 L
531.97 456.792 L
532.565 312.84 L
533.16 238.76 L
533.755 357.48 L
534.35 494.19 L
534.945 248.552 L
535.54 469.505 L
536.135 451.151 L
536.73 376.629 L
537.325 381.234 L
537.92 308.645 L
S
GR
GS
[0.75 0 0 0.75 18 230] CT
0 GC
2 LJ
N
537.92 308.645 M
538.515 485.019 L
539.11 348.762 L
539.705 403.598 L
540.3 431.901 L
540.895 441.569 L
541.49 434.954 L
542.085 332.253 L
542.68 335.885 L
543.275 488.278 L
543.87 416.021 L
544.465 338.307 L
545.06 426.767 L
545.655 451.064 L
546.25 282.542 L
546.845 369.565 L
547.44 425.865 L
548.035 427.817 L
548.63 348.827 L
549.225 315.672 L
549.82 384.265 L
550.415 216.021 L
551.01 261.33 L
551.605 318.344 L
552.2 460.391 L
552.795 340.622 L
553.39 412.037 L
553.985 400.896 L
554.58 362.797 L
555.175 347.812 L
555.77 250.326 L
556.365 389.702 L
556.96 340.559 L
557.555 385.414 L
558.15 388.765 L
558.745 444.237 L
559.34 479.572 L
559.935 333.175 L
560.53 232.946 L
561.125 321.064 L
561.72 503.708 L
562.315 259.262 L
562.91 366.725 L
563.505 312.938 L
564.1 303.721 L
564.695 254.143 L
565.29 315.236 L
565.885 308.382 L
566.48 486.929 L
567.075 234.737 L
S
GR
GS
[0.75 0 0 0.75 18 230] CT
0 GC
2 LJ
N
567.075 234.737 M
567.67 469.159 L
568.265 485.003 L
568.86 398.041 L
569.455 456.352 L
570.05 368.342 L
570.645 444.994 L
571.24 405.603 L
571.835 460.303 L
572.43 425.68 L
573.025 446.652 L
573.62 237.863 L
574.215 263.76 L
574.81 383.635 L
575.405 370.017 L
576 490.033 L
576.595 462.031 L
577.19 234.374 L
577.785 463.975 L
578.38 275.655 L
578.975 411.967 L
579.57 432.386 L
580.165 432.175 L
580.76 261.003 L
581.355 325.42 L
581.95 333.859 L
582.545 278.027 L
583.14 421.356 L
583.735 393.85 L
584.33 470.081 L
584.925 305.47 L
585.52 457.65 L
586.115 360.671 L
586.71 304.696 L
587.305 267.184 L
587.9 273.077 L
588.495 416.501 L
589.09 256.274 L
589.685 285.38 L
590.28 425.316 L
590.875 253.989 L
591.47 300.582 L
592.065 245.811 L
592.66 458.982 L
593.255 446.522 L
593.85 230.259 L
594.445 316.304 L
595.04 265.993 L
595.635 422.385 L
596.23 354.925 L
S
GR
GS
[0.75 0 0 0.75 18 230] CT
0 GC
2 LJ
N
596.23 354.925 M
596.825 376.878 L
597.42 274.58 L
598.015 370.783 L
598.61 484.854 L
599.205 312.308 L
599.8 285.92 L
600.395 252.093 L
600.99 462.176 L
601.585 222.954 L
602.18 353.689 L
602.775 328.76 L
603.37 293.159 L
603.965 244.779 L
604.56 385.826 L
605.155 314.729 L
605.75 463.887 L
606.345 271.174 L
606.94 279.721 L
607.535 443.355 L
608.13 439.554 L
608.725 394.209 L
609.32 445.419 L
609.915 262.586 L
610.51 296.377 L
611.105 466.176 L
611.7 428.78 L
612.295 226.507 L
612.89 435.447 L
613.485 312.727 L
614.08 265.499 L
614.675 244.788 L
615.27 235.405 L
615.865 322.502 L
616.46 402.379 L
617.055 261.451 L
617.65 402.133 L
618.245 219.313 L
618.84 243.019 L
619.435 344.118 L
620.03 272.532 L
620.625 236.078 L
621.22 437.642 L
621.815 464.11 L
622.41 247.674 L
623.005 480.193 L
623.6 266.836 L
624.195 367.195 L
624.79 251.615 L
625.385 247.746 L
S
GR
GS
[0.75 0 0 0.75 18 230] CT
0 GC
2 LJ
N
625.385 247.746 M
625.98 260.884 L
626.575 456.491 L
627.17 326.908 L
627.765 345.284 L
628.36 488.567 L
628.955 245.652 L
629.55 395.665 L
630.145 461.211 L
630.74 326.136 L
631.335 329.04 L
631.93 421.223 L
632.525 348.057 L
633.12 251.159 L
633.715 363.951 L
634.31 460.172 L
634.905 403.997 L
635.5 457.436 L
636.095 382.11 L
636.69 446.15 L
637.285 236.809 L
637.88 235.772 L
638.475 395.277 L
639.07 294.908 L
639.665 377.394 L
640.26 226.288 L
640.855 440.982 L
641.45 290.889 L
642.045 361.183 L
642.64 383.781 L
643.235 456.696 L
643.83 299.434 L
644.425 295.022 L
645.02 387.322 L
645.615 435.506 L
646.21 360.37 L
646.805 240.793 L
647.4 285.31 L
647.995 401.168 L
648.59 357.008 L
649.185 226.385 L
649.78 246.054 L
650.375 491.002 L
650.97 378.528 L
651.565 212.805 L
652.16 294.485 L
652.755 419.289 L
653.35 379.19 L
653.945 489.994 L
654.54 338.51 L
S
GR
GS
[0.75 0 0 0.75 18 230] CT
0 GC
2 LJ
N
654.54 338.51 M
655.135 338.036 L
655.73 449.271 L
656.325 404.135 L
656.92 407.285 L
657.515 382.168 L
658.11 477.272 L
658.705 427.687 L
659.3 395.3 L
659.895 238.242 L
660.49 420.506 L
661.085 424.253 L
661.68 394.859 L
662.275 320.286 L
662.87 254.922 L
663.465 423.93 L
664.06 268.719 L
664.655 278.401 L
665.25 256.985 L
665.845 245.296 L
666.44 412.816 L
667.035 285.658 L
667.63 383.86 L
668.225 412.89 L
668.82 335.501 L
669.415 461.281 L
670.01 467.261 L
670.605 453.385 L
671.2 307.266 L
671.795 253.857 L
672.39 278.344 L
672.985 274.405 L
673.58 309.638 L
674.175 289.63 L
674.77 263.523 L
675.365 256.242 L
675.96 277.534 L
676.555 281.225 L
677.15 391.802 L
677.745 328.437 L
678.34 425.538 L
678.935 468.351 L
679.53 301.476 L
680.125 285.422 L
680.72 469.855 L
681.315 267.419 L
681.91 296.364 L
682.505 244.204 L
683.1 263.838 L
683.695 442.259 L
S
GR
GS
[0.75 0 0 0.75 18 230] CT
0 GC
2 LJ
N
683.695 442.259 M
684.29 461.395 L
684.885 254.474 L
685.48 252.599 L
686.075 303 L
686.67 264.818 L
687.265 255.422 L
687.86 429.101 L
688.455 455.277 L
689.05 427.616 L
689.645 277.226 L
690.24 281.378 L
690.835 286.191 L
691.43 375.151 L
692.025 486.603 L
692.62 233.847 L
693.215 355.951 L
693.81 245.086 L
694.405 477.302 L
695 283.024 L
S
GR
GS
[0.75 0 0 0.75 316.12527 260.18751] CT
0 GC
/Helvetica-Bold 15 F
GS
[1 0 0 1 0 0] CT
-274 -4 moveto 
1 -1 scale
(Original<->Extracted Watermark Correlation Coefficents Alpha:0.1 Position:2) t 
GR
GR
showpage
%%Trailer
%%BoundingBox: 79 210 550 596
%%Pages: 1
%%EOF
