%!PS-Adobe-3.0
%%Creator: (MATLAB, The Mathworks, Inc. Version 8.5.0.197613 \(R2015a\). Operating System: Windows 7)
%%Title: ./output/WmIm_01_2/unrelatedWatermarkCorrelationCoefficient.eps
%%CreationDate: 2015-11-04T23:49:10
%%Pages: (atend)
%%BoundingBox: (atend)
%%LanguageLevel: 3
%%EndComments
%%BeginDefaults
%%EndDefaults
%%BeginProlog
%%EndProlog
%%BeginSetup
%%BeginResource: procset (Apache XML Graphics Std ProcSet) 1.2 0
%%Version: 1.2 0
%%Copyright: (Copyright 2001-2003,2010 The Apache Software Foundation. License terms: http://www.apache.org/licenses/LICENSE-2.0)
/bd{bind def}bind def
/ld{load def}bd
/GR/grestore ld
/M/moveto ld
/LJ/setlinejoin ld
/C/curveto ld
/f/fill ld
/LW/setlinewidth ld
/GC/setgray ld
/t/show ld
/N/newpath ld
/CT/concat ld
/cp/closepath ld
/S/stroke ld
/L/lineto ld
/CC/setcmykcolor ld
/A/ashow ld
/GS/gsave ld
/RC/setrgbcolor ld
/RM/rmoveto ld
/ML/setmiterlimit ld
/re {4 2 roll M
1 index 0 rlineto
0 exch rlineto
neg 0 rlineto
cp } bd
/_ctm matrix def
/_tm matrix def
/BT { _ctm currentmatrix pop matrix _tm copy pop 0 0 moveto } bd
/ET { _ctm setmatrix } bd
/iTm { _ctm setmatrix _tm concat } bd
/Tm { _tm astore pop iTm 0 0 moveto } bd
/ux 0.0 def
/uy 0.0 def
/F {
  /Tp exch def
  /Tf exch def
  Tf findfont Tp scalefont setfont
  /cf Tf def  /cs Tp def
} bd
/ULS {currentpoint /uy exch def /ux exch def} bd
/ULE {
  /Tcx currentpoint pop def
  gsave
  newpath
  cf findfont cs scalefont dup
  /FontMatrix get 0 get /Ts exch def /FontInfo get dup
  /UnderlinePosition get Ts mul /To exch def
  /UnderlineThickness get Ts mul /Tt exch def
  ux uy To add moveto  Tcx uy To add lineto
  Tt setlinewidth stroke
  grestore
} bd
/OLE {
  /Tcx currentpoint pop def
  gsave
  newpath
  cf findfont cs scalefont dup
  /FontMatrix get 0 get /Ts exch def /FontInfo get dup
  /UnderlinePosition get Ts mul /To exch def
  /UnderlineThickness get Ts mul /Tt exch def
  ux uy To add cs add moveto Tcx uy To add cs add lineto
  Tt setlinewidth stroke
  grestore
} bd
/SOE {
  /Tcx currentpoint pop def
  gsave
  newpath
  cf findfont cs scalefont dup
  /FontMatrix get 0 get /Ts exch def /FontInfo get dup
  /UnderlinePosition get Ts mul /To exch def
  /UnderlineThickness get Ts mul /Tt exch def
  ux uy To add cs 10 mul 26 idiv add moveto Tcx uy To add cs 10 mul 26 idiv add lineto
  Tt setlinewidth stroke
  grestore
} bd
/QT {
/Y22 exch store
/X22 exch store
/Y21 exch store
/X21 exch store
currentpoint
/Y21 load 2 mul add 3 div exch
/X21 load 2 mul add 3 div exch
/X21 load 2 mul /X22 load add 3 div
/Y21 load 2 mul /Y22 load add 3 div
/X22 load /Y22 load curveto
} bd
/SSPD {
dup length /d exch dict def
{
/v exch def
/k exch def
currentpagedevice k known {
/cpdv currentpagedevice k get def
v cpdv ne {
/upd false def
/nullv v type /nulltype eq def
/nullcpdv cpdv type /nulltype eq def
nullv nullcpdv or
{
/upd true def
} {
/sametype v type cpdv type eq def
sametype {
v type /arraytype eq {
/vlen v length def
/cpdvlen cpdv length def
vlen cpdvlen eq {
0 1 vlen 1 sub {
/i exch def
/obj v i get def
/cpdobj cpdv i get def
obj cpdobj ne {
/upd true def
exit
} if
} for
} {
/upd true def
} ifelse
} {
v type /dicttype eq {
v {
/dv exch def
/dk exch def
/cpddv cpdv dk get def
dv cpddv ne {
/upd true def
exit
} if
} forall
} {
/upd true def
} ifelse
} ifelse
} if
} ifelse
upd true eq {
d k v put
} if
} if
} if
} forall
d length 0 gt {
d setpagedevice
} if
} bd
%%EndResource
%%BeginResource: procset (Apache XML Graphics EPS ProcSet) 1.0 0
%%Version: 1.0 0
%%Copyright: (Copyright 2002-2003 The Apache Software Foundation. License terms: http://www.apache.org/licenses/LICENSE-2.0)
/BeginEPSF { %def
/b4_Inc_state save def         % Save state for cleanup
/dict_count countdictstack def % Count objects on dict stack
/op_count count 1 sub def      % Count objects on operand stack
userdict begin                 % Push userdict on dict stack
/showpage { } def              % Redefine showpage, { } = null proc
0 setgray 0 setlinecap         % Prepare graphics state
1 setlinewidth 0 setlinejoin
10 setmiterlimit [ ] 0 setdash newpath
/languagelevel where           % If level not equal to 1 then
{pop languagelevel             % set strokeadjust and
1 ne                           % overprint to their defaults.
{false setstrokeadjust false setoverprint
} if
} if
} bd
/EndEPSF { %def
count op_count sub {pop} repeat            % Clean up stacks
countdictstack dict_count sub {end} repeat
b4_Inc_state restore
} bd
%%EndResource
%FOPBeginFontDict
%%IncludeResource: font Courier-Bold
%%IncludeResource: font Helvetica
%%IncludeResource: font Courier-BoldOblique
%%IncludeResource: font Courier-Oblique
%%IncludeResource: font Times-Roman
%%IncludeResource: font Helvetica-BoldOblique
%%IncludeResource: font Helvetica-Bold
%%IncludeResource: font Helvetica-Oblique
%%IncludeResource: font Times-BoldItalic
%%IncludeResource: font Courier
%%IncludeResource: font Times-Italic
%%IncludeResource: font Times-Bold
%%IncludeResource: font Symbol
%%IncludeResource: font ZapfDingbats
%FOPEndFontDict
%%BeginResource: encoding WinAnsiEncoding
/WinAnsiEncoding [
/.notdef /.notdef /.notdef /.notdef /.notdef
/.notdef /.notdef /.notdef /.notdef /.notdef
/.notdef /.notdef /.notdef /.notdef /.notdef
/.notdef /.notdef /.notdef /.notdef /.notdef
/.notdef /.notdef /.notdef /.notdef /.notdef
/.notdef /.notdef /.notdef /.notdef /.notdef
/.notdef /.notdef /space /exclam /quotedbl
/numbersign /dollar /percent /ampersand /quotesingle
/parenleft /parenright /asterisk /plus /comma
/hyphen /period /slash /zero /one
/two /three /four /five /six
/seven /eight /nine /colon /semicolon
/less /equal /greater /question /at
/A /B /C /D /E
/F /G /H /I /J
/K /L /M /N /O
/P /Q /R /S /T
/U /V /W /X /Y
/Z /bracketleft /backslash /bracketright /asciicircum
/underscore /quoteleft /a /b /c
/d /e /f /g /h
/i /j /k /l /m
/n /o /p /q /r
/s /t /u /v /w
/x /y /z /braceleft /bar
/braceright /asciitilde /bullet /Euro /bullet
/quotesinglbase /florin /quotedblbase /ellipsis /dagger
/daggerdbl /circumflex /perthousand /Scaron /guilsinglleft
/OE /bullet /Zcaron /bullet /bullet
/quoteleft /quoteright /quotedblleft /quotedblright /bullet
/endash /emdash /asciitilde /trademark /scaron
/guilsinglright /oe /bullet /zcaron /Ydieresis
/space /exclamdown /cent /sterling /currency
/yen /brokenbar /section /dieresis /copyright
/ordfeminine /guillemotleft /logicalnot /sfthyphen /registered
/macron /degree /plusminus /twosuperior /threesuperior
/acute /mu /paragraph /middot /cedilla
/onesuperior /ordmasculine /guillemotright /onequarter /onehalf
/threequarters /questiondown /Agrave /Aacute /Acircumflex
/Atilde /Adieresis /Aring /AE /Ccedilla
/Egrave /Eacute /Ecircumflex /Edieresis /Igrave
/Iacute /Icircumflex /Idieresis /Eth /Ntilde
/Ograve /Oacute /Ocircumflex /Otilde /Odieresis
/multiply /Oslash /Ugrave /Uacute /Ucircumflex
/Udieresis /Yacute /Thorn /germandbls /agrave
/aacute /acircumflex /atilde /adieresis /aring
/ae /ccedilla /egrave /eacute /ecircumflex
/edieresis /igrave /iacute /icircumflex /idieresis
/eth /ntilde /ograve /oacute /ocircumflex
/otilde /odieresis /divide /oslash /ugrave
/uacute /ucircumflex /udieresis /yacute /thorn
/ydieresis
] def
%%EndResource
%FOPBeginFontReencode
/Courier-Bold findfont
dup length dict begin
  {1 index /FID ne {def} {pop pop} ifelse} forall
  /Encoding WinAnsiEncoding def
  currentdict
end
/Courier-Bold exch definefont pop
/Helvetica findfont
dup length dict begin
  {1 index /FID ne {def} {pop pop} ifelse} forall
  /Encoding WinAnsiEncoding def
  currentdict
end
/Helvetica exch definefont pop
/Courier-BoldOblique findfont
dup length dict begin
  {1 index /FID ne {def} {pop pop} ifelse} forall
  /Encoding WinAnsiEncoding def
  currentdict
end
/Courier-BoldOblique exch definefont pop
/Courier-Oblique findfont
dup length dict begin
  {1 index /FID ne {def} {pop pop} ifelse} forall
  /Encoding WinAnsiEncoding def
  currentdict
end
/Courier-Oblique exch definefont pop
/Times-Roman findfont
dup length dict begin
  {1 index /FID ne {def} {pop pop} ifelse} forall
  /Encoding WinAnsiEncoding def
  currentdict
end
/Times-Roman exch definefont pop
/Helvetica-BoldOblique findfont
dup length dict begin
  {1 index /FID ne {def} {pop pop} ifelse} forall
  /Encoding WinAnsiEncoding def
  currentdict
end
/Helvetica-BoldOblique exch definefont pop
/Helvetica-Bold findfont
dup length dict begin
  {1 index /FID ne {def} {pop pop} ifelse} forall
  /Encoding WinAnsiEncoding def
  currentdict
end
/Helvetica-Bold exch definefont pop
/Helvetica-Oblique findfont
dup length dict begin
  {1 index /FID ne {def} {pop pop} ifelse} forall
  /Encoding WinAnsiEncoding def
  currentdict
end
/Helvetica-Oblique exch definefont pop
/Times-BoldItalic findfont
dup length dict begin
  {1 index /FID ne {def} {pop pop} ifelse} forall
  /Encoding WinAnsiEncoding def
  currentdict
end
/Times-BoldItalic exch definefont pop
/Courier findfont
dup length dict begin
  {1 index /FID ne {def} {pop pop} ifelse} forall
  /Encoding WinAnsiEncoding def
  currentdict
end
/Courier exch definefont pop
/Times-Italic findfont
dup length dict begin
  {1 index /FID ne {def} {pop pop} ifelse} forall
  /Encoding WinAnsiEncoding def
  currentdict
end
/Times-Italic exch definefont pop
/Times-Bold findfont
dup length dict begin
  {1 index /FID ne {def} {pop pop} ifelse} forall
  /Encoding WinAnsiEncoding def
  currentdict
end
/Times-Bold exch definefont pop
%FOPEndFontReencode
%%EndSetup
%%Page: 1 1
%%PageBoundingBox: 0 0 595 842
%%BeginPageSetup
<<
/PageSize [595 842]
/ImagingBBox null
>> setpagedevice
[1 0 0 -1 0 842] CT
%%EndPageSetup
GS
[0.75 0 0 0.75 18 230] CT
0.997 GC
N
0 0 768 576 re
f
GR
GS
[0.75 0 0 0.75 18 230] CT
0.997 GC
N
0 0 768 576 re
f
GR
GS
[0.75 0 0 0.75 18 230] CT
0.997 GC
N
100 513 M
695 513 L
695 43 L
100 43 L
cp
f
GR
GS
[0.75 0 0 0.75 18 230] CT
0 GC
2 setlinecap
10.0 ML
N
100 513 M
695 513 L
S
GR
GS
[0.75 0 0 0.75 18 230] CT
0 GC
2 setlinecap
10.0 ML
N
100 43 M
695 43 L
S
GR
GS
[0.75 0 0 0.75 18 230] CT
0 GC
2 setlinecap
10.0 ML
N
100 513 M
100 507.05 L
S
GR
GS
[0.75 0 0 0.75 18 230] CT
0 GC
2 setlinecap
10.0 ML
N
159.5 513 M
159.5 507.05 L
S
GR
GS
[0.75 0 0 0.75 18 230] CT
0 GC
2 setlinecap
10.0 ML
N
219 513 M
219 507.05 L
S
GR
GS
[0.75 0 0 0.75 18 230] CT
0 GC
2 setlinecap
10.0 ML
N
278.5 513 M
278.5 507.05 L
S
GR
GS
[0.75 0 0 0.75 18 230] CT
0 GC
2 setlinecap
10.0 ML
N
338 513 M
338 507.05 L
S
GR
GS
[0.75 0 0 0.75 18 230] CT
0 GC
2 setlinecap
10.0 ML
N
397.5 513 M
397.5 507.05 L
S
GR
GS
[0.75 0 0 0.75 18 230] CT
0 GC
2 setlinecap
10.0 ML
N
457 513 M
457 507.05 L
S
GR
GS
[0.75 0 0 0.75 18 230] CT
0 GC
2 setlinecap
10.0 ML
N
516.5 513 M
516.5 507.05 L
S
GR
GS
[0.75 0 0 0.75 18 230] CT
0 GC
2 setlinecap
10.0 ML
N
576 513 M
576 507.05 L
S
GR
GS
[0.75 0 0 0.75 18 230] CT
0 GC
2 setlinecap
10.0 ML
N
635.5 513 M
635.5 507.05 L
S
GR
GS
[0.75 0 0 0.75 18 230] CT
0 GC
2 setlinecap
10.0 ML
N
695 513 M
695 507.05 L
S
GR
GS
[0.75 0 0 0.75 18 230] CT
0 GC
2 setlinecap
10.0 ML
N
100 43 M
100 48.95 L
S
GR
GS
[0.75 0 0 0.75 18 230] CT
0 GC
2 setlinecap
10.0 ML
N
159.5 43 M
159.5 48.95 L
S
GR
GS
[0.75 0 0 0.75 18 230] CT
0 GC
2 setlinecap
10.0 ML
N
219 43 M
219 48.95 L
S
GR
GS
[0.75 0 0 0.75 18 230] CT
0 GC
2 setlinecap
10.0 ML
N
278.5 43 M
278.5 48.95 L
S
GR
GS
[0.75 0 0 0.75 18 230] CT
0 GC
2 setlinecap
10.0 ML
N
338 43 M
338 48.95 L
S
GR
GS
[0.75 0 0 0.75 18 230] CT
0 GC
2 setlinecap
10.0 ML
N
397.5 43 M
397.5 48.95 L
S
GR
GS
[0.75 0 0 0.75 18 230] CT
0 GC
2 setlinecap
10.0 ML
N
457 43 M
457 48.95 L
S
GR
GS
[0.75 0 0 0.75 18 230] CT
0 GC
2 setlinecap
10.0 ML
N
516.5 43 M
516.5 48.95 L
S
GR
GS
[0.75 0 0 0.75 18 230] CT
0 GC
2 setlinecap
10.0 ML
N
576 43 M
576 48.95 L
S
GR
GS
[0.75 0 0 0.75 18 230] CT
0 GC
2 setlinecap
10.0 ML
N
635.5 43 M
635.5 48.95 L
S
GR
GS
[0.75 0 0 0.75 18 230] CT
0 GC
2 setlinecap
10.0 ML
N
695 43 M
695 48.95 L
S
GR
GS
[0.75 0 0 0.75 93 618.74998] CT
0 GC
/Helvetica 13 F
GS
[1 0 0 1 0 0] CT
-4 14 moveto 
1 -1 scale
(0) t 
GR
GR
GS
[0.75 0 0 0.75 137.625 618.74998] CT
0 GC
/Helvetica 13 F
GS
[1 0 0 1 0 0] CT
-11 14 moveto 
1 -1 scale
(100) t 
GR
GR
GS
[0.75 0 0 0.75 182.25 618.74998] CT
0 GC
/Helvetica 13 F
GS
[1 0 0 1 0 0] CT
-11 14 moveto 
1 -1 scale
(200) t 
GR
GR
GS
[0.75 0 0 0.75 226.875 618.74998] CT
0 GC
/Helvetica 13 F
GS
[1 0 0 1 0 0] CT
-11 14 moveto 
1 -1 scale
(300) t 
GR
GR
GS
[0.75 0 0 0.75 271.5 618.74998] CT
0 GC
/Helvetica 13 F
GS
[1 0 0 1 0 0] CT
-11 14 moveto 
1 -1 scale
(400) t 
GR
GR
GS
[0.75 0 0 0.75 316.125 618.74998] CT
0 GC
/Helvetica 13 F
GS
[1 0 0 1 0 0] CT
-11 14 moveto 
1 -1 scale
(500) t 
GR
GR
GS
[0.75 0 0 0.75 360.75 618.74998] CT
0 GC
/Helvetica 13 F
GS
[1 0 0 1 0 0] CT
-11 14 moveto 
1 -1 scale
(600) t 
GR
GR
GS
[0.75 0 0 0.75 405.375 618.74998] CT
0 GC
/Helvetica 13 F
GS
[1 0 0 1 0 0] CT
-11 14 moveto 
1 -1 scale
(700) t 
GR
GR
GS
[0.75 0 0 0.75 450 618.74998] CT
0 GC
/Helvetica 13 F
GS
[1 0 0 1 0 0] CT
-11 14 moveto 
1 -1 scale
(800) t 
GR
GR
GS
[0.75 0 0 0.75 494.625 618.74998] CT
0 GC
/Helvetica 13 F
GS
[1 0 0 1 0 0] CT
-11 14 moveto 
1 -1 scale
(900) t 
GR
GR
GS
[0.75 0 0 0.75 539.25 618.74998] CT
0 GC
/Helvetica 13 F
GS
[1 0 0 1 0 0] CT
-14.5 14 moveto 
1 -1 scale
(1000) t 
GR
GR
GS
[0.75 0 0 0.75 18 230] CT
0 GC
2 setlinecap
10.0 ML
N
100 513 M
100 43 L
S
GR
GS
[0.75 0 0 0.75 18 230] CT
0 GC
2 setlinecap
10.0 ML
N
695 513 M
695 43 L
S
GR
GS
[0.75 0 0 0.75 18 230] CT
0 GC
2 setlinecap
10.0 ML
N
100 513 M
105.95 513 L
S
GR
GS
[0.75 0 0 0.75 18 230] CT
0 GC
2 setlinecap
10.0 ML
N
100 460.778 M
105.95 460.778 L
S
GR
GS
[0.75 0 0 0.75 18 230] CT
0 GC
2 setlinecap
10.0 ML
N
100 408.556 M
105.95 408.556 L
S
GR
GS
[0.75 0 0 0.75 18 230] CT
0 GC
2 setlinecap
10.0 ML
N
100 356.333 M
105.95 356.333 L
S
GR
GS
[0.75 0 0 0.75 18 230] CT
0 GC
2 setlinecap
10.0 ML
N
100 304.111 M
105.95 304.111 L
S
GR
GS
[0.75 0 0 0.75 18 230] CT
0 GC
2 setlinecap
10.0 ML
N
100 251.889 M
105.95 251.889 L
S
GR
GS
[0.75 0 0 0.75 18 230] CT
0 GC
2 setlinecap
10.0 ML
N
100 199.667 M
105.95 199.667 L
S
GR
GS
[0.75 0 0 0.75 18 230] CT
0 GC
2 setlinecap
10.0 ML
N
100 147.444 M
105.95 147.444 L
S
GR
GS
[0.75 0 0 0.75 18 230] CT
0 GC
2 setlinecap
10.0 ML
N
100 95.222 M
105.95 95.222 L
S
GR
GS
[0.75 0 0 0.75 18 230] CT
0 GC
2 setlinecap
10.0 ML
N
100 43 M
105.95 43 L
S
GR
GS
[0.75 0 0 0.75 18 230] CT
0 GC
2 setlinecap
10.0 ML
N
695 513 M
689.05 513 L
S
GR
GS
[0.75 0 0 0.75 18 230] CT
0 GC
2 setlinecap
10.0 ML
N
695 460.778 M
689.05 460.778 L
S
GR
GS
[0.75 0 0 0.75 18 230] CT
0 GC
2 setlinecap
10.0 ML
N
695 408.556 M
689.05 408.556 L
S
GR
GS
[0.75 0 0 0.75 18 230] CT
0 GC
2 setlinecap
10.0 ML
N
695 356.333 M
689.05 356.333 L
S
GR
GS
[0.75 0 0 0.75 18 230] CT
0 GC
2 setlinecap
10.0 ML
N
695 304.111 M
689.05 304.111 L
S
GR
GS
[0.75 0 0 0.75 18 230] CT
0 GC
2 setlinecap
10.0 ML
N
695 251.889 M
689.05 251.889 L
S
GR
GS
[0.75 0 0 0.75 18 230] CT
0 GC
2 setlinecap
10.0 ML
N
695 199.667 M
689.05 199.667 L
S
GR
GS
[0.75 0 0 0.75 18 230] CT
0 GC
2 setlinecap
10.0 ML
N
695 147.444 M
689.05 147.444 L
S
GR
GS
[0.75 0 0 0.75 18 230] CT
0 GC
2 setlinecap
10.0 ML
N
695 95.222 M
689.05 95.222 L
S
GR
GS
[0.75 0 0 0.75 18 230] CT
0 GC
2 setlinecap
10.0 ML
N
695 43 M
689.05 43 L
S
GR
GS
[0.75 0 0 0.75 89 614.75] CT
0 GC
/Helvetica 13 F
GS
[1 0 0 1 0 0] CT
-12 5.5 moveto 
1 -1 scale
(-2) t 
GR
GR
GS
[0.75 0 0 0.75 89 575.58333] CT
0 GC
/Helvetica 13 F
GS
[1 0 0 1 0 0] CT
-23 5.5 moveto 
1 -1 scale
(-1.5) t 
GR
GR
GS
[0.75 0 0 0.75 89 536.41666] CT
0 GC
/Helvetica 13 F
GS
[1 0 0 1 0 0] CT
-12 5.5 moveto 
1 -1 scale
(-1) t 
GR
GR
GS
[0.75 0 0 0.75 89 497.25001] CT
0 GC
/Helvetica 13 F
GS
[1 0 0 1 0 0] CT
-23 5.5 moveto 
1 -1 scale
(-0.5) t 
GR
GR
GS
[0.75 0 0 0.75 89 458.08334] CT
0 GC
/Helvetica 13 F
GS
[1 0 0 1 0 0] CT
-8 5.5 moveto 
1 -1 scale
(0) t 
GR
GR
GS
[0.75 0 0 0.75 89 418.91666] CT
0 GC
/Helvetica 13 F
GS
[1 0 0 1 0 0] CT
-19 5.5 moveto 
1 -1 scale
(0.5) t 
GR
GR
GS
[0.75 0 0 0.75 89 379.75] CT
0 GC
/Helvetica 13 F
GS
[1 0 0 1 0 0] CT
-8 5.5 moveto 
1 -1 scale
(1) t 
GR
GR
GS
[0.75 0 0 0.75 89 340.58333] CT
0 GC
/Helvetica 13 F
GS
[1 0 0 1 0 0] CT
-19 5.5 moveto 
1 -1 scale
(1.5) t 
GR
GR
GS
[0.75 0 0 0.75 89 301.41667] CT
0 GC
/Helvetica 13 F
GS
[1 0 0 1 0 0] CT
-8 5.5 moveto 
1 -1 scale
(2) t 
GR
GR
GS
[0.75 0 0 0.75 89 262.25] CT
0 GC
/Helvetica 13 F
GS
[1 0 0 1 0 0] CT
-19 5.5 moveto 
1 -1 scale
(2.5) t 
GR
GR
GS
[0.75 0 0 0.75 18 230] CT
0 GC
2 LJ
N
100.595 429.715 M
101.19 300.617 L
101.785 396.693 L
102.38 330.489 L
102.975 355.338 L
103.57 284.137 L
104.165 272.66 L
104.76 373.119 L
105.355 351.678 L
105.95 267.822 L
106.545 369.71 L
107.14 152.997 L
107.735 122.237 L
108.33 388.898 L
108.925 353.823 L
109.52 469.349 L
110.115 466.975 L
110.71 270.602 L
111.305 132.171 L
111.9 348.356 L
112.495 460.802 L
113.09 215.991 L
113.685 156.051 L
114.28 110.502 L
114.875 439.41 L
115.47 296.184 L
116.065 393.218 L
116.66 449.787 L
117.255 280.891 L
117.85 361.195 L
118.445 268.919 L
119.04 225.363 L
119.635 251.851 L
120.23 360.863 L
120.825 210.564 L
121.42 418.273 L
122.015 450.671 L
122.61 298.243 L
123.205 412.462 L
123.8 248.619 L
124.395 397.425 L
124.99 412.399 L
125.585 199.851 L
126.18 433.561 L
126.775 455.805 L
127.37 156.54 L
127.965 375.302 L
128.56 466.21 L
129.155 421.468 L
129.75 171.758 L
S
GR
GS
[0.75 0 0 0.75 18 230] CT
0 GC
2 LJ
N
129.75 171.758 M
130.345 404.544 L
130.94 248.758 L
131.535 202.333 L
132.13 165.566 L
132.725 253.446 L
133.32 196.172 L
133.915 123.892 L
134.51 431.703 L
135.105 293.063 L
135.7 249.41 L
136.295 413.995 L
136.89 439.72 L
137.485 318.204 L
138.08 310.53 L
138.675 326.785 L
139.27 459.814 L
139.865 252.767 L
140.46 400.565 L
141.055 397.472 L
141.65 218.141 L
142.245 190.251 L
142.84 150.014 L
143.435 199.381 L
144.03 327.298 L
144.625 362.506 L
145.22 299.306 L
145.815 370.257 L
146.41 432.984 L
147.005 368.337 L
147.6 479.975 L
148.195 329.359 L
148.79 301.838 L
149.385 403.504 L
149.98 149.66 L
150.575 183.944 L
151.17 415.432 L
151.765 258.035 L
152.36 304.777 L
152.955 439.137 L
153.55 214.178 L
154.145 303.723 L
154.74 274.799 L
155.335 229.874 L
155.93 438.297 L
156.525 366.098 L
157.12 372.696 L
157.715 427.321 L
158.31 182.85 L
158.905 279.402 L
S
GR
GS
[0.75 0 0 0.75 18 230] CT
0 GC
2 LJ
N
158.905 279.402 M
159.5 153.555 L
160.095 212.761 L
160.69 184.115 L
161.285 321.581 L
161.88 341.903 L
162.475 456.299 L
163.07 345.197 L
163.665 285.733 L
164.26 129.136 L
164.855 465.32 L
165.45 387.577 L
166.045 322.648 L
166.64 453.658 L
167.235 133.768 L
167.83 339.701 L
168.425 241.724 L
169.02 251.163 L
169.615 480.777 L
170.21 439.693 L
170.805 128.087 L
171.4 239.429 L
171.995 212.774 L
172.59 198.445 L
173.185 179.983 L
173.78 240.969 L
174.375 440.562 L
174.97 365.328 L
175.565 292.216 L
176.16 413.908 L
176.755 317.009 L
177.35 244.26 L
177.945 375.348 L
178.54 267.953 L
179.135 430.601 L
179.73 378.561 L
180.325 414.157 L
180.92 343.133 L
181.515 256.597 L
182.11 263.389 L
182.705 212.778 L
183.3 387.966 L
183.895 292.493 L
184.49 222.799 L
185.085 199.994 L
185.68 301.292 L
186.275 142.852 L
186.87 288.634 L
187.465 366.686 L
188.06 213.031 L
S
GR
GS
[0.75 0 0 0.75 18 230] CT
0 GC
2 LJ
N
188.06 213.031 M
188.655 449.529 L
189.25 416.809 L
189.845 273.379 L
190.44 149.277 L
191.035 188.658 L
191.63 122.318 L
192.225 204.986 L
192.82 220.158 L
193.415 124.483 L
194.01 347.609 L
194.605 462.4 L
195.2 270.362 L
195.795 432.139 L
196.39 201.697 L
196.985 270.865 L
197.58 162.12 L
198.175 255.973 L
198.77 472.037 L
199.365 222.788 L
199.96 326.855 L
200.555 469.737 L
201.15 330.926 L
201.745 403.968 L
202.34 254.339 L
202.935 465.555 L
203.53 158.39 L
204.125 467.482 L
204.72 298.185 L
205.315 304.66 L
205.91 331.593 L
206.505 171.084 L
207.1 207.969 L
207.695 168.2 L
208.29 342.976 L
208.885 429.535 L
209.48 429.32 L
210.075 301.422 L
210.67 321.856 L
211.265 144.062 L
211.86 274.676 L
212.455 329.349 L
213.05 379.18 L
213.645 453.817 L
214.24 478.603 L
214.835 325.393 L
215.43 256.484 L
216.025 281.591 L
216.62 243.625 L
217.215 219.733 L
S
GR
GS
[0.75 0 0 0.75 18 230] CT
0 GC
2 LJ
N
217.215 219.733 M
217.81 389.291 L
218.405 235.284 L
219 218.474 L
219.595 291.024 L
220.19 298.279 L
220.785 183.325 L
221.38 238.126 L
221.975 108.551 L
222.57 320.786 L
223.165 361.377 L
223.76 406.176 L
224.355 315.998 L
224.95 439.084 L
225.545 220.115 L
226.14 350.621 L
226.735 353.66 L
227.33 342.938 L
227.925 304.465 L
228.52 159.224 L
229.115 173.006 L
229.71 472.872 L
230.305 261.857 L
230.9 462.229 L
231.495 406.183 L
232.09 366.668 L
232.685 425.05 L
233.28 134.766 L
233.875 304.043 L
234.47 289.97 L
235.065 126.867 L
235.66 163.927 L
236.255 145.138 L
236.85 465.823 L
237.445 296.314 L
238.04 171.181 L
238.635 165.484 L
239.23 188.119 L
239.825 338.949 L
240.42 387.91 L
241.015 138.008 L
241.61 347.308 L
242.205 287.079 L
242.8 374.746 L
243.395 340.782 L
243.99 263.409 L
244.585 439.044 L
245.18 290.302 L
245.775 461.834 L
246.37 212.574 L
S
GR
GS
[0.75 0 0 0.75 18 230] CT
0 GC
2 LJ
N
246.37 212.574 M
246.965 476.422 L
247.56 179.535 L
248.155 419.531 L
248.75 429.715 L
249.345 407.336 L
249.94 198.909 L
250.535 214.342 L
251.13 403.462 L
251.725 493.281 L
252.32 342.201 L
252.915 311.918 L
253.51 253.299 L
254.105 115.7 L
254.7 206.95 L
255.295 469.007 L
255.89 352.356 L
256.485 204.571 L
257.08 244.814 L
257.675 228.276 L
258.27 378.702 L
258.865 184.597 L
259.46 497.177 L
260.055 247.949 L
260.65 443.223 L
261.245 198.691 L
261.84 307.091 L
262.435 141.28 L
263.03 461.619 L
263.625 251.79 L
264.22 454.275 L
264.815 300.09 L
265.41 309.264 L
266.005 321.29 L
266.6 175.269 L
267.195 170.99 L
267.79 136.99 L
268.385 182.951 L
268.98 370.093 L
269.575 221.963 L
270.17 165.497 L
270.765 311.497 L
271.36 409.231 L
271.955 185.292 L
272.55 323.664 L
273.145 271.188 L
273.74 124.987 L
274.335 280.889 L
274.93 474.924 L
275.525 252.17 L
S
GR
GS
[0.75 0 0 0.75 18 230] CT
0 GC
2 LJ
N
275.525 252.17 M
276.12 174.917 L
276.715 351.341 L
277.31 270.031 L
277.905 336.38 L
278.5 255.241 L
279.095 145.536 L
279.69 355.88 L
280.285 395.049 L
280.88 180.695 L
281.475 474.09 L
282.07 187.232 L
282.665 262.734 L
283.26 457.136 L
283.855 362.917 L
284.45 396.503 L
285.045 373.538 L
285.64 163.177 L
286.235 263.559 L
286.83 472.75 L
287.425 383.774 L
288.02 254.927 L
288.615 236.721 L
289.21 252.814 L
289.805 161.21 L
290.4 380.14 L
290.995 127.433 L
291.59 310.481 L
292.185 241.516 L
292.78 212.127 L
293.375 187.463 L
293.97 479.415 L
294.565 217.596 L
295.16 240.338 L
295.755 186.777 L
296.35 419.585 L
296.945 416.03 L
297.54 496.586 L
298.135 148.724 L
298.73 133.09 L
299.325 227.786 L
299.92 408.2 L
300.515 430.372 L
301.11 137.257 L
301.705 170.849 L
302.3 161.341 L
302.895 222.35 L
303.49 232.781 L
304.085 409.143 L
304.68 364.386 L
S
GR
GS
[0.75 0 0 0.75 18 230] CT
0 GC
2 LJ
N
304.68 364.386 M
305.275 130.039 L
305.87 328.611 L
306.465 220.716 L
307.06 256.765 L
307.655 338.874 L
308.25 388.217 L
308.845 218.151 L
309.44 226.018 L
310.035 345.199 L
310.63 440.646 L
311.225 368.011 L
311.82 140.825 L
312.415 479.05 L
313.01 319.952 L
313.605 405.99 L
314.2 321.737 L
314.795 332.656 L
315.39 212.32 L
315.985 249.515 L
316.58 126.365 L
317.175 476.029 L
317.77 416.557 L
318.365 373.314 L
318.96 331.792 L
319.555 304.992 L
320.15 476.725 L
320.745 192.295 L
321.34 190.81 L
321.935 341.076 L
322.53 355.972 L
323.125 319.039 L
323.72 378.714 L
324.315 462.937 L
324.91 397.702 L
325.505 375.816 L
326.1 159.919 L
326.695 144.501 L
327.29 322.473 L
327.885 235.262 L
328.48 360.973 L
329.075 168.293 L
329.67 244.306 L
330.265 387.709 L
330.86 205.865 L
331.455 356.167 L
332.05 156.218 L
332.645 332.404 L
333.24 394.735 L
333.835 111.956 L
S
GR
GS
[0.75 0 0 0.75 18 230] CT
0 GC
2 LJ
N
333.835 111.956 M
334.43 431.632 L
335.025 154.825 L
335.62 239.048 L
336.215 134.721 L
336.81 227.291 L
337.405 334.329 L
338 415.448 L
338.595 442.174 L
339.19 400.268 L
339.785 383.776 L
340.38 188.37 L
340.975 306.855 L
341.57 408.247 L
342.165 449.367 L
342.76 395.639 L
343.355 239.749 L
343.95 425.318 L
344.545 185.835 L
345.14 393.069 L
345.735 277.857 L
346.33 312.955 L
346.925 181.809 L
347.52 410.687 L
348.115 245.832 L
348.71 206.803 L
349.305 238.633 L
349.9 277.605 L
350.495 423.609 L
351.09 301.698 L
351.685 301.481 L
352.28 136.989 L
352.875 195.975 L
353.47 350.451 L
354.065 348.286 L
354.66 445.89 L
355.255 201.586 L
355.85 277.859 L
356.445 224.781 L
357.04 410.911 L
357.635 482.598 L
358.23 453.469 L
358.825 172.489 L
359.42 237.552 L
360.015 109.038 L
360.61 182.306 L
361.205 146.25 L
361.8 238.913 L
362.395 292.013 L
362.99 221.265 L
S
GR
GS
[0.75 0 0 0.75 18 230] CT
0 GC
2 LJ
N
362.99 221.265 M
363.585 263.741 L
364.18 169.469 L
364.775 224.355 L
365.37 188.436 L
365.965 232.065 L
366.56 362.145 L
367.155 440.602 L
367.75 137.845 L
368.345 242.777 L
368.94 412.529 L
369.535 409.271 L
370.13 147.316 L
370.725 339.332 L
371.32 306.689 L
371.915 377.639 L
372.51 245.2 L
373.105 171.641 L
373.7 226.945 L
374.295 211.256 L
374.89 266.403 L
375.485 415.475 L
376.08 227.722 L
376.675 270.624 L
377.27 216.704 L
377.865 343.278 L
378.46 255.565 L
379.055 314.052 L
379.65 264.907 L
380.245 222.527 L
380.84 456.04 L
381.435 274.424 L
382.03 342.934 L
382.625 362.176 L
383.22 363.12 L
383.815 137.472 L
384.41 443.811 L
385.005 237.228 L
385.6 420.708 L
386.195 318.206 L
386.79 202.023 L
387.385 450.685 L
387.98 373.414 L
388.575 414.378 L
389.17 483.308 L
389.765 183.489 L
390.36 168.553 L
390.955 343.932 L
391.55 366.015 L
392.145 148.298 L
S
GR
GS
[0.75 0 0 0.75 18 230] CT
0 GC
2 LJ
N
392.145 148.298 M
392.74 418.105 L
393.335 442.837 L
393.93 259.12 L
394.525 327.405 L
395.12 371.542 L
395.715 113.388 L
396.31 422.897 L
396.905 440.746 L
397.5 430.978 L
398.095 453.53 L
398.69 267.793 L
399.285 403.246 L
399.88 147.02 L
400.475 177.098 L
401.07 464.732 L
401.665 237.445 L
402.26 306.741 L
402.855 246.116 L
403.45 264.578 L
404.045 217.523 L
404.64 169.913 L
405.235 371.371 L
405.83 482.874 L
406.425 248.024 L
407.02 490.783 L
407.615 446.766 L
408.21 299.791 L
408.805 279.134 L
409.4 482.355 L
409.995 215.348 L
410.59 179.481 L
411.185 409.047 L
411.78 347.594 L
412.375 248.886 L
412.97 427.354 L
413.565 274.893 L
414.16 279.9 L
414.755 247.908 L
415.35 140.489 L
415.945 235.256 L
416.54 193.599 L
417.135 179.967 L
417.73 191.011 L
418.325 130.613 L
418.92 485.96 L
419.515 411.376 L
420.11 365.419 L
420.705 395.137 L
421.3 417.851 L
S
GR
GS
[0.75 0 0 0.75 18 230] CT
0 GC
2 LJ
N
421.3 417.851 M
421.895 492.076 L
422.49 210.425 L
423.085 212.548 L
423.68 283.885 L
424.275 386.756 L
424.87 222.62 L
425.465 390.372 L
426.06 129.535 L
426.655 381.891 L
427.25 231.514 L
427.845 193.439 L
428.44 224.796 L
429.035 358.94 L
429.63 326.88 L
430.225 436.566 L
430.82 450.349 L
431.415 238.242 L
432.01 201.628 L
432.605 287.583 L
433.2 402.779 L
433.795 448.021 L
434.39 366.961 L
434.985 337.732 L
435.58 298.988 L
436.175 146.275 L
436.77 389.438 L
437.365 134.905 L
437.96 284.88 L
438.555 395.464 L
439.15 310.075 L
439.745 400.542 L
440.34 259.225 L
440.935 319.291 L
441.53 359.682 L
442.125 214.632 L
442.72 183.486 L
443.315 365.331 L
443.91 479.409 L
444.505 336.141 L
445.1 207.946 L
445.695 228.799 L
446.29 276.208 L
446.885 152.261 L
447.48 321.38 L
448.075 487.205 L
448.67 426.01 L
449.265 113.92 L
449.86 237.687 L
450.455 256.713 L
S
GR
GS
[0.75 0 0 0.75 18 230] CT
0 GC
2 LJ
N
450.455 256.713 M
451.05 466.804 L
451.645 491.363 L
452.24 314.845 L
452.835 482.605 L
453.43 298.767 L
454.025 462.387 L
454.62 417.511 L
455.215 213.722 L
455.81 405.649 L
456.405 482.158 L
457 224.52 L
457.595 424.737 L
458.19 423.742 L
458.785 275.933 L
459.38 208.516 L
459.975 104.5 L
460.57 264.98 L
461.165 397.089 L
461.76 266.817 L
462.355 361.196 L
462.95 251.166 L
463.545 358.731 L
464.14 270.212 L
464.735 235.026 L
465.33 423.283 L
465.925 309.958 L
466.52 388.05 L
467.115 197.563 L
467.71 320.891 L
468.305 124.232 L
468.9 273.552 L
469.495 354.32 L
470.09 351.937 L
470.685 439.673 L
471.28 204.831 L
471.875 108.887 L
472.47 389.588 L
473.065 352.593 L
473.66 459.437 L
474.255 426.816 L
474.85 159.799 L
475.445 205.478 L
476.04 409.357 L
476.635 263.011 L
477.23 377.313 L
477.825 455.102 L
478.42 369.585 L
479.015 149.644 L
479.61 149.199 L
S
GR
GS
[0.75 0 0 0.75 18 230] CT
0 GC
2 LJ
N
479.61 149.199 M
480.205 219.669 L
480.8 182.74 L
481.395 441.677 L
481.99 126.552 L
482.585 145.088 L
483.18 323.67 L
483.775 217.999 L
484.37 331.054 L
484.965 272.419 L
485.56 460.177 L
486.155 293.197 L
486.75 454.248 L
487.345 194.958 L
487.94 181.989 L
488.535 182.26 L
489.13 455.018 L
489.725 452.998 L
490.32 211.447 L
490.915 263.445 L
491.51 482.052 L
492.105 330.247 L
492.7 289.046 L
493.295 292.874 L
493.89 471.976 L
494.485 459.022 L
495.08 464.317 L
495.675 283.932 L
496.27 415.72 L
496.865 273.467 L
497.46 132.912 L
498.055 456.56 L
498.65 437.643 L
499.245 180.221 L
499.84 293.911 L
500.435 485.988 L
501.03 352.315 L
501.625 131.537 L
502.22 255.613 L
502.815 95.186 L
503.41 270.285 L
504.005 324.015 L
504.6 384.17 L
505.195 380.703 L
505.79 277.699 L
506.385 465.31 L
506.98 397.545 L
507.575 460.881 L
508.17 221.943 L
508.765 362.724 L
S
GR
GS
[0.75 0 0 0.75 18 230] CT
0 GC
2 LJ
N
508.765 362.724 M
509.36 335.767 L
509.955 428.349 L
510.55 264.002 L
511.145 416.845 L
511.74 187.423 L
512.335 149.412 L
512.93 152.411 L
513.525 306.17 L
514.12 341.08 L
514.715 199.433 L
515.31 204.104 L
515.905 329.465 L
516.5 458.744 L
517.095 298.628 L
517.69 409.703 L
518.285 464.435 L
518.88 246.028 L
519.475 456.973 L
520.07 261.656 L
520.665 322.018 L
521.26 400.009 L
521.855 365.297 L
522.45 110.059 L
523.045 200.457 L
523.64 335.011 L
524.235 393.208 L
524.83 120.43 L
525.425 258.459 L
526.02 387.922 L
526.615 143.782 L
527.21 401.538 L
527.805 255.631 L
528.4 422.228 L
528.995 343.395 L
529.59 186.922 L
530.185 405.155 L
530.78 212.437 L
531.375 352.347 L
531.97 438.056 L
532.565 246.12 L
533.16 147.347 L
533.755 305.64 L
534.35 487.92 L
534.945 160.403 L
535.54 455.007 L
536.135 430.535 L
536.73 331.172 L
537.325 337.311 L
537.92 240.527 L
S
GR
GS
[0.75 0 0 0.75 18 230] CT
0 GC
2 LJ
N
537.92 240.527 M
538.515 475.692 L
539.11 294.017 L
539.705 367.13 L
540.3 404.868 L
540.895 417.758 L
541.49 408.939 L
542.085 272.003 L
542.68 276.846 L
543.275 480.037 L
543.87 383.695 L
544.465 280.076 L
545.06 398.023 L
545.655 430.418 L
546.25 205.723 L
546.845 321.753 L
547.44 396.82 L
548.035 399.423 L
548.63 294.102 L
549.225 249.895 L
549.82 341.353 L
550.415 117.028 L
551.01 177.44 L
551.605 253.458 L
552.2 442.855 L
552.795 283.162 L
553.39 378.382 L
553.985 363.528 L
554.58 312.729 L
555.175 292.749 L
555.77 162.768 L
556.365 348.603 L
556.96 283.078 L
557.555 342.886 L
558.15 347.353 L
558.745 421.317 L
559.34 468.429 L
559.935 273.233 L
560.53 139.595 L
561.125 257.085 L
561.72 500.611 L
562.315 174.683 L
562.91 317.966 L
563.505 246.25 L
564.1 233.962 L
564.695 167.858 L
565.29 249.315 L
565.885 240.175 L
566.48 478.239 L
567.075 141.983 L
S
GR
GS
[0.75 0 0 0.75 18 230] CT
0 GC
2 LJ
N
567.075 141.983 M
567.67 454.546 L
568.265 475.671 L
568.86 359.721 L
569.455 437.469 L
570.05 320.123 L
570.645 422.325 L
571.24 369.805 L
571.835 442.737 L
572.43 396.574 L
573.025 424.535 L
573.62 146.151 L
574.215 180.68 L
574.81 340.513 L
575.405 322.356 L
576 482.377 L
576.595 445.041 L
577.19 141.498 L
577.785 447.633 L
578.38 196.54 L
578.975 378.289 L
579.57 405.514 L
580.165 405.233 L
580.76 177.004 L
581.355 262.894 L
581.95 274.146 L
582.545 199.703 L
583.14 390.808 L
583.735 354.134 L
584.33 455.774 L
584.925 236.293 L
585.52 439.2 L
586.115 309.894 L
586.71 235.261 L
587.305 185.246 L
587.9 193.103 L
588.495 384.335 L
589.09 170.698 L
589.685 209.507 L
590.28 396.088 L
590.875 167.652 L
591.47 229.776 L
592.065 156.747 L
592.66 440.976 L
593.255 424.363 L
593.85 136.011 L
594.445 250.739 L
595.04 183.658 L
595.635 392.18 L
596.23 302.234 L
S
GR
GS
[0.75 0 0 0.75 18 230] CT
0 GC
2 LJ
N
596.23 302.234 M
596.825 331.504 L
597.42 195.106 L
598.015 323.377 L
598.61 475.472 L
599.205 245.41 L
599.8 210.226 L
600.395 165.124 L
600.99 445.235 L
601.585 126.272 L
602.18 300.586 L
602.775 267.347 L
603.37 219.878 L
603.965 155.372 L
604.56 343.435 L
605.155 248.639 L
605.75 447.516 L
606.345 190.565 L
606.94 201.962 L
607.535 420.14 L
608.13 415.072 L
608.725 354.612 L
609.32 422.892 L
609.915 179.115 L
610.51 224.17 L
611.105 450.568 L
611.7 400.707 L
612.295 131.01 L
612.89 409.596 L
613.485 245.969 L
614.08 182.998 L
614.675 155.384 L
615.27 142.873 L
615.865 259.003 L
616.46 365.506 L
617.055 177.601 L
617.65 365.178 L
618.245 121.417 L
618.84 153.025 L
619.435 287.824 L
620.03 192.376 L
620.625 143.77 L
621.22 412.522 L
621.815 447.813 L
622.41 159.232 L
623.005 469.258 L
623.6 184.781 L
624.195 318.593 L
624.79 164.487 L
625.385 159.328 L
S
GR
GS
[0.75 0 0 0.75 18 230] CT
0 GC
2 LJ
N
625.385 159.328 M
625.98 176.845 L
626.575 437.655 L
627.17 264.877 L
627.765 289.378 L
628.36 480.422 L
628.955 156.537 L
629.55 356.554 L
630.145 443.948 L
630.74 263.848 L
631.335 267.72 L
631.93 390.63 L
632.525 293.076 L
633.12 163.879 L
633.715 314.268 L
634.31 442.563 L
634.905 367.663 L
635.5 438.915 L
636.095 338.48 L
636.69 423.866 L
637.285 144.746 L
637.88 143.363 L
638.475 356.036 L
639.07 222.211 L
639.665 332.192 L
640.26 130.717 L
640.855 416.976 L
641.45 216.852 L
642.045 310.578 L
642.64 340.708 L
643.235 437.928 L
643.83 228.245 L
644.425 222.363 L
645.02 345.429 L
645.615 409.674 L
646.21 309.493 L
646.805 150.058 L
647.4 209.413 L
647.995 363.89 L
648.59 305.011 L
649.185 130.846 L
649.78 157.071 L
650.375 483.669 L
650.97 333.703 L
651.565 112.74 L
652.16 221.646 L
652.755 388.052 L
653.35 334.586 L
653.945 482.326 L
654.54 280.347 L
S
GR
GS
[0.75 0 0 0.75 18 230] CT
0 GC
2 LJ
N
654.54 280.347 M
655.135 279.714 L
655.73 428.028 L
656.325 367.847 L
656.92 372.046 L
657.515 338.557 L
658.11 465.362 L
658.705 399.249 L
659.3 356.067 L
659.895 146.656 L
660.49 389.675 L
661.085 394.67 L
661.68 355.479 L
662.275 256.048 L
662.87 168.896 L
663.465 394.24 L
664.06 187.292 L
664.655 200.201 L
665.25 171.647 L
665.845 156.062 L
666.44 379.422 L
667.035 209.877 L
667.63 340.813 L
668.225 379.519 L
668.82 276.334 L
669.415 444.041 L
670.01 452.015 L
670.605 433.514 L
671.2 238.688 L
671.795 167.476 L
672.39 200.125 L
672.985 194.873 L
673.58 241.851 L
674.175 215.173 L
674.77 180.364 L
675.365 170.655 L
675.96 199.045 L
676.555 203.966 L
677.15 351.403 L
677.745 266.916 L
678.34 396.384 L
678.935 453.469 L
679.53 230.969 L
680.125 209.563 L
680.72 455.474 L
681.315 185.559 L
681.91 224.152 L
682.505 154.606 L
683.1 180.784 L
683.695 418.679 L
S
GR
GS
[0.75 0 0 0.75 18 230] CT
0 GC
2 LJ
N
683.695 418.679 M
684.29 444.193 L
684.885 168.298 L
685.48 165.799 L
686.075 233 L
686.67 182.091 L
687.265 169.562 L
687.86 401.135 L
688.455 436.037 L
689.05 399.155 L
689.645 198.635 L
690.24 204.171 L
690.835 210.589 L
691.43 329.201 L
692.025 477.804 L
692.62 140.797 L
693.215 303.601 L
693.81 155.781 L
694.405 465.403 L
695 206.365 L
S
GR
GS
[0.75 0 0 0.75 316.12527 260.1875] CT
0 GC
/Helvetica-Bold 15 F
GS
[1 0 0 1 0 0] CT
-280.5 -4 moveto 
1 -1 scale
(Unrelated<->Extracted Watermark Correlation Coefficents Alpha:0.1 Position:2) t 
GR
GR
showpage
%%Trailer
%%BoundingBox: 71 210 550 596
%%Pages: 1
%%EOF
