%!PS-Adobe-3.0
%%Creator: (MATLAB, The Mathworks, Inc. Version 8.5.0.197613 \(R2015a\). Operating System: Windows 7)
%%Title: ./output/WmIm_05_100/extractedWatermarkCorrelationCoefficient.eps
%%CreationDate: 2015-11-04T23:49:17
%%Pages: (atend)
%%BoundingBox: (atend)
%%LanguageLevel: 3
%%EndComments
%%BeginDefaults
%%EndDefaults
%%BeginProlog
%%EndProlog
%%BeginSetup
%%BeginResource: procset (Apache XML Graphics Std ProcSet) 1.2 0
%%Version: 1.2 0
%%Copyright: (Copyright 2001-2003,2010 The Apache Software Foundation. License terms: http://www.apache.org/licenses/LICENSE-2.0)
/bd{bind def}bind def
/ld{load def}bd
/GR/grestore ld
/M/moveto ld
/LJ/setlinejoin ld
/C/curveto ld
/f/fill ld
/LW/setlinewidth ld
/GC/setgray ld
/t/show ld
/N/newpath ld
/CT/concat ld
/cp/closepath ld
/S/stroke ld
/L/lineto ld
/CC/setcmykcolor ld
/A/ashow ld
/GS/gsave ld
/RC/setrgbcolor ld
/RM/rmoveto ld
/ML/setmiterlimit ld
/re {4 2 roll M
1 index 0 rlineto
0 exch rlineto
neg 0 rlineto
cp } bd
/_ctm matrix def
/_tm matrix def
/BT { _ctm currentmatrix pop matrix _tm copy pop 0 0 moveto } bd
/ET { _ctm setmatrix } bd
/iTm { _ctm setmatrix _tm concat } bd
/Tm { _tm astore pop iTm 0 0 moveto } bd
/ux 0.0 def
/uy 0.0 def
/F {
  /Tp exch def
  /Tf exch def
  Tf findfont Tp scalefont setfont
  /cf Tf def  /cs Tp def
} bd
/ULS {currentpoint /uy exch def /ux exch def} bd
/ULE {
  /Tcx currentpoint pop def
  gsave
  newpath
  cf findfont cs scalefont dup
  /FontMatrix get 0 get /Ts exch def /FontInfo get dup
  /UnderlinePosition get Ts mul /To exch def
  /UnderlineThickness get Ts mul /Tt exch def
  ux uy To add moveto  Tcx uy To add lineto
  Tt setlinewidth stroke
  grestore
} bd
/OLE {
  /Tcx currentpoint pop def
  gsave
  newpath
  cf findfont cs scalefont dup
  /FontMatrix get 0 get /Ts exch def /FontInfo get dup
  /UnderlinePosition get Ts mul /To exch def
  /UnderlineThickness get Ts mul /Tt exch def
  ux uy To add cs add moveto Tcx uy To add cs add lineto
  Tt setlinewidth stroke
  grestore
} bd
/SOE {
  /Tcx currentpoint pop def
  gsave
  newpath
  cf findfont cs scalefont dup
  /FontMatrix get 0 get /Ts exch def /FontInfo get dup
  /UnderlinePosition get Ts mul /To exch def
  /UnderlineThickness get Ts mul /Tt exch def
  ux uy To add cs 10 mul 26 idiv add moveto Tcx uy To add cs 10 mul 26 idiv add lineto
  Tt setlinewidth stroke
  grestore
} bd
/QT {
/Y22 exch store
/X22 exch store
/Y21 exch store
/X21 exch store
currentpoint
/Y21 load 2 mul add 3 div exch
/X21 load 2 mul add 3 div exch
/X21 load 2 mul /X22 load add 3 div
/Y21 load 2 mul /Y22 load add 3 div
/X22 load /Y22 load curveto
} bd
/SSPD {
dup length /d exch dict def
{
/v exch def
/k exch def
currentpagedevice k known {
/cpdv currentpagedevice k get def
v cpdv ne {
/upd false def
/nullv v type /nulltype eq def
/nullcpdv cpdv type /nulltype eq def
nullv nullcpdv or
{
/upd true def
} {
/sametype v type cpdv type eq def
sametype {
v type /arraytype eq {
/vlen v length def
/cpdvlen cpdv length def
vlen cpdvlen eq {
0 1 vlen 1 sub {
/i exch def
/obj v i get def
/cpdobj cpdv i get def
obj cpdobj ne {
/upd true def
exit
} if
} for
} {
/upd true def
} ifelse
} {
v type /dicttype eq {
v {
/dv exch def
/dk exch def
/cpddv cpdv dk get def
dv cpddv ne {
/upd true def
exit
} if
} forall
} {
/upd true def
} ifelse
} ifelse
} if
} ifelse
upd true eq {
d k v put
} if
} if
} if
} forall
d length 0 gt {
d setpagedevice
} if
} bd
%%EndResource
%%BeginResource: procset (Apache XML Graphics EPS ProcSet) 1.0 0
%%Version: 1.0 0
%%Copyright: (Copyright 2002-2003 The Apache Software Foundation. License terms: http://www.apache.org/licenses/LICENSE-2.0)
/BeginEPSF { %def
/b4_Inc_state save def         % Save state for cleanup
/dict_count countdictstack def % Count objects on dict stack
/op_count count 1 sub def      % Count objects on operand stack
userdict begin                 % Push userdict on dict stack
/showpage { } def              % Redefine showpage, { } = null proc
0 setgray 0 setlinecap         % Prepare graphics state
1 setlinewidth 0 setlinejoin
10 setmiterlimit [ ] 0 setdash newpath
/languagelevel where           % If level not equal to 1 then
{pop languagelevel             % set strokeadjust and
1 ne                           % overprint to their defaults.
{false setstrokeadjust false setoverprint
} if
} if
} bd
/EndEPSF { %def
count op_count sub {pop} repeat            % Clean up stacks
countdictstack dict_count sub {end} repeat
b4_Inc_state restore
} bd
%%EndResource
%FOPBeginFontDict
%%IncludeResource: font Courier-Bold
%%IncludeResource: font Helvetica
%%IncludeResource: font Courier-BoldOblique
%%IncludeResource: font Courier-Oblique
%%IncludeResource: font Times-Roman
%%IncludeResource: font Helvetica-BoldOblique
%%IncludeResource: font Helvetica-Bold
%%IncludeResource: font Helvetica-Oblique
%%IncludeResource: font Times-BoldItalic
%%IncludeResource: font Courier
%%IncludeResource: font Times-Italic
%%IncludeResource: font Times-Bold
%%IncludeResource: font Symbol
%%IncludeResource: font ZapfDingbats
%FOPEndFontDict
%%BeginResource: encoding WinAnsiEncoding
/WinAnsiEncoding [
/.notdef /.notdef /.notdef /.notdef /.notdef
/.notdef /.notdef /.notdef /.notdef /.notdef
/.notdef /.notdef /.notdef /.notdef /.notdef
/.notdef /.notdef /.notdef /.notdef /.notdef
/.notdef /.notdef /.notdef /.notdef /.notdef
/.notdef /.notdef /.notdef /.notdef /.notdef
/.notdef /.notdef /space /exclam /quotedbl
/numbersign /dollar /percent /ampersand /quotesingle
/parenleft /parenright /asterisk /plus /comma
/hyphen /period /slash /zero /one
/two /three /four /five /six
/seven /eight /nine /colon /semicolon
/less /equal /greater /question /at
/A /B /C /D /E
/F /G /H /I /J
/K /L /M /N /O
/P /Q /R /S /T
/U /V /W /X /Y
/Z /bracketleft /backslash /bracketright /asciicircum
/underscore /quoteleft /a /b /c
/d /e /f /g /h
/i /j /k /l /m
/n /o /p /q /r
/s /t /u /v /w
/x /y /z /braceleft /bar
/braceright /asciitilde /bullet /Euro /bullet
/quotesinglbase /florin /quotedblbase /ellipsis /dagger
/daggerdbl /circumflex /perthousand /Scaron /guilsinglleft
/OE /bullet /Zcaron /bullet /bullet
/quoteleft /quoteright /quotedblleft /quotedblright /bullet
/endash /emdash /asciitilde /trademark /scaron
/guilsinglright /oe /bullet /zcaron /Ydieresis
/space /exclamdown /cent /sterling /currency
/yen /brokenbar /section /dieresis /copyright
/ordfeminine /guillemotleft /logicalnot /sfthyphen /registered
/macron /degree /plusminus /twosuperior /threesuperior
/acute /mu /paragraph /middot /cedilla
/onesuperior /ordmasculine /guillemotright /onequarter /onehalf
/threequarters /questiondown /Agrave /Aacute /Acircumflex
/Atilde /Adieresis /Aring /AE /Ccedilla
/Egrave /Eacute /Ecircumflex /Edieresis /Igrave
/Iacute /Icircumflex /Idieresis /Eth /Ntilde
/Ograve /Oacute /Ocircumflex /Otilde /Odieresis
/multiply /Oslash /Ugrave /Uacute /Ucircumflex
/Udieresis /Yacute /Thorn /germandbls /agrave
/aacute /acircumflex /atilde /adieresis /aring
/ae /ccedilla /egrave /eacute /ecircumflex
/edieresis /igrave /iacute /icircumflex /idieresis
/eth /ntilde /ograve /oacute /ocircumflex
/otilde /odieresis /divide /oslash /ugrave
/uacute /ucircumflex /udieresis /yacute /thorn
/ydieresis
] def
%%EndResource
%FOPBeginFontReencode
/Courier-Bold findfont
dup length dict begin
  {1 index /FID ne {def} {pop pop} ifelse} forall
  /Encoding WinAnsiEncoding def
  currentdict
end
/Courier-Bold exch definefont pop
/Helvetica findfont
dup length dict begin
  {1 index /FID ne {def} {pop pop} ifelse} forall
  /Encoding WinAnsiEncoding def
  currentdict
end
/Helvetica exch definefont pop
/Courier-BoldOblique findfont
dup length dict begin
  {1 index /FID ne {def} {pop pop} ifelse} forall
  /Encoding WinAnsiEncoding def
  currentdict
end
/Courier-BoldOblique exch definefont pop
/Courier-Oblique findfont
dup length dict begin
  {1 index /FID ne {def} {pop pop} ifelse} forall
  /Encoding WinAnsiEncoding def
  currentdict
end
/Courier-Oblique exch definefont pop
/Times-Roman findfont
dup length dict begin
  {1 index /FID ne {def} {pop pop} ifelse} forall
  /Encoding WinAnsiEncoding def
  currentdict
end
/Times-Roman exch definefont pop
/Helvetica-BoldOblique findfont
dup length dict begin
  {1 index /FID ne {def} {pop pop} ifelse} forall
  /Encoding WinAnsiEncoding def
  currentdict
end
/Helvetica-BoldOblique exch definefont pop
/Helvetica-Bold findfont
dup length dict begin
  {1 index /FID ne {def} {pop pop} ifelse} forall
  /Encoding WinAnsiEncoding def
  currentdict
end
/Helvetica-Bold exch definefont pop
/Helvetica-Oblique findfont
dup length dict begin
  {1 index /FID ne {def} {pop pop} ifelse} forall
  /Encoding WinAnsiEncoding def
  currentdict
end
/Helvetica-Oblique exch definefont pop
/Times-BoldItalic findfont
dup length dict begin
  {1 index /FID ne {def} {pop pop} ifelse} forall
  /Encoding WinAnsiEncoding def
  currentdict
end
/Times-BoldItalic exch definefont pop
/Courier findfont
dup length dict begin
  {1 index /FID ne {def} {pop pop} ifelse} forall
  /Encoding WinAnsiEncoding def
  currentdict
end
/Courier exch definefont pop
/Times-Italic findfont
dup length dict begin
  {1 index /FID ne {def} {pop pop} ifelse} forall
  /Encoding WinAnsiEncoding def
  currentdict
end
/Times-Italic exch definefont pop
/Times-Bold findfont
dup length dict begin
  {1 index /FID ne {def} {pop pop} ifelse} forall
  /Encoding WinAnsiEncoding def
  currentdict
end
/Times-Bold exch definefont pop
%FOPEndFontReencode
%%EndSetup
%%Page: 1 1
%%PageBoundingBox: 0 0 595 842
%%BeginPageSetup
<<
/PageSize [595 842]
/ImagingBBox null
>> setpagedevice
[1 0 0 -1 0 842] CT
%%EndPageSetup
GS
[0.75 0 0 0.75 18 230] CT
0.997 GC
N
0 0 768 576 re
f
GR
GS
[0.75 0 0 0.75 18 230] CT
0.997 GC
N
0 0 768 576 re
f
GR
GS
[0.75 0 0 0.75 18 230] CT
0.997 GC
N
100 513 M
695 513 L
695 43 L
100 43 L
cp
f
GR
GS
[0.75 0 0 0.75 18 230] CT
0 GC
2 setlinecap
10.0 ML
N
100 513 M
695 513 L
S
GR
GS
[0.75 0 0 0.75 18 230] CT
0 GC
2 setlinecap
10.0 ML
N
100 43 M
695 43 L
S
GR
GS
[0.75 0 0 0.75 18 230] CT
0 GC
2 setlinecap
10.0 ML
N
100 513 M
100 507.05 L
S
GR
GS
[0.75 0 0 0.75 18 230] CT
0 GC
2 setlinecap
10.0 ML
N
159.5 513 M
159.5 507.05 L
S
GR
GS
[0.75 0 0 0.75 18 230] CT
0 GC
2 setlinecap
10.0 ML
N
219 513 M
219 507.05 L
S
GR
GS
[0.75 0 0 0.75 18 230] CT
0 GC
2 setlinecap
10.0 ML
N
278.5 513 M
278.5 507.05 L
S
GR
GS
[0.75 0 0 0.75 18 230] CT
0 GC
2 setlinecap
10.0 ML
N
338 513 M
338 507.05 L
S
GR
GS
[0.75 0 0 0.75 18 230] CT
0 GC
2 setlinecap
10.0 ML
N
397.5 513 M
397.5 507.05 L
S
GR
GS
[0.75 0 0 0.75 18 230] CT
0 GC
2 setlinecap
10.0 ML
N
457 513 M
457 507.05 L
S
GR
GS
[0.75 0 0 0.75 18 230] CT
0 GC
2 setlinecap
10.0 ML
N
516.5 513 M
516.5 507.05 L
S
GR
GS
[0.75 0 0 0.75 18 230] CT
0 GC
2 setlinecap
10.0 ML
N
576 513 M
576 507.05 L
S
GR
GS
[0.75 0 0 0.75 18 230] CT
0 GC
2 setlinecap
10.0 ML
N
635.5 513 M
635.5 507.05 L
S
GR
GS
[0.75 0 0 0.75 18 230] CT
0 GC
2 setlinecap
10.0 ML
N
695 513 M
695 507.05 L
S
GR
GS
[0.75 0 0 0.75 18 230] CT
0 GC
2 setlinecap
10.0 ML
N
100 43 M
100 48.95 L
S
GR
GS
[0.75 0 0 0.75 18 230] CT
0 GC
2 setlinecap
10.0 ML
N
159.5 43 M
159.5 48.95 L
S
GR
GS
[0.75 0 0 0.75 18 230] CT
0 GC
2 setlinecap
10.0 ML
N
219 43 M
219 48.95 L
S
GR
GS
[0.75 0 0 0.75 18 230] CT
0 GC
2 setlinecap
10.0 ML
N
278.5 43 M
278.5 48.95 L
S
GR
GS
[0.75 0 0 0.75 18 230] CT
0 GC
2 setlinecap
10.0 ML
N
338 43 M
338 48.95 L
S
GR
GS
[0.75 0 0 0.75 18 230] CT
0 GC
2 setlinecap
10.0 ML
N
397.5 43 M
397.5 48.95 L
S
GR
GS
[0.75 0 0 0.75 18 230] CT
0 GC
2 setlinecap
10.0 ML
N
457 43 M
457 48.95 L
S
GR
GS
[0.75 0 0 0.75 18 230] CT
0 GC
2 setlinecap
10.0 ML
N
516.5 43 M
516.5 48.95 L
S
GR
GS
[0.75 0 0 0.75 18 230] CT
0 GC
2 setlinecap
10.0 ML
N
576 43 M
576 48.95 L
S
GR
GS
[0.75 0 0 0.75 18 230] CT
0 GC
2 setlinecap
10.0 ML
N
635.5 43 M
635.5 48.95 L
S
GR
GS
[0.75 0 0 0.75 18 230] CT
0 GC
2 setlinecap
10.0 ML
N
695 43 M
695 48.95 L
S
GR
GS
[0.75 0 0 0.75 93 618.74998] CT
0 GC
/Helvetica 13 F
GS
[1 0 0 1 0 0] CT
-4 14 moveto 
1 -1 scale
(0) t 
GR
GR
GS
[0.75 0 0 0.75 137.625 618.74998] CT
0 GC
/Helvetica 13 F
GS
[1 0 0 1 0 0] CT
-11 14 moveto 
1 -1 scale
(100) t 
GR
GR
GS
[0.75 0 0 0.75 182.25 618.74998] CT
0 GC
/Helvetica 13 F
GS
[1 0 0 1 0 0] CT
-11 14 moveto 
1 -1 scale
(200) t 
GR
GR
GS
[0.75 0 0 0.75 226.875 618.74998] CT
0 GC
/Helvetica 13 F
GS
[1 0 0 1 0 0] CT
-11 14 moveto 
1 -1 scale
(300) t 
GR
GR
GS
[0.75 0 0 0.75 271.5 618.74998] CT
0 GC
/Helvetica 13 F
GS
[1 0 0 1 0 0] CT
-11 14 moveto 
1 -1 scale
(400) t 
GR
GR
GS
[0.75 0 0 0.75 316.125 618.74998] CT
0 GC
/Helvetica 13 F
GS
[1 0 0 1 0 0] CT
-11 14 moveto 
1 -1 scale
(500) t 
GR
GR
GS
[0.75 0 0 0.75 360.75 618.74998] CT
0 GC
/Helvetica 13 F
GS
[1 0 0 1 0 0] CT
-11 14 moveto 
1 -1 scale
(600) t 
GR
GR
GS
[0.75 0 0 0.75 405.375 618.74998] CT
0 GC
/Helvetica 13 F
GS
[1 0 0 1 0 0] CT
-11 14 moveto 
1 -1 scale
(700) t 
GR
GR
GS
[0.75 0 0 0.75 450 618.74998] CT
0 GC
/Helvetica 13 F
GS
[1 0 0 1 0 0] CT
-11 14 moveto 
1 -1 scale
(800) t 
GR
GR
GS
[0.75 0 0 0.75 494.625 618.74998] CT
0 GC
/Helvetica 13 F
GS
[1 0 0 1 0 0] CT
-11 14 moveto 
1 -1 scale
(900) t 
GR
GR
GS
[0.75 0 0 0.75 539.25 618.74998] CT
0 GC
/Helvetica 13 F
GS
[1 0 0 1 0 0] CT
-14.5 14 moveto 
1 -1 scale
(1000) t 
GR
GR
GS
[0.75 0 0 0.75 18 230] CT
0 GC
2 setlinecap
10.0 ML
N
100 513 M
100 43 L
S
GR
GS
[0.75 0 0 0.75 18 230] CT
0 GC
2 setlinecap
10.0 ML
N
695 513 M
695 43 L
S
GR
GS
[0.75 0 0 0.75 18 230] CT
0 GC
2 setlinecap
10.0 ML
N
100 513 M
105.95 513 L
S
GR
GS
[0.75 0 0 0.75 18 230] CT
0 GC
2 setlinecap
10.0 ML
N
100 434.667 M
105.95 434.667 L
S
GR
GS
[0.75 0 0 0.75 18 230] CT
0 GC
2 setlinecap
10.0 ML
N
100 356.333 M
105.95 356.333 L
S
GR
GS
[0.75 0 0 0.75 18 230] CT
0 GC
2 setlinecap
10.0 ML
N
100 278 M
105.95 278 L
S
GR
GS
[0.75 0 0 0.75 18 230] CT
0 GC
2 setlinecap
10.0 ML
N
100 199.667 M
105.95 199.667 L
S
GR
GS
[0.75 0 0 0.75 18 230] CT
0 GC
2 setlinecap
10.0 ML
N
100 121.333 M
105.95 121.333 L
S
GR
GS
[0.75 0 0 0.75 18 230] CT
0 GC
2 setlinecap
10.0 ML
N
100 43 M
105.95 43 L
S
GR
GS
[0.75 0 0 0.75 18 230] CT
0 GC
2 setlinecap
10.0 ML
N
695 513 M
689.05 513 L
S
GR
GS
[0.75 0 0 0.75 18 230] CT
0 GC
2 setlinecap
10.0 ML
N
695 434.667 M
689.05 434.667 L
S
GR
GS
[0.75 0 0 0.75 18 230] CT
0 GC
2 setlinecap
10.0 ML
N
695 356.333 M
689.05 356.333 L
S
GR
GS
[0.75 0 0 0.75 18 230] CT
0 GC
2 setlinecap
10.0 ML
N
695 278 M
689.05 278 L
S
GR
GS
[0.75 0 0 0.75 18 230] CT
0 GC
2 setlinecap
10.0 ML
N
695 199.667 M
689.05 199.667 L
S
GR
GS
[0.75 0 0 0.75 18 230] CT
0 GC
2 setlinecap
10.0 ML
N
695 121.333 M
689.05 121.333 L
S
GR
GS
[0.75 0 0 0.75 18 230] CT
0 GC
2 setlinecap
10.0 ML
N
695 43 M
689.05 43 L
S
GR
GS
[0.75 0 0 0.75 89 614.75] CT
0 GC
/Helvetica 13 F
GS
[1 0 0 1 0 0] CT
-12 5.5 moveto 
1 -1 scale
(-5) t 
GR
GR
GS
[0.75 0 0 0.75 89 555.99999] CT
0 GC
/Helvetica 13 F
GS
[1 0 0 1 0 0] CT
-8 5.5 moveto 
1 -1 scale
(0) t 
GR
GR
GS
[0.75 0 0 0.75 89 497.25001] CT
0 GC
/Helvetica 13 F
GS
[1 0 0 1 0 0] CT
-8 5.5 moveto 
1 -1 scale
(5) t 
GR
GR
GS
[0.75 0 0 0.75 89 438.5] CT
0 GC
/Helvetica 13 F
GS
[1 0 0 1 0 0] CT
-15 5.5 moveto 
1 -1 scale
(10) t 
GR
GR
GS
[0.75 0 0 0.75 89 379.75] CT
0 GC
/Helvetica 13 F
GS
[1 0 0 1 0 0] CT
-15 5.5 moveto 
1 -1 scale
(15) t 
GR
GR
GS
[0.75 0 0 0.75 89 321] CT
0 GC
/Helvetica 13 F
GS
[1 0 0 1 0 0] CT
-15 5.5 moveto 
1 -1 scale
(20) t 
GR
GR
GS
[0.75 0 0 0.75 89 262.25] CT
0 GC
/Helvetica 13 F
GS
[1 0 0 1 0 0] CT
-15 5.5 moveto 
1 -1 scale
(25) t 
GR
GR
GS
[0.75 0 0 0.75 18 230] CT
0 GC
2 LJ
N
100.595 437.647 M
101.19 449.598 L
101.785 436.722 L
102.38 440.711 L
102.975 444.267 L
103.57 436.373 L
104.165 428.484 L
104.76 448.438 L
105.355 441.125 L
105.95 449.466 L
106.545 453.874 L
107.14 414.633 L
107.735 411.765 L
108.33 448.071 L
108.925 445.565 L
109.52 423.343 L
110.115 420.602 L
110.71 428.13 L
111.305 417.984 L
111.9 426.32 L
112.495 427.93 L
113.09 472.308 L
113.685 428.448 L
114.28 402.069 L
114.875 467.527 L
115.47 423.634 L
116.065 410.158 L
116.66 444.897 L
117.255 444.502 L
117.85 446.972 L
118.445 420.023 L
119.04 442.376 L
119.635 421.742 L
120.23 415.667 L
120.825 405.311 L
121.42 392.059 L
122.015 417.831 L
122.61 436.086 L
123.205 420.717 L
123.8 422.843 L
124.395 426.497 L
124.99 442.692 L
125.585 426.574 L
126.18 422.355 L
126.775 425.881 L
127.37 429.691 L
127.965 426.694 L
128.56 415.517 L
129.155 414.146 L
129.75 442.217 L
S
GR
GS
[0.75 0 0 0.75 18 230] CT
0 GC
2 LJ
N
129.75 442.217 M
130.345 451.323 L
130.94 435.696 L
131.535 435.455 L
132.13 436.509 L
132.725 440.92 L
133.32 423.911 L
133.915 451.085 L
134.51 440.178 L
135.105 416.624 L
135.7 410.398 L
136.295 405.832 L
136.89 415.175 L
137.485 408.38 L
138.08 408.012 L
138.675 419.289 L
139.27 416.913 L
139.865 424.182 L
140.46 455.396 L
141.055 425.837 L
141.65 425.978 L
142.245 430.944 L
142.84 451.805 L
143.435 447.602 L
144.03 444.761 L
144.625 423.953 L
145.22 431.17 L
145.815 439.433 L
146.41 449.739 L
147.005 431.827 L
147.6 453.506 L
148.195 455.304 L
148.79 410.222 L
149.385 443.222 L
149.98 446.623 L
150.575 427.66 L
151.17 434.44 L
151.765 452.653 L
152.36 432.503 L
152.955 448.092 L
153.55 446.075 L
154.145 420.583 L
154.74 443.085 L
155.335 451.443 L
155.93 441.693 L
156.525 443.512 L
157.12 429.426 L
157.715 434.13 L
158.31 445.033 L
158.905 412.701 L
S
GR
GS
[0.75 0 0 0.75 18 230] CT
0 GC
2 LJ
N
158.905 412.701 M
159.5 429.3 L
160.095 428.48 L
160.69 427.237 L
161.285 451.949 L
161.88 421.143 L
162.475 441.04 L
163.07 409.983 L
163.665 449.954 L
164.26 439.639 L
164.855 455.435 L
165.45 449.28 L
166.045 428.144 L
166.64 456.632 L
167.235 436.808 L
167.83 457.297 L
168.425 441.403 L
169.02 410.364 L
169.615 442.796 L
170.21 461.519 L
170.805 442.891 L
171.4 469.613 L
171.995 417.729 L
172.59 411.324 L
173.185 427.281 L
173.78 433.476 L
174.375 415.543 L
174.97 426.77 L
175.565 424.658 L
176.16 431.107 L
176.755 407.028 L
177.35 405.226 L
177.945 403.899 L
178.54 436.451 L
179.135 418.434 L
179.73 417.746 L
180.325 416.5 L
180.92 425.992 L
181.515 437.572 L
182.11 452.62 L
182.705 445.398 L
183.3 408.915 L
183.895 433.47 L
184.49 440.681 L
185.085 430.784 L
185.68 461.12 L
186.275 446.431 L
186.87 441.784 L
187.465 416.852 L
188.06 460.034 L
S
GR
GS
[0.75 0 0 0.75 18 230] CT
0 GC
2 LJ
N
188.06 460.034 M
188.655 431.4 L
189.25 445.967 L
189.845 399.536 L
190.44 417.21 L
191.035 417.177 L
191.63 396.412 L
192.225 463.654 L
192.82 426.641 L
193.415 422.254 L
194.01 433.545 L
194.605 430.401 L
195.2 448.202 L
195.795 441.965 L
196.39 434.065 L
196.985 426.592 L
197.58 434.861 L
198.175 440.197 L
198.77 460.101 L
199.365 429.874 L
199.96 420.779 L
200.555 442.68 L
201.15 444.589 L
201.745 430.532 L
202.34 458.151 L
202.935 424.905 L
203.53 398.514 L
204.125 458.373 L
204.72 422.822 L
205.315 415.952 L
205.91 453.699 L
206.505 417.377 L
207.1 430.602 L
207.695 416.78 L
208.29 435.144 L
208.885 410.578 L
209.48 450.421 L
210.075 440.928 L
210.67 422.765 L
211.265 451.102 L
211.86 439.249 L
212.455 421.616 L
213.05 410.159 L
213.645 423.427 L
214.24 436.314 L
214.835 412.438 L
215.43 432.664 L
216.025 420.892 L
216.62 407.639 L
217.215 448.231 L
S
GR
GS
[0.75 0 0 0.75 18 230] CT
0 GC
2 LJ
N
217.215 448.231 M
217.81 432.018 L
218.405 445.819 L
219 440.083 L
219.595 426.813 L
220.19 424.279 L
220.785 427.321 L
221.38 439.153 L
221.975 443.921 L
222.57 451.752 L
223.165 422.26 L
223.76 444.92 L
224.355 457.622 L
224.95 437.945 L
225.545 450.47 L
226.14 454.056 L
226.735 436.413 L
227.33 432.74 L
227.925 418.906 L
228.52 449.904 L
229.115 423.718 L
229.71 433.368 L
230.305 439.133 L
230.9 457.519 L
231.495 432.357 L
232.09 411.548 L
232.685 411.041 L
233.28 410.789 L
233.875 438.232 L
234.47 437.576 L
235.065 413.134 L
235.66 435.59 L
236.255 427.806 L
236.85 467.416 L
237.445 415.815 L
238.04 431.082 L
238.635 422.831 L
239.23 462.039 L
239.825 460.329 L
240.42 457.672 L
241.015 435.169 L
241.61 425.307 L
242.205 438.004 L
242.8 431.909 L
243.395 398.542 L
243.99 458.37 L
244.585 436.815 L
245.18 446.549 L
245.775 414.235 L
246.37 414.764 L
S
GR
GS
[0.75 0 0 0.75 18 230] CT
0 GC
2 LJ
N
246.37 414.764 M
246.965 431.219 L
247.56 452.456 L
248.155 411.199 L
248.75 83.685 L
249.345 438.411 L
249.94 444.453 L
250.535 427.984 L
251.13 466.679 L
251.725 469.011 L
252.32 423.987 L
252.915 444.408 L
253.51 421.589 L
254.105 409.352 L
254.7 452.274 L
255.295 431.724 L
255.89 436.248 L
256.485 412.136 L
257.08 396.13 L
257.675 451.5 L
258.27 417.258 L
258.865 430.459 L
259.46 439.934 L
260.055 448.588 L
260.65 421.074 L
261.245 444.765 L
261.84 450.28 L
262.435 433.059 L
263.03 428.318 L
263.625 432.956 L
264.22 425.915 L
264.815 430.693 L
265.41 435.159 L
266.005 429.013 L
266.6 431.985 L
267.195 420.587 L
267.79 419.241 L
268.385 405.881 L
268.98 415.416 L
269.575 423.263 L
270.17 428.956 L
270.765 421.754 L
271.36 438.83 L
271.955 446.516 L
272.55 428.483 L
273.145 444.7 L
273.74 417.959 L
274.335 439.191 L
274.93 421.593 L
275.525 393.308 L
S
GR
GS
[0.75 0 0 0.75 18 230] CT
0 GC
2 LJ
N
275.525 393.308 M
276.12 445.87 L
276.715 420.577 L
277.31 410.53 L
277.905 424.308 L
278.5 428.445 L
279.095 412.267 L
279.69 419.732 L
280.285 428.178 L
280.88 440.449 L
281.475 417.627 L
282.07 438.611 L
282.665 421.239 L
283.26 434.876 L
283.855 414.154 L
284.45 446.134 L
285.045 415.752 L
285.64 428.239 L
286.235 455.516 L
286.83 428.867 L
287.425 453.17 L
288.02 434.816 L
288.615 448.46 L
289.21 453.736 L
289.805 462.27 L
290.4 430.658 L
290.995 432.99 L
291.59 422.151 L
292.185 424.99 L
292.78 427.682 L
293.375 410.734 L
293.97 426.795 L
294.565 430.627 L
295.16 430.837 L
295.755 445.089 L
296.35 431.735 L
296.945 435.672 L
297.54 459.875 L
298.135 419.342 L
298.73 441.797 L
299.325 405.637 L
299.92 433.011 L
300.515 434.165 L
301.11 437.391 L
301.705 415.564 L
302.3 441.779 L
302.895 434.194 L
303.49 435.887 L
304.085 435.618 L
304.68 462.053 L
S
GR
GS
[0.75 0 0 0.75 18 230] CT
0 GC
2 LJ
N
304.68 462.053 M
305.275 446.868 L
305.87 409.319 L
306.465 458.02 L
307.06 421.178 L
307.655 397.963 L
308.25 422.235 L
308.845 417.792 L
309.44 465.804 L
310.035 450.552 L
310.63 422.546 L
311.225 437.866 L
311.82 436.156 L
312.415 438.706 L
313.01 418.697 L
313.605 447.611 L
314.2 436.62 L
314.795 445.156 L
315.39 441.831 L
315.985 425.938 L
316.58 433.82 L
317.175 436.463 L
317.77 427.971 L
318.365 447.595 L
318.96 427.045 L
319.555 432.919 L
320.15 441.547 L
320.745 451.52 L
321.34 421.011 L
321.935 419.536 L
322.53 459.402 L
323.125 430.099 L
323.72 431.327 L
324.315 422.656 L
324.91 441.501 L
325.505 427.015 L
326.1 441.469 L
326.695 422.307 L
327.29 416.03 L
327.885 430.663 L
328.48 428.147 L
329.075 442.827 L
329.67 435.091 L
330.265 407.265 L
330.86 447.535 L
331.455 445.077 L
332.05 433.175 L
332.645 428.818 L
333.24 439.548 L
333.835 440.691 L
S
GR
GS
[0.75 0 0 0.75 18 230] CT
0 GC
2 LJ
N
333.835 440.691 M
334.43 427.513 L
335.025 448.884 L
335.62 465.085 L
336.215 425.518 L
336.81 426.79 L
337.405 424.259 L
338 456.623 L
338.595 458.251 L
339.19 434.644 L
339.785 457.399 L
340.38 452.843 L
340.975 427.342 L
341.57 432.076 L
342.165 438.878 L
342.76 446.91 L
343.355 442.939 L
343.95 445.134 L
344.545 426.462 L
345.14 410.645 L
345.735 457.43 L
346.33 427.57 L
346.925 445.335 L
347.52 421.687 L
348.115 468.796 L
348.71 427.367 L
349.305 451.005 L
349.9 415.149 L
350.495 427.482 L
351.09 451.671 L
351.685 414.995 L
352.28 425.337 L
352.875 441.867 L
353.47 435.788 L
354.065 445.069 L
354.66 458.515 L
355.255 438.358 L
355.85 454.423 L
356.445 462.942 L
357.04 441.897 L
357.635 454.551 L
358.23 443.547 L
358.825 452.507 L
359.42 431.449 L
360.015 410.171 L
360.61 453.361 L
361.205 444.195 L
361.8 446.843 L
362.395 429.095 L
362.99 435.072 L
S
GR
GS
[0.75 0 0 0.75 18 230] CT
0 GC
2 LJ
N
362.99 435.072 M
363.585 401.609 L
364.18 403.693 L
364.775 402.802 L
365.37 417.519 L
365.965 424.903 L
366.56 448.388 L
367.155 447.677 L
367.75 416.749 L
368.345 473.2 L
368.94 430.926 L
369.535 434.308 L
370.13 420.357 L
370.725 426.418 L
371.32 431.861 L
371.915 401.93 L
372.51 464.838 L
373.105 427.3 L
373.7 407.31 L
374.295 429.327 L
374.89 450.023 L
375.485 424.214 L
376.08 442.706 L
376.675 452.688 L
377.27 436.163 L
377.865 424.604 L
378.46 436.315 L
379.055 427.143 L
379.65 434.586 L
380.245 419.306 L
380.84 449.221 L
381.435 426.53 L
382.03 420.012 L
382.625 439.903 L
383.22 469.761 L
383.815 426.46 L
384.41 468.559 L
385.005 417.745 L
385.6 432.124 L
386.195 429.797 L
386.79 407.498 L
387.385 461.793 L
387.98 418.016 L
388.575 434.367 L
389.17 406.401 L
389.765 427.757 L
390.36 445.02 L
390.955 434.322 L
391.55 447.31 L
392.145 428.115 L
S
GR
GS
[0.75 0 0 0.75 18 230] CT
0 GC
2 LJ
N
392.145 428.115 M
392.74 420.427 L
393.335 447.976 L
393.93 423.37 L
394.525 432.886 L
395.12 428.294 L
395.715 423.061 L
396.31 419.733 L
396.905 434.941 L
397.5 431.075 L
398.095 444.991 L
398.69 431.609 L
399.285 419.617 L
399.88 421.528 L
400.475 434.322 L
401.07 443.746 L
401.665 421.541 L
402.26 420.585 L
402.855 426.765 L
403.45 420.029 L
404.045 416.018 L
404.64 462.694 L
405.235 414.492 L
405.83 438.449 L
406.425 411.6 L
407.02 447.455 L
407.615 409.478 L
408.21 420.246 L
408.805 428.729 L
409.4 413.687 L
409.995 449.216 L
410.59 424.549 L
411.185 421.364 L
411.78 438.426 L
412.375 440.442 L
412.97 449.298 L
413.565 426.709 L
414.16 444.703 L
414.755 457.622 L
415.35 439.486 L
415.945 438.635 L
416.54 460.25 L
417.135 415.246 L
417.73 432.515 L
418.325 430.164 L
418.92 421.648 L
419.515 446.344 L
420.11 482.54 L
420.705 448.206 L
421.3 431.86 L
S
GR
GS
[0.75 0 0 0.75 18 230] CT
0 GC
2 LJ
N
421.3 431.86 M
421.895 468.929 L
422.49 408.502 L
423.085 457.062 L
423.68 438.207 L
424.275 418.193 L
424.87 431.644 L
425.465 429.854 L
426.06 454.752 L
426.655 444.376 L
427.25 406.88 L
427.845 405.497 L
428.44 427.312 L
429.035 426.525 L
429.63 442.054 L
430.225 420.322 L
430.82 426.893 L
431.415 438.782 L
432.01 441.368 L
432.605 451.117 L
433.2 455.07 L
433.795 435.339 L
434.39 450.72 L
434.985 436.531 L
435.58 437.567 L
436.175 430.056 L
436.77 405.502 L
437.365 411.665 L
437.96 446.227 L
438.555 440.858 L
439.15 415.419 L
439.745 446.322 L
440.34 420.833 L
440.935 444.457 L
441.53 428.289 L
442.125 453.397 L
442.72 433.316 L
443.315 432.264 L
443.91 435.65 L
444.505 429.823 L
445.1 452.906 L
445.695 430.939 L
446.29 408.862 L
446.885 433.438 L
447.48 448.012 L
448.075 457.857 L
448.67 437.693 L
449.265 428.502 L
449.86 444.095 L
450.455 434.742 L
S
GR
GS
[0.75 0 0 0.75 18 230] CT
0 GC
2 LJ
N
450.455 434.742 M
451.05 444.287 L
451.645 453.645 L
452.24 435.763 L
452.835 462.399 L
453.43 442.026 L
454.025 416.855 L
454.62 431.276 L
455.215 471.236 L
455.81 461.239 L
456.405 423.427 L
457 437.438 L
457.595 407.004 L
458.19 478.609 L
458.785 421.071 L
459.38 422.574 L
459.975 424.084 L
460.57 452.694 L
461.165 424.888 L
461.76 425.874 L
462.355 445.08 L
462.95 472.587 L
463.545 440.319 L
464.14 425.933 L
464.735 416.475 L
465.33 422.32 L
465.925 436.136 L
466.52 432.883 L
467.115 417.723 L
467.71 427.621 L
468.305 419.214 L
468.9 416.706 L
469.495 430.685 L
470.09 439.1 L
470.685 418.641 L
471.28 413.48 L
471.875 440.695 L
472.47 439.445 L
473.065 459.741 L
473.66 422.958 L
474.255 461.825 L
474.85 414.758 L
475.445 426.835 L
476.04 423.313 L
476.635 413.576 L
477.23 442.335 L
477.825 450.113 L
478.42 418.756 L
479.015 393.641 L
479.61 422.793 L
S
GR
GS
[0.75 0 0 0.75 18 230] CT
0 GC
2 LJ
N
479.61 422.793 M
480.205 434.715 L
480.8 426.544 L
481.395 414.693 L
481.99 404.261 L
482.585 444.588 L
483.18 409.595 L
483.775 419.975 L
484.37 416.504 L
484.965 436.15 L
485.56 418.911 L
486.155 428.246 L
486.75 416.909 L
487.345 431.332 L
487.94 432.124 L
488.535 407.392 L
489.13 414.658 L
489.725 399.98 L
490.32 435.508 L
490.915 455.429 L
491.51 440.705 L
492.105 431.448 L
492.7 417.483 L
493.295 451.498 L
493.89 443.323 L
494.485 446.008 L
495.08 420.471 L
495.675 428.683 L
496.27 417.324 L
496.865 447.364 L
497.46 436.612 L
498.055 449.165 L
498.65 414.149 L
499.245 419.65 L
499.84 442.333 L
500.435 460.524 L
501.03 437.971 L
501.625 411.613 L
502.22 432.52 L
502.815 410.676 L
503.41 416.093 L
504.005 460.276 L
504.6 409.696 L
505.195 427.062 L
505.79 469.696 L
506.385 418.762 L
506.98 434.143 L
507.575 434.124 L
508.17 444.722 L
508.765 443.519 L
S
GR
GS
[0.75 0 0 0.75 18 230] CT
0 GC
2 LJ
N
508.765 443.519 M
509.36 421.372 L
509.955 443.749 L
510.55 413.316 L
511.145 418.236 L
511.74 431.488 L
512.335 438.683 L
512.93 466.556 L
513.525 454.992 L
514.12 411.738 L
514.715 427.619 L
515.31 432.391 L
515.905 392.076 L
516.5 446.44 L
517.095 411.826 L
517.69 433.102 L
518.285 433.552 L
518.88 436.595 L
519.475 422.809 L
520.07 421.542 L
520.665 418.922 L
521.26 411.566 L
521.855 415.932 L
522.45 448.584 L
523.045 458.752 L
523.64 435.041 L
524.235 420.607 L
524.83 388.397 L
525.425 458.55 L
526.02 444.194 L
526.615 429.139 L
527.21 434.948 L
527.805 411.953 L
528.4 433.283 L
528.995 409.377 L
529.59 435.211 L
530.185 420.637 L
530.78 435.178 L
531.375 446.263 L
531.97 430.813 L
532.565 418.275 L
533.16 441.077 L
533.755 432.529 L
534.35 460.426 L
534.945 417.005 L
535.54 424.926 L
536.135 416.398 L
536.73 456.406 L
537.325 423.695 L
537.92 428.282 L
S
GR
GS
[0.75 0 0 0.75 18 230] CT
0 GC
2 LJ
N
537.92 428.282 M
538.515 440.552 L
539.11 441.872 L
539.705 436.222 L
540.3 472.951 L
540.895 413.193 L
541.49 460.503 L
542.085 412.889 L
542.68 440.416 L
543.275 451.637 L
543.87 415.059 L
544.465 412.889 L
545.06 444.953 L
545.655 439.285 L
546.25 442.183 L
546.845 398.875 L
547.44 423.025 L
548.035 453.421 L
548.63 424.51 L
549.225 423.125 L
549.82 408.502 L
550.415 413.777 L
551.01 439.995 L
551.605 434.964 L
552.2 446.564 L
552.795 437.917 L
553.39 410.42 L
553.985 412.462 L
554.58 460.105 L
555.175 458.608 L
555.77 427.278 L
556.365 435.782 L
556.96 459.903 L
557.555 447.786 L
558.15 431.441 L
558.745 438.943 L
559.34 425.783 L
559.935 421.689 L
560.53 431.553 L
561.125 423.09 L
561.72 469.868 L
562.315 402.095 L
562.91 436.893 L
563.505 413.264 L
564.1 431.206 L
564.695 423.595 L
565.29 437.512 L
565.885 445.798 L
566.48 407.672 L
567.075 431.499 L
S
GR
GS
[0.75 0 0 0.75 18 230] CT
0 GC
2 LJ
N
567.075 431.499 M
567.67 452.547 L
568.265 416.3 L
568.86 440.518 L
569.455 441.399 L
570.05 433.557 L
570.645 455.603 L
571.24 461.572 L
571.835 453.134 L
572.43 445.335 L
573.025 396.522 L
573.62 413.544 L
574.215 434.375 L
574.81 448.784 L
575.405 444.659 L
576 438.649 L
576.595 447.168 L
577.19 446.249 L
577.785 452.214 L
578.38 445.446 L
578.975 434.08 L
579.57 461.507 L
580.165 421.535 L
580.76 424.94 L
581.355 431.875 L
581.95 459.22 L
582.545 432.806 L
583.14 446.201 L
583.735 423.419 L
584.33 401.855 L
584.925 432.023 L
585.52 430.341 L
586.115 411.8 L
586.71 426.195 L
587.305 404.932 L
587.9 430.392 L
588.495 447.979 L
589.09 422.89 L
589.685 401.883 L
590.28 410.59 L
590.875 440.695 L
591.47 463.907 L
592.065 408.941 L
592.66 428.294 L
593.255 456.01 L
593.85 418.676 L
594.445 457.711 L
595.04 429.433 L
595.635 436.82 L
596.23 448.893 L
S
GR
GS
[0.75 0 0 0.75 18 230] CT
0 GC
2 LJ
N
596.23 448.893 M
596.825 445.896 L
597.42 435.475 L
598.015 443.786 L
598.61 431.08 L
599.205 415.509 L
599.8 434.677 L
600.395 431.363 L
600.99 461.091 L
601.585 406.663 L
602.18 441.063 L
602.775 445.868 L
603.37 443.187 L
603.965 420.374 L
604.56 438.093 L
605.155 436.25 L
605.75 453.187 L
606.345 440.924 L
606.94 433.316 L
607.535 404.348 L
608.13 443.244 L
608.725 440.655 L
609.32 444.291 L
609.915 430.803 L
610.51 444.199 L
611.105 413.484 L
611.7 415.576 L
612.295 410.486 L
612.89 443.149 L
613.485 439.231 L
614.08 424.64 L
614.675 440.426 L
615.27 398.536 L
615.865 431.014 L
616.46 413.629 L
617.055 453.617 L
617.65 456.422 L
618.245 437.259 L
618.84 434.346 L
619.435 459.5 L
620.03 452.829 L
620.625 420.364 L
621.22 417.105 L
621.815 431.246 L
622.41 417.368 L
623.005 439.978 L
623.6 416.234 L
624.195 434.921 L
624.79 443.638 L
625.385 426.955 L
S
GR
GS
[0.75 0 0 0.75 18 230] CT
0 GC
2 LJ
N
625.385 426.955 M
625.98 451.421 L
626.575 411.585 L
627.17 452.99 L
627.765 406.712 L
628.36 439.314 L
628.955 429.56 L
629.55 445.369 L
630.145 424.996 L
630.74 432.18 L
631.335 421.186 L
631.93 433.59 L
632.525 429.149 L
633.12 449.773 L
633.715 450.31 L
634.31 434 L
634.905 426.988 L
635.5 431.022 L
636.095 450.774 L
636.69 434.715 L
637.285 419.66 L
637.88 450.828 L
638.475 460.164 L
639.07 424.031 L
639.665 429.648 L
640.26 421.004 L
640.855 416.407 L
641.45 433.454 L
642.045 455.492 L
642.64 407.172 L
643.235 433.597 L
643.83 412.624 L
644.425 468.686 L
645.02 455.372 L
645.615 469.41 L
646.21 459.09 L
646.805 455.673 L
647.4 459.429 L
647.995 436.135 L
648.59 418.571 L
649.185 405.273 L
649.78 439.362 L
650.375 436.617 L
650.97 422.544 L
651.565 436.995 L
652.16 431.517 L
652.755 419.348 L
653.35 433.693 L
653.945 440.834 L
654.54 439.979 L
S
GR
GS
[0.75 0 0 0.75 18 230] CT
0 GC
2 LJ
N
654.54 439.979 M
655.135 442.036 L
655.73 436.696 L
656.325 425.664 L
656.92 455.295 L
657.515 439.712 L
658.11 434.465 L
658.705 435.756 L
659.3 423.566 L
659.895 438.802 L
660.49 413.292 L
661.085 436.65 L
661.68 436.315 L
662.275 433.754 L
662.87 428.771 L
663.465 416.767 L
664.06 431.88 L
664.655 408.202 L
665.25 434.133 L
665.845 454.347 L
666.44 438.502 L
667.035 428.899 L
667.63 441.674 L
668.225 429.025 L
668.82 452.568 L
669.415 441.682 L
670.01 437.827 L
670.605 418.468 L
671.2 457.757 L
671.795 426.508 L
672.39 431.752 L
672.985 449.201 L
673.58 438.469 L
674.175 450.562 L
674.77 441.108 L
675.365 467.123 L
675.96 423.415 L
676.555 437.46 L
677.15 463.824 L
677.745 423.311 L
678.34 440.864 L
678.935 442.111 L
679.53 422.966 L
680.125 427.042 L
680.72 456.918 L
681.315 424.336 L
681.91 432.186 L
682.505 440.901 L
683.1 424.11 L
683.695 444.545 L
S
GR
GS
[0.75 0 0 0.75 18 230] CT
0 GC
2 LJ
N
683.695 444.545 M
684.29 429.023 L
684.885 447.724 L
685.48 418.119 L
686.075 424.54 L
686.67 408.442 L
687.265 404.948 L
687.86 433.748 L
688.455 462.328 L
689.05 433.559 L
689.645 439.094 L
690.24 423.501 L
690.835 421.264 L
691.43 432.491 L
692.025 438.161 L
692.62 429.344 L
693.215 439.209 L
693.81 439.993 L
694.405 411.218 L
695 436.256 L
S
GR
GS
[0.75 0 0 0.75 316.12527 260.18751] CT
0 GC
/Helvetica-Bold 15 F
GS
[1 0 0 1 0 0] CT
-282.5 -4 moveto 
1 -1 scale
(Original<->Extracted Watermark Correlation Coefficents Alpha:0.5 Position:100) t 
GR
GR
showpage
%%Trailer
%%BoundingBox: 77 210 550 596
%%Pages: 1
%%EOF
