%!PS-Adobe-3.0
%%Creator: (MATLAB, The Mathworks, Inc. Version 8.5.0.197613 \(R2015a\). Operating System: Windows 7)
%%Title: ./output/WmIm_05_100/unrelatedWatermarkCorrelationCoefficient.eps
%%CreationDate: 2015-11-04T23:49:18
%%Pages: (atend)
%%BoundingBox: (atend)
%%LanguageLevel: 3
%%EndComments
%%BeginDefaults
%%EndDefaults
%%BeginProlog
%%EndProlog
%%BeginSetup
%%BeginResource: procset (Apache XML Graphics Std ProcSet) 1.2 0
%%Version: 1.2 0
%%Copyright: (Copyright 2001-2003,2010 The Apache Software Foundation. License terms: http://www.apache.org/licenses/LICENSE-2.0)
/bd{bind def}bind def
/ld{load def}bd
/GR/grestore ld
/M/moveto ld
/LJ/setlinejoin ld
/C/curveto ld
/f/fill ld
/LW/setlinewidth ld
/GC/setgray ld
/t/show ld
/N/newpath ld
/CT/concat ld
/cp/closepath ld
/S/stroke ld
/L/lineto ld
/CC/setcmykcolor ld
/A/ashow ld
/GS/gsave ld
/RC/setrgbcolor ld
/RM/rmoveto ld
/ML/setmiterlimit ld
/re {4 2 roll M
1 index 0 rlineto
0 exch rlineto
neg 0 rlineto
cp } bd
/_ctm matrix def
/_tm matrix def
/BT { _ctm currentmatrix pop matrix _tm copy pop 0 0 moveto } bd
/ET { _ctm setmatrix } bd
/iTm { _ctm setmatrix _tm concat } bd
/Tm { _tm astore pop iTm 0 0 moveto } bd
/ux 0.0 def
/uy 0.0 def
/F {
  /Tp exch def
  /Tf exch def
  Tf findfont Tp scalefont setfont
  /cf Tf def  /cs Tp def
} bd
/ULS {currentpoint /uy exch def /ux exch def} bd
/ULE {
  /Tcx currentpoint pop def
  gsave
  newpath
  cf findfont cs scalefont dup
  /FontMatrix get 0 get /Ts exch def /FontInfo get dup
  /UnderlinePosition get Ts mul /To exch def
  /UnderlineThickness get Ts mul /Tt exch def
  ux uy To add moveto  Tcx uy To add lineto
  Tt setlinewidth stroke
  grestore
} bd
/OLE {
  /Tcx currentpoint pop def
  gsave
  newpath
  cf findfont cs scalefont dup
  /FontMatrix get 0 get /Ts exch def /FontInfo get dup
  /UnderlinePosition get Ts mul /To exch def
  /UnderlineThickness get Ts mul /Tt exch def
  ux uy To add cs add moveto Tcx uy To add cs add lineto
  Tt setlinewidth stroke
  grestore
} bd
/SOE {
  /Tcx currentpoint pop def
  gsave
  newpath
  cf findfont cs scalefont dup
  /FontMatrix get 0 get /Ts exch def /FontInfo get dup
  /UnderlinePosition get Ts mul /To exch def
  /UnderlineThickness get Ts mul /Tt exch def
  ux uy To add cs 10 mul 26 idiv add moveto Tcx uy To add cs 10 mul 26 idiv add lineto
  Tt setlinewidth stroke
  grestore
} bd
/QT {
/Y22 exch store
/X22 exch store
/Y21 exch store
/X21 exch store
currentpoint
/Y21 load 2 mul add 3 div exch
/X21 load 2 mul add 3 div exch
/X21 load 2 mul /X22 load add 3 div
/Y21 load 2 mul /Y22 load add 3 div
/X22 load /Y22 load curveto
} bd
/SSPD {
dup length /d exch dict def
{
/v exch def
/k exch def
currentpagedevice k known {
/cpdv currentpagedevice k get def
v cpdv ne {
/upd false def
/nullv v type /nulltype eq def
/nullcpdv cpdv type /nulltype eq def
nullv nullcpdv or
{
/upd true def
} {
/sametype v type cpdv type eq def
sametype {
v type /arraytype eq {
/vlen v length def
/cpdvlen cpdv length def
vlen cpdvlen eq {
0 1 vlen 1 sub {
/i exch def
/obj v i get def
/cpdobj cpdv i get def
obj cpdobj ne {
/upd true def
exit
} if
} for
} {
/upd true def
} ifelse
} {
v type /dicttype eq {
v {
/dv exch def
/dk exch def
/cpddv cpdv dk get def
dv cpddv ne {
/upd true def
exit
} if
} forall
} {
/upd true def
} ifelse
} ifelse
} if
} ifelse
upd true eq {
d k v put
} if
} if
} if
} forall
d length 0 gt {
d setpagedevice
} if
} bd
%%EndResource
%%BeginResource: procset (Apache XML Graphics EPS ProcSet) 1.0 0
%%Version: 1.0 0
%%Copyright: (Copyright 2002-2003 The Apache Software Foundation. License terms: http://www.apache.org/licenses/LICENSE-2.0)
/BeginEPSF { %def
/b4_Inc_state save def         % Save state for cleanup
/dict_count countdictstack def % Count objects on dict stack
/op_count count 1 sub def      % Count objects on operand stack
userdict begin                 % Push userdict on dict stack
/showpage { } def              % Redefine showpage, { } = null proc
0 setgray 0 setlinecap         % Prepare graphics state
1 setlinewidth 0 setlinejoin
10 setmiterlimit [ ] 0 setdash newpath
/languagelevel where           % If level not equal to 1 then
{pop languagelevel             % set strokeadjust and
1 ne                           % overprint to their defaults.
{false setstrokeadjust false setoverprint
} if
} if
} bd
/EndEPSF { %def
count op_count sub {pop} repeat            % Clean up stacks
countdictstack dict_count sub {end} repeat
b4_Inc_state restore
} bd
%%EndResource
%FOPBeginFontDict
%%IncludeResource: font Courier-Bold
%%IncludeResource: font Helvetica
%%IncludeResource: font Courier-BoldOblique
%%IncludeResource: font Courier-Oblique
%%IncludeResource: font Times-Roman
%%IncludeResource: font Helvetica-BoldOblique
%%IncludeResource: font Helvetica-Bold
%%IncludeResource: font Helvetica-Oblique
%%IncludeResource: font Times-BoldItalic
%%IncludeResource: font Courier
%%IncludeResource: font Times-Italic
%%IncludeResource: font Times-Bold
%%IncludeResource: font Symbol
%%IncludeResource: font ZapfDingbats
%FOPEndFontDict
%%BeginResource: encoding WinAnsiEncoding
/WinAnsiEncoding [
/.notdef /.notdef /.notdef /.notdef /.notdef
/.notdef /.notdef /.notdef /.notdef /.notdef
/.notdef /.notdef /.notdef /.notdef /.notdef
/.notdef /.notdef /.notdef /.notdef /.notdef
/.notdef /.notdef /.notdef /.notdef /.notdef
/.notdef /.notdef /.notdef /.notdef /.notdef
/.notdef /.notdef /space /exclam /quotedbl
/numbersign /dollar /percent /ampersand /quotesingle
/parenleft /parenright /asterisk /plus /comma
/hyphen /period /slash /zero /one
/two /three /four /five /six
/seven /eight /nine /colon /semicolon
/less /equal /greater /question /at
/A /B /C /D /E
/F /G /H /I /J
/K /L /M /N /O
/P /Q /R /S /T
/U /V /W /X /Y
/Z /bracketleft /backslash /bracketright /asciicircum
/underscore /quoteleft /a /b /c
/d /e /f /g /h
/i /j /k /l /m
/n /o /p /q /r
/s /t /u /v /w
/x /y /z /braceleft /bar
/braceright /asciitilde /bullet /Euro /bullet
/quotesinglbase /florin /quotedblbase /ellipsis /dagger
/daggerdbl /circumflex /perthousand /Scaron /guilsinglleft
/OE /bullet /Zcaron /bullet /bullet
/quoteleft /quoteright /quotedblleft /quotedblright /bullet
/endash /emdash /asciitilde /trademark /scaron
/guilsinglright /oe /bullet /zcaron /Ydieresis
/space /exclamdown /cent /sterling /currency
/yen /brokenbar /section /dieresis /copyright
/ordfeminine /guillemotleft /logicalnot /sfthyphen /registered
/macron /degree /plusminus /twosuperior /threesuperior
/acute /mu /paragraph /middot /cedilla
/onesuperior /ordmasculine /guillemotright /onequarter /onehalf
/threequarters /questiondown /Agrave /Aacute /Acircumflex
/Atilde /Adieresis /Aring /AE /Ccedilla
/Egrave /Eacute /Ecircumflex /Edieresis /Igrave
/Iacute /Icircumflex /Idieresis /Eth /Ntilde
/Ograve /Oacute /Ocircumflex /Otilde /Odieresis
/multiply /Oslash /Ugrave /Uacute /Ucircumflex
/Udieresis /Yacute /Thorn /germandbls /agrave
/aacute /acircumflex /atilde /adieresis /aring
/ae /ccedilla /egrave /eacute /ecircumflex
/edieresis /igrave /iacute /icircumflex /idieresis
/eth /ntilde /ograve /oacute /ocircumflex
/otilde /odieresis /divide /oslash /ugrave
/uacute /ucircumflex /udieresis /yacute /thorn
/ydieresis
] def
%%EndResource
%FOPBeginFontReencode
/Courier-Bold findfont
dup length dict begin
  {1 index /FID ne {def} {pop pop} ifelse} forall
  /Encoding WinAnsiEncoding def
  currentdict
end
/Courier-Bold exch definefont pop
/Helvetica findfont
dup length dict begin
  {1 index /FID ne {def} {pop pop} ifelse} forall
  /Encoding WinAnsiEncoding def
  currentdict
end
/Helvetica exch definefont pop
/Courier-BoldOblique findfont
dup length dict begin
  {1 index /FID ne {def} {pop pop} ifelse} forall
  /Encoding WinAnsiEncoding def
  currentdict
end
/Courier-BoldOblique exch definefont pop
/Courier-Oblique findfont
dup length dict begin
  {1 index /FID ne {def} {pop pop} ifelse} forall
  /Encoding WinAnsiEncoding def
  currentdict
end
/Courier-Oblique exch definefont pop
/Times-Roman findfont
dup length dict begin
  {1 index /FID ne {def} {pop pop} ifelse} forall
  /Encoding WinAnsiEncoding def
  currentdict
end
/Times-Roman exch definefont pop
/Helvetica-BoldOblique findfont
dup length dict begin
  {1 index /FID ne {def} {pop pop} ifelse} forall
  /Encoding WinAnsiEncoding def
  currentdict
end
/Helvetica-BoldOblique exch definefont pop
/Helvetica-Bold findfont
dup length dict begin
  {1 index /FID ne {def} {pop pop} ifelse} forall
  /Encoding WinAnsiEncoding def
  currentdict
end
/Helvetica-Bold exch definefont pop
/Helvetica-Oblique findfont
dup length dict begin
  {1 index /FID ne {def} {pop pop} ifelse} forall
  /Encoding WinAnsiEncoding def
  currentdict
end
/Helvetica-Oblique exch definefont pop
/Times-BoldItalic findfont
dup length dict begin
  {1 index /FID ne {def} {pop pop} ifelse} forall
  /Encoding WinAnsiEncoding def
  currentdict
end
/Times-BoldItalic exch definefont pop
/Courier findfont
dup length dict begin
  {1 index /FID ne {def} {pop pop} ifelse} forall
  /Encoding WinAnsiEncoding def
  currentdict
end
/Courier exch definefont pop
/Times-Italic findfont
dup length dict begin
  {1 index /FID ne {def} {pop pop} ifelse} forall
  /Encoding WinAnsiEncoding def
  currentdict
end
/Times-Italic exch definefont pop
/Times-Bold findfont
dup length dict begin
  {1 index /FID ne {def} {pop pop} ifelse} forall
  /Encoding WinAnsiEncoding def
  currentdict
end
/Times-Bold exch definefont pop
%FOPEndFontReencode
%%EndSetup
%%Page: 1 1
%%PageBoundingBox: 0 0 595 842
%%BeginPageSetup
<<
/PageSize [595 842]
/ImagingBBox null
>> setpagedevice
[1 0 0 -1 0 842] CT
%%EndPageSetup
GS
[0.75 0 0 0.75 18 230] CT
0.997 GC
N
0 0 768 576 re
f
GR
GS
[0.75 0 0 0.75 18 230] CT
0.997 GC
N
0 0 768 576 re
f
GR
GS
[0.75 0 0 0.75 18 230] CT
0.997 GC
N
100 513 M
695 513 L
695 43 L
100 43 L
cp
f
GR
GS
[0.75 0 0 0.75 18 230] CT
0 GC
2 setlinecap
10.0 ML
N
100 513 M
695 513 L
S
GR
GS
[0.75 0 0 0.75 18 230] CT
0 GC
2 setlinecap
10.0 ML
N
100 43 M
695 43 L
S
GR
GS
[0.75 0 0 0.75 18 230] CT
0 GC
2 setlinecap
10.0 ML
N
100 513 M
100 507.05 L
S
GR
GS
[0.75 0 0 0.75 18 230] CT
0 GC
2 setlinecap
10.0 ML
N
159.5 513 M
159.5 507.05 L
S
GR
GS
[0.75 0 0 0.75 18 230] CT
0 GC
2 setlinecap
10.0 ML
N
219 513 M
219 507.05 L
S
GR
GS
[0.75 0 0 0.75 18 230] CT
0 GC
2 setlinecap
10.0 ML
N
278.5 513 M
278.5 507.05 L
S
GR
GS
[0.75 0 0 0.75 18 230] CT
0 GC
2 setlinecap
10.0 ML
N
338 513 M
338 507.05 L
S
GR
GS
[0.75 0 0 0.75 18 230] CT
0 GC
2 setlinecap
10.0 ML
N
397.5 513 M
397.5 507.05 L
S
GR
GS
[0.75 0 0 0.75 18 230] CT
0 GC
2 setlinecap
10.0 ML
N
457 513 M
457 507.05 L
S
GR
GS
[0.75 0 0 0.75 18 230] CT
0 GC
2 setlinecap
10.0 ML
N
516.5 513 M
516.5 507.05 L
S
GR
GS
[0.75 0 0 0.75 18 230] CT
0 GC
2 setlinecap
10.0 ML
N
576 513 M
576 507.05 L
S
GR
GS
[0.75 0 0 0.75 18 230] CT
0 GC
2 setlinecap
10.0 ML
N
635.5 513 M
635.5 507.05 L
S
GR
GS
[0.75 0 0 0.75 18 230] CT
0 GC
2 setlinecap
10.0 ML
N
695 513 M
695 507.05 L
S
GR
GS
[0.75 0 0 0.75 18 230] CT
0 GC
2 setlinecap
10.0 ML
N
100 43 M
100 48.95 L
S
GR
GS
[0.75 0 0 0.75 18 230] CT
0 GC
2 setlinecap
10.0 ML
N
159.5 43 M
159.5 48.95 L
S
GR
GS
[0.75 0 0 0.75 18 230] CT
0 GC
2 setlinecap
10.0 ML
N
219 43 M
219 48.95 L
S
GR
GS
[0.75 0 0 0.75 18 230] CT
0 GC
2 setlinecap
10.0 ML
N
278.5 43 M
278.5 48.95 L
S
GR
GS
[0.75 0 0 0.75 18 230] CT
0 GC
2 setlinecap
10.0 ML
N
338 43 M
338 48.95 L
S
GR
GS
[0.75 0 0 0.75 18 230] CT
0 GC
2 setlinecap
10.0 ML
N
397.5 43 M
397.5 48.95 L
S
GR
GS
[0.75 0 0 0.75 18 230] CT
0 GC
2 setlinecap
10.0 ML
N
457 43 M
457 48.95 L
S
GR
GS
[0.75 0 0 0.75 18 230] CT
0 GC
2 setlinecap
10.0 ML
N
516.5 43 M
516.5 48.95 L
S
GR
GS
[0.75 0 0 0.75 18 230] CT
0 GC
2 setlinecap
10.0 ML
N
576 43 M
576 48.95 L
S
GR
GS
[0.75 0 0 0.75 18 230] CT
0 GC
2 setlinecap
10.0 ML
N
635.5 43 M
635.5 48.95 L
S
GR
GS
[0.75 0 0 0.75 18 230] CT
0 GC
2 setlinecap
10.0 ML
N
695 43 M
695 48.95 L
S
GR
GS
[0.75 0 0 0.75 93 618.74998] CT
0 GC
/Helvetica 13 F
GS
[1 0 0 1 0 0] CT
-4 14 moveto 
1 -1 scale
(0) t 
GR
GR
GS
[0.75 0 0 0.75 137.625 618.74998] CT
0 GC
/Helvetica 13 F
GS
[1 0 0 1 0 0] CT
-11 14 moveto 
1 -1 scale
(100) t 
GR
GR
GS
[0.75 0 0 0.75 182.25 618.74998] CT
0 GC
/Helvetica 13 F
GS
[1 0 0 1 0 0] CT
-11 14 moveto 
1 -1 scale
(200) t 
GR
GR
GS
[0.75 0 0 0.75 226.875 618.74998] CT
0 GC
/Helvetica 13 F
GS
[1 0 0 1 0 0] CT
-11 14 moveto 
1 -1 scale
(300) t 
GR
GR
GS
[0.75 0 0 0.75 271.5 618.74998] CT
0 GC
/Helvetica 13 F
GS
[1 0 0 1 0 0] CT
-11 14 moveto 
1 -1 scale
(400) t 
GR
GR
GS
[0.75 0 0 0.75 316.125 618.74998] CT
0 GC
/Helvetica 13 F
GS
[1 0 0 1 0 0] CT
-11 14 moveto 
1 -1 scale
(500) t 
GR
GR
GS
[0.75 0 0 0.75 360.75 618.74998] CT
0 GC
/Helvetica 13 F
GS
[1 0 0 1 0 0] CT
-11 14 moveto 
1 -1 scale
(600) t 
GR
GR
GS
[0.75 0 0 0.75 405.375 618.74998] CT
0 GC
/Helvetica 13 F
GS
[1 0 0 1 0 0] CT
-11 14 moveto 
1 -1 scale
(700) t 
GR
GR
GS
[0.75 0 0 0.75 450 618.74998] CT
0 GC
/Helvetica 13 F
GS
[1 0 0 1 0 0] CT
-11 14 moveto 
1 -1 scale
(800) t 
GR
GR
GS
[0.75 0 0 0.75 494.625 618.74998] CT
0 GC
/Helvetica 13 F
GS
[1 0 0 1 0 0] CT
-11 14 moveto 
1 -1 scale
(900) t 
GR
GR
GS
[0.75 0 0 0.75 539.25 618.74998] CT
0 GC
/Helvetica 13 F
GS
[1 0 0 1 0 0] CT
-14.5 14 moveto 
1 -1 scale
(1000) t 
GR
GR
GS
[0.75 0 0 0.75 18 230] CT
0 GC
2 setlinecap
10.0 ML
N
100 513 M
100 43 L
S
GR
GS
[0.75 0 0 0.75 18 230] CT
0 GC
2 setlinecap
10.0 ML
N
695 513 M
695 43 L
S
GR
GS
[0.75 0 0 0.75 18 230] CT
0 GC
2 setlinecap
10.0 ML
N
100 513 M
105.95 513 L
S
GR
GS
[0.75 0 0 0.75 18 230] CT
0 GC
2 setlinecap
10.0 ML
N
100 445.857 M
105.95 445.857 L
S
GR
GS
[0.75 0 0 0.75 18 230] CT
0 GC
2 setlinecap
10.0 ML
N
100 378.714 M
105.95 378.714 L
S
GR
GS
[0.75 0 0 0.75 18 230] CT
0 GC
2 setlinecap
10.0 ML
N
100 311.571 M
105.95 311.571 L
S
GR
GS
[0.75 0 0 0.75 18 230] CT
0 GC
2 setlinecap
10.0 ML
N
100 244.429 M
105.95 244.429 L
S
GR
GS
[0.75 0 0 0.75 18 230] CT
0 GC
2 setlinecap
10.0 ML
N
100 177.286 M
105.95 177.286 L
S
GR
GS
[0.75 0 0 0.75 18 230] CT
0 GC
2 setlinecap
10.0 ML
N
100 110.143 M
105.95 110.143 L
S
GR
GS
[0.75 0 0 0.75 18 230] CT
0 GC
2 setlinecap
10.0 ML
N
100 43 M
105.95 43 L
S
GR
GS
[0.75 0 0 0.75 18 230] CT
0 GC
2 setlinecap
10.0 ML
N
695 513 M
689.05 513 L
S
GR
GS
[0.75 0 0 0.75 18 230] CT
0 GC
2 setlinecap
10.0 ML
N
695 445.857 M
689.05 445.857 L
S
GR
GS
[0.75 0 0 0.75 18 230] CT
0 GC
2 setlinecap
10.0 ML
N
695 378.714 M
689.05 378.714 L
S
GR
GS
[0.75 0 0 0.75 18 230] CT
0 GC
2 setlinecap
10.0 ML
N
695 311.571 M
689.05 311.571 L
S
GR
GS
[0.75 0 0 0.75 18 230] CT
0 GC
2 setlinecap
10.0 ML
N
695 244.429 M
689.05 244.429 L
S
GR
GS
[0.75 0 0 0.75 18 230] CT
0 GC
2 setlinecap
10.0 ML
N
695 177.286 M
689.05 177.286 L
S
GR
GS
[0.75 0 0 0.75 18 230] CT
0 GC
2 setlinecap
10.0 ML
N
695 110.143 M
689.05 110.143 L
S
GR
GS
[0.75 0 0 0.75 18 230] CT
0 GC
2 setlinecap
10.0 ML
N
695 43 M
689.05 43 L
S
GR
GS
[0.75 0 0 0.75 89 614.75] CT
0 GC
/Helvetica 13 F
GS
[1 0 0 1 0 0] CT
-12 5.5 moveto 
1 -1 scale
(-4) t 
GR
GR
GS
[0.75 0 0 0.75 89 564.39286] CT
0 GC
/Helvetica 13 F
GS
[1 0 0 1 0 0] CT
-12 5.5 moveto 
1 -1 scale
(-3) t 
GR
GR
GS
[0.75 0 0 0.75 89 514.03572] CT
0 GC
/Helvetica 13 F
GS
[1 0 0 1 0 0] CT
-12 5.5 moveto 
1 -1 scale
(-2) t 
GR
GR
GS
[0.75 0 0 0.75 89 463.67858] CT
0 GC
/Helvetica 13 F
GS
[1 0 0 1 0 0] CT
-12 5.5 moveto 
1 -1 scale
(-1) t 
GR
GR
GS
[0.75 0 0 0.75 89 413.32143] CT
0 GC
/Helvetica 13 F
GS
[1 0 0 1 0 0] CT
-8 5.5 moveto 
1 -1 scale
(0) t 
GR
GR
GS
[0.75 0 0 0.75 89 362.96429] CT
0 GC
/Helvetica 13 F
GS
[1 0 0 1 0 0] CT
-8 5.5 moveto 
1 -1 scale
(1) t 
GR
GR
GS
[0.75 0 0 0.75 89 312.60715] CT
0 GC
/Helvetica 13 F
GS
[1 0 0 1 0 0] CT
-8 5.5 moveto 
1 -1 scale
(2) t 
GR
GR
GS
[0.75 0 0 0.75 89 262.25] CT
0 GC
/Helvetica 13 F
GS
[1 0 0 1 0 0] CT
-8 5.5 moveto 
1 -1 scale
(3) t 
GR
GR
GS
[0.75 0 0 0.75 18 230] CT
0 GC
2 LJ
N
100.595 257.2 M
101.19 308.42 L
101.785 253.236 L
102.38 270.334 L
102.975 285.572 L
103.57 251.743 L
104.165 217.93 L
104.76 303.449 L
105.355 272.106 L
105.95 307.853 L
106.545 326.747 L
107.14 158.568 L
107.735 146.279 L
108.33 301.876 L
108.925 291.134 L
109.52 195.898 L
110.115 184.151 L
110.71 216.414 L
111.305 172.933 L
111.9 208.658 L
112.495 215.556 L
113.09 405.747 L
113.685 217.779 L
114.28 104.725 L
114.875 385.258 L
115.47 197.144 L
116.065 139.391 L
116.66 288.272 L
117.255 286.578 L
117.85 297.164 L
118.445 181.67 L
119.04 277.47 L
119.635 189.037 L
120.23 163.003 L
120.825 118.617 L
121.42 61.822 L
122.015 172.276 L
122.61 250.512 L
123.205 184.644 L
123.8 193.756 L
124.395 209.417 L
124.99 278.822 L
125.585 209.746 L
126.18 191.663 L
126.775 206.775 L
127.37 223.103 L
127.965 210.261 L
128.56 162.357 L
129.155 156.482 L
129.75 276.786 L
S
GR
GS
[0.75 0 0 0.75 18 230] CT
0 GC
2 LJ
N
129.75 276.786 M
130.345 315.811 L
130.94 248.838 L
131.535 247.808 L
132.13 252.325 L
132.725 271.23 L
133.32 198.332 L
133.915 314.793 L
134.51 268.047 L
135.105 167.103 L
135.7 140.418 L
136.295 120.851 L
136.89 160.895 L
137.485 131.769 L
138.08 130.195 L
138.675 178.522 L
139.27 168.341 L
139.865 199.495 L
140.46 333.27 L
141.055 206.588 L
141.65 207.191 L
142.245 228.474 L
142.84 317.881 L
143.435 299.864 L
144.03 287.689 L
144.625 198.513 L
145.22 229.442 L
145.815 264.855 L
146.41 309.025 L
147.005 232.257 L
147.6 325.167 L
148.195 332.875 L
148.79 139.665 L
149.385 281.093 L
149.98 295.671 L
150.575 214.402 L
151.17 243.459 L
151.765 321.512 L
152.36 235.156 L
152.955 301.966 L
153.55 293.322 L
154.145 184.068 L
154.74 280.508 L
155.335 316.329 L
155.93 274.541 L
156.525 282.338 L
157.12 221.967 L
157.715 242.129 L
158.31 288.856 L
158.905 150.29 L
S
GR
GS
[0.75 0 0 0.75 18 230] CT
0 GC
2 LJ
N
158.905 150.29 M
159.5 221.43 L
160.095 217.914 L
160.69 212.586 L
161.285 318.494 L
161.88 186.472 L
162.475 271.744 L
163.07 138.641 L
163.665 309.948 L
164.26 265.74 L
164.855 333.436 L
165.45 307.056 L
166.045 216.475 L
166.64 338.567 L
167.235 253.605 L
167.83 341.415 L
168.425 273.297 L
169.02 140.275 L
169.615 279.267 L
170.21 359.511 L
170.805 279.676 L
171.4 394.199 L
171.995 171.837 L
172.59 144.39 L
173.185 212.776 L
173.78 239.324 L
174.375 162.47 L
174.97 210.587 L
175.565 201.533 L
176.16 229.173 L
176.755 125.978 L
177.35 118.256 L
177.945 112.567 L
178.54 252.075 L
179.135 174.862 L
179.73 171.912 L
180.325 166.573 L
180.92 207.252 L
181.515 256.878 L
182.11 321.372 L
182.705 290.419 L
183.3 134.063 L
183.895 239.299 L
184.49 270.205 L
185.085 227.789 L
185.68 357.798 L
186.275 294.847 L
186.87 274.931 L
187.465 168.081 L
188.06 353.146 L
S
GR
GS
[0.75 0 0 0.75 18 230] CT
0 GC
2 LJ
N
188.06 353.146 M
188.655 230.427 L
189.25 292.859 L
189.845 93.867 L
190.44 169.615 L
191.035 169.472 L
191.63 80.479 L
192.225 368.659 L
192.82 210.034 L
193.415 191.233 L
194.01 239.621 L
194.605 226.146 L
195.2 302.436 L
195.795 275.706 L
196.39 241.848 L
196.985 209.825 L
197.58 245.263 L
198.175 268.131 L
198.77 353.432 L
199.365 223.89 L
199.96 184.911 L
200.555 278.77 L
201.15 286.952 L
201.745 226.709 L
202.34 345.075 L
202.935 202.593 L
203.53 89.487 L
204.125 346.025 L
204.72 193.664 L
205.315 164.224 L
205.91 325.997 L
206.505 170.331 L
207.1 227.01 L
207.695 167.77 L
208.29 246.474 L
208.885 141.193 L
209.48 311.948 L
210.075 271.264 L
210.67 193.422 L
211.265 314.864 L
211.86 264.069 L
212.455 188.496 L
213.05 139.394 L
213.645 196.258 L
214.24 251.49 L
214.835 149.164 L
215.43 235.844 L
216.025 185.394 L
216.62 128.596 L
217.215 302.563 L
S
GR
GS
[0.75 0 0 0.75 18 230] CT
0 GC
2 LJ
N
217.215 302.563 M
217.81 233.078 L
218.405 292.226 L
219 267.641 L
219.595 210.772 L
220.19 199.912 L
220.785 212.946 L
221.38 263.656 L
221.975 284.089 L
222.57 317.652 L
223.165 191.258 L
223.76 288.37 L
224.355 342.809 L
224.95 258.479 L
225.545 312.158 L
226.14 327.524 L
226.735 251.912 L
227.33 236.172 L
227.925 176.882 L
228.52 309.732 L
229.115 197.507 L
229.71 238.864 L
230.305 263.568 L
230.9 342.366 L
231.495 234.531 L
232.09 145.351 L
232.685 143.177 L
233.28 142.097 L
233.875 259.71 L
234.47 256.897 L
235.065 152.145 L
235.66 248.387 L
236.255 215.026 L
236.85 384.781 L
237.445 163.637 L
238.04 229.066 L
238.635 193.704 L
239.23 361.737 L
239.825 354.41 L
240.42 343.021 L
241.015 246.581 L
241.61 204.318 L
242.205 258.73 L
242.8 232.61 L
243.395 89.608 L
243.99 346.016 L
244.585 253.635 L
245.18 295.355 L
245.775 156.864 L
246.37 159.132 L
S
GR
GS
[0.75 0 0 0.75 18 230] CT
0 GC
2 LJ
N
246.37 159.132 M
246.965 229.654 L
247.56 320.667 L
248.155 143.852 L
248.75 257.2 L
249.345 260.475 L
249.94 286.369 L
250.535 215.79 L
251.13 381.626 L
251.725 391.618 L
252.32 198.657 L
252.915 286.175 L
253.51 188.38 L
254.105 135.936 L
254.7 319.887 L
255.295 231.816 L
255.89 251.205 L
256.485 147.87 L
257.08 79.272 L
257.675 316.573 L
258.27 169.818 L
258.865 226.396 L
259.46 267.004 L
260.055 304.093 L
260.65 186.174 L
261.245 287.706 L
261.84 311.344 L
262.435 237.539 L
263.03 217.219 L
263.625 237.098 L
264.22 206.919 L
264.815 227.399 L
265.41 246.54 L
266.005 220.198 L
266.6 232.936 L
267.195 184.086 L
267.79 178.321 L
268.385 121.063 L
268.98 161.925 L
269.575 195.554 L
270.17 219.953 L
270.765 189.087 L
271.36 262.271 L
271.955 295.211 L
272.55 217.927 L
273.145 287.429 L
273.74 172.825 L
274.335 263.82 L
274.93 188.397 L
275.525 67.175 L
S
GR
GS
[0.75 0 0 0.75 18 230] CT
0 GC
2 LJ
N
275.525 67.175 M
276.12 292.444 L
276.715 184.046 L
277.31 140.987 L
277.905 200.033 L
278.5 217.765 L
279.095 148.43 L
279.69 180.421 L
280.285 216.62 L
280.88 269.21 L
281.475 171.403 L
282.07 261.334 L
282.665 186.882 L
283.26 245.328 L
283.855 156.516 L
284.45 293.574 L
285.045 163.364 L
285.64 216.88 L
286.235 333.782 L
286.83 219.573 L
287.425 323.729 L
288.02 245.07 L
288.615 303.544 L
289.21 326.155 L
289.805 362.731 L
290.4 227.251 L
290.995 237.244 L
291.59 190.79 L
292.185 202.957 L
292.78 214.495 L
293.375 141.86 L
293.97 210.691 L
294.565 227.117 L
295.16 228.017 L
295.755 289.095 L
296.35 231.864 L
296.945 248.739 L
297.54 352.465 L
298.135 178.753 L
298.73 274.988 L
299.325 120.017 L
299.92 237.331 L
300.515 242.277 L
301.11 256.104 L
301.705 162.558 L
302.3 274.912 L
302.895 242.401 L
303.49 249.657 L
304.085 248.506 L
304.68 361.797 L
S
GR
GS
[0.75 0 0 0.75 18 230] CT
0 GC
2 LJ
N
304.68 361.797 M
305.275 296.722 L
305.87 135.797 L
306.465 344.515 L
307.06 186.622 L
307.655 87.126 L
308.25 191.15 L
308.845 172.107 L
309.44 377.872 L
310.035 312.51 L
310.63 192.483 L
311.225 258.139 L
311.82 250.81 L
312.415 261.741 L
313.01 175.987 L
313.605 299.906 L
314.2 252.799 L
314.795 289.385 L
315.39 275.135 L
315.985 207.022 L
316.58 240.799 L
317.175 252.126 L
317.77 215.732 L
318.365 299.837 L
318.96 211.764 L
319.555 236.94 L
320.15 273.917 L
320.745 316.658 L
321.34 185.904 L
321.935 179.583 L
322.53 350.435 L
323.125 224.853 L
323.72 230.114 L
324.315 192.955 L
324.91 273.717 L
325.505 211.637 L
326.1 273.583 L
326.695 191.46 L
327.29 164.556 L
327.885 227.268 L
328.48 216.486 L
329.075 279.402 L
329.67 246.247 L
330.265 126.994 L
330.86 299.577 L
331.455 289.043 L
332.05 238.034 L
332.645 219.361 L
333.24 265.349 L
333.835 270.249 L
S
GR
GS
[0.75 0 0 0.75 18 230] CT
0 GC
2 LJ
N
333.835 270.249 M
334.43 213.771 L
335.025 305.362 L
335.62 374.794 L
336.215 205.219 L
336.81 210.671 L
337.405 199.822 L
338 338.529 L
338.595 345.504 L
339.19 244.333 L
339.785 341.854 L
340.38 322.328 L
340.975 213.038 L
341.57 233.325 L
342.165 262.476 L
342.76 296.901 L
343.355 279.882 L
343.95 289.289 L
344.545 209.266 L
345.14 141.48 L
345.735 341.986 L
346.33 214.016 L
346.925 290.152 L
347.52 188.801 L
348.115 390.698 L
348.71 213.143 L
349.305 314.452 L
349.9 160.78 L
350.495 213.638 L
351.09 317.305 L
351.685 160.12 L
352.28 204.445 L
352.875 275.289 L
353.47 249.236 L
354.065 289.009 L
354.66 346.638 L
355.255 260.25 L
355.85 329.096 L
356.445 365.609 L
357.04 275.414 L
357.635 329.646 L
358.23 282.487 L
358.825 320.886 L
359.42 230.639 L
360.015 139.446 L
360.61 324.548 L
361.205 285.263 L
361.8 296.613 L
362.395 220.549 L
362.99 246.167 L
S
GR
GS
[0.75 0 0 0.75 18 230] CT
0 GC
2 LJ
N
362.99 246.167 M
363.585 102.752 L
364.18 111.686 L
364.775 107.865 L
365.37 170.937 L
365.965 202.582 L
366.56 303.236 L
367.155 300.188 L
367.75 167.638 L
368.345 409.571 L
368.94 228.397 L
369.535 242.893 L
370.13 183.103 L
370.725 209.078 L
371.32 232.403 L
371.915 104.129 L
372.51 373.735 L
373.105 212.859 L
373.7 127.185 L
374.295 221.544 L
374.89 310.241 L
375.485 199.632 L
376.08 278.884 L
376.675 321.661 L
377.27 250.84 L
377.865 201.303 L
378.46 251.491 L
379.055 212.184 L
379.65 244.082 L
380.245 178.597 L
380.84 306.805 L
381.435 209.559 L
382.03 181.625 L
382.625 266.872 L
383.22 394.831 L
383.815 209.256 L
384.41 389.683 L
385.005 171.905 L
385.6 233.531 L
386.195 223.557 L
386.79 127.992 L
387.385 360.683 L
387.98 173.067 L
388.575 243.143 L
389.17 123.292 L
389.765 214.815 L
390.36 288.8 L
390.955 242.949 L
391.55 298.616 L
392.145 216.349 L
S
GR
GS
[0.75 0 0 0.75 18 230] CT
0 GC
2 LJ
N
392.145 216.349 M
392.74 183.399 L
393.335 301.469 L
393.93 196.012 L
394.525 236.797 L
395.12 217.116 L
395.715 194.691 L
396.31 180.428 L
396.905 245.603 L
397.5 229.034 L
398.095 288.674 L
398.69 231.322 L
399.285 179.928 L
399.88 188.122 L
400.475 242.953 L
401.07 283.338 L
401.665 188.176 L
402.26 184.077 L
402.855 210.566 L
403.45 181.697 L
404.045 164.506 L
404.64 364.545 L
405.235 157.965 L
405.83 260.639 L
406.425 145.571 L
407.02 299.234 L
407.615 136.476 L
408.21 182.625 L
408.805 218.982 L
409.4 154.516 L
409.995 306.781 L
410.59 201.067 L
411.185 187.416 L
411.78 260.539 L
412.375 269.181 L
412.97 307.133 L
413.565 210.323 L
414.16 287.443 L
414.755 342.807 L
415.35 265.082 L
415.945 261.435 L
416.54 354.071 L
417.135 161.199 L
417.73 235.209 L
418.325 225.131 L
418.92 188.635 L
419.515 294.476 L
420.11 449.602 L
420.705 302.453 L
421.3 232.402 L
S
GR
GS
[0.75 0 0 0.75 18 230] CT
0 GC
2 LJ
N
421.3 232.402 M
421.895 391.266 L
422.49 132.294 L
423.085 340.407 L
423.68 259.602 L
424.275 173.827 L
424.87 231.474 L
425.465 223.804 L
426.06 330.509 L
426.655 286.042 L
427.25 125.342 L
427.845 119.414 L
428.44 212.91 L
429.035 209.535 L
429.63 276.089 L
430.225 182.952 L
430.82 211.114 L
431.415 262.064 L
432.01 273.147 L
432.605 314.928 L
433.2 331.873 L
433.795 247.312 L
434.39 313.23 L
434.985 252.42 L
435.58 256.858 L
436.175 224.667 L
436.77 119.439 L
437.365 145.849 L
437.96 293.971 L
438.555 270.964 L
439.15 161.94 L
439.745 294.378 L
440.34 185.141 L
440.935 286.388 L
441.53 217.095 L
442.125 324.702 L
442.72 238.642 L
443.315 234.131 L
443.91 248.643 L
444.505 223.668 L
445.1 322.597 L
445.695 228.454 L
446.29 133.839 L
446.885 239.164 L
447.48 301.624 L
448.075 343.816 L
448.67 257.397 L
449.265 218.007 L
449.86 284.834 L
450.455 244.752 L
S
GR
GS
[0.75 0 0 0.75 18 230] CT
0 GC
2 LJ
N
450.455 244.752 M
451.05 285.66 L
451.645 325.766 L
452.24 249.125 L
452.835 363.283 L
453.43 275.967 L
454.025 168.092 L
454.62 229.896 L
455.215 401.155 L
455.81 358.309 L
456.405 196.26 L
457 256.306 L
457.595 125.876 L
458.19 432.755 L
458.785 186.162 L
459.38 192.603 L
459.975 199.076 L
460.57 321.687 L
461.165 202.519 L
461.76 206.744 L
462.355 289.056 L
462.95 406.946 L
463.545 268.654 L
464.14 207 L
464.735 166.464 L
465.33 191.516 L
465.925 250.724 L
466.52 236.784 L
467.115 171.812 L
467.71 214.231 L
468.305 178.203 L
468.9 167.456 L
469.495 227.363 L
470.09 263.43 L
470.685 175.748 L
471.28 153.63 L
471.875 270.264 L
472.47 264.906 L
473.065 351.891 L
473.66 194.249 L
474.255 360.821 L
474.85 159.106 L
475.445 210.864 L
476.04 195.77 L
476.635 154.04 L
477.23 277.293 L
477.825 310.626 L
478.42 176.238 L
479.015 68.604 L
479.61 193.54 L
S
GR
GS
[0.75 0 0 0.75 18 230] CT
0 GC
2 LJ
N
479.61 193.54 M
480.205 244.634 L
480.8 209.619 L
481.395 158.829 L
481.99 114.117 L
482.585 286.948 L
483.18 136.979 L
483.775 181.465 L
484.37 166.59 L
484.965 250.787 L
485.56 176.904 L
486.155 216.913 L
486.75 168.325 L
487.345 230.139 L
487.94 233.532 L
488.535 127.536 L
489.13 158.677 L
489.725 95.771 L
490.32 248.034 L
490.915 333.41 L
491.51 270.308 L
492.105 230.636 L
492.7 170.785 L
493.295 316.563 L
493.89 281.527 L
494.485 293.035 L
495.08 183.59 L
495.675 218.785 L
496.27 170.101 L
496.865 298.844 L
497.46 252.767 L
498.055 306.563 L
498.65 156.495 L
499.245 180.069 L
499.84 277.283 L
500.435 355.245 L
501.03 258.592 L
501.625 145.626 L
502.22 235.228 L
502.815 141.612 L
503.41 164.828 L
504.005 354.183 L
504.6 137.412 L
505.195 211.839 L
505.79 394.553 L
506.385 176.266 L
506.98 242.186 L
507.575 242.101 L
508.17 287.523 L
508.765 282.369 L
S
GR
GS
[0.75 0 0 0.75 18 230] CT
0 GC
2 LJ
N
508.765 282.369 M
509.36 187.449 L
509.955 283.354 L
510.55 152.925 L
511.145 174.01 L
511.74 230.805 L
512.335 261.643 L
512.93 381.096 L
513.525 331.537 L
514.12 146.162 L
514.715 214.226 L
515.31 234.675 L
515.905 61.896 L
516.5 294.886 L
517.095 146.541 L
517.69 237.724 L
518.285 239.65 L
518.88 252.693 L
519.475 193.612 L
520.07 188.18 L
520.665 176.953 L
521.26 145.424 L
521.855 164.135 L
522.45 304.074 L
523.045 347.649 L
523.64 246.031 L
524.235 184.173 L
524.83 46.131 L
525.425 346.784 L
526.02 285.258 L
526.615 220.738 L
527.21 245.636 L
527.805 147.085 L
528.4 238.5 L
528.995 136.044 L
529.59 246.763 L
530.185 184.301 L
530.78 246.621 L
531.375 294.129 L
531.97 227.911 L
532.565 174.179 L
533.16 271.901 L
533.755 235.267 L
534.35 354.825 L
534.945 168.737 L
535.54 202.682 L
536.135 166.132 L
536.73 337.595 L
537.325 197.405 L
537.92 217.064 L
S
GR
GS
[0.75 0 0 0.75 18 230] CT
0 GC
2 LJ
N
537.92 217.064 M
538.515 269.65 L
539.11 275.307 L
539.705 251.096 L
540.3 408.504 L
540.895 152.399 L
541.49 355.155 L
542.085 151.094 L
542.68 269.068 L
543.275 317.16 L
543.87 160.395 L
544.465 151.096 L
545.06 288.515 L
545.655 264.223 L
546.25 276.643 L
546.845 91.036 L
547.44 194.536 L
548.035 324.803 L
548.63 200.902 L
549.225 194.963 L
549.82 132.296 L
550.415 154.902 L
551.01 267.265 L
551.605 245.705 L
552.2 295.417 L
552.795 258.358 L
553.39 140.515 L
553.985 149.264 L
554.58 353.448 L
555.175 347.035 L
555.77 212.763 L
556.365 249.208 L
556.96 352.583 L
557.555 300.654 L
558.15 230.605 L
558.745 262.757 L
559.34 206.358 L
559.935 188.811 L
560.53 231.082 L
561.125 194.814 L
561.72 395.293 L
562.315 104.834 L
562.91 253.972 L
563.505 152.704 L
564.1 229.599 L
564.695 196.98 L
565.29 256.625 L
565.885 292.136 L
566.48 128.735 L
567.075 230.855 L
S
GR
GS
[0.75 0 0 0.75 18 230] CT
0 GC
2 LJ
N
567.075 230.855 M
567.67 321.057 L
568.265 165.714 L
568.86 269.508 L
569.455 273.282 L
570.05 239.673 L
570.645 334.154 L
571.24 359.738 L
571.835 323.574 L
572.43 290.148 L
573.025 80.953 L
573.62 153.902 L
574.215 243.178 L
574.81 304.931 L
575.405 287.255 L
576 261.495 L
576.595 298.004 L
577.19 294.069 L
577.785 319.63 L
578.38 290.626 L
578.975 241.913 L
579.57 359.458 L
580.165 188.151 L
580.76 202.744 L
581.355 232.462 L
581.95 349.659 L
582.545 236.455 L
583.14 293.86 L
583.735 196.223 L
584.33 103.806 L
584.925 233.099 L
585.52 225.889 L
586.115 146.429 L
586.71 208.122 L
587.305 116.996 L
587.9 226.108 L
588.495 301.483 L
589.09 193.956 L
589.685 103.926 L
590.28 141.241 L
590.875 270.266 L
591.47 369.746 L
592.065 134.175 L
592.66 217.116 L
593.255 335.902 L
593.85 175.895 L
594.445 343.189 L
595.04 221.999 L
595.635 253.655 L
596.23 305.399 L
S
GR
GS
[0.75 0 0 0.75 18 230] CT
0 GC
2 LJ
N
596.23 305.399 M
596.825 292.553 L
597.42 247.895 L
598.015 283.511 L
598.61 229.058 L
599.205 162.322 L
599.8 244.471 L
600.395 230.268 L
600.99 357.675 L
601.585 124.412 L
602.18 271.843 L
602.775 292.436 L
603.37 280.946 L
603.965 183.176 L
604.56 259.114 L
605.155 251.215 L
605.75 323.8 L
606.345 271.245 L
606.94 238.641 L
607.535 114.493 L
608.13 281.191 L
608.725 270.093 L
609.32 285.674 L
609.915 227.869 L
610.51 285.281 L
611.105 153.648 L
611.7 162.612 L
612.295 140.796 L
612.89 280.781 L
613.485 263.992 L
614.08 201.458 L
614.675 269.113 L
615.27 89.582 L
615.865 228.774 L
616.46 154.268 L
617.055 325.645 L
617.65 337.667 L
618.245 255.54 L
618.84 243.055 L
619.435 350.856 L
620.03 322.267 L
620.625 183.131 L
621.22 169.165 L
621.815 229.769 L
622.41 170.29 L
623.005 267.192 L
623.6 165.43 L
624.195 245.52 L
624.79 282.876 L
625.385 211.378 L
S
GR
GS
[0.75 0 0 0.75 18 230] CT
0 GC
2 LJ
N
625.385 211.378 M
625.98 316.235 L
626.575 145.506 L
627.17 322.959 L
627.765 124.624 L
628.36 264.344 L
628.955 222.544 L
629.55 290.298 L
630.145 202.985 L
630.74 233.773 L
631.335 186.653 L
631.93 239.813 L
632.525 220.783 L
633.12 309.169 L
633.715 311.474 L
634.31 241.573 L
634.905 211.518 L
635.5 228.81 L
636.095 313.46 L
636.69 244.635 L
637.285 180.113 L
637.88 313.692 L
638.475 353.702 L
639.07 198.849 L
639.665 222.921 L
640.26 185.874 L
640.855 166.174 L
641.45 239.234 L
642.045 333.681 L
642.64 126.596 L
643.235 239.846 L
643.83 149.961 L
644.425 390.226 L
645.02 333.164 L
645.615 393.328 L
646.21 349.099 L
646.805 334.457 L
647.4 350.552 L
647.995 250.72 L
648.59 175.447 L
649.185 118.455 L
649.78 264.551 L
650.375 252.789 L
650.97 192.474 L
651.565 254.409 L
652.16 230.929 L
652.755 178.776 L
653.35 240.254 L
653.945 270.86 L
654.54 267.195 L
S
GR
GS
[0.75 0 0 0.75 18 230] CT
0 GC
2 LJ
N
654.54 267.195 M
655.135 276.013 L
655.73 253.124 L
656.325 205.844 L
656.92 332.834 L
657.515 266.053 L
658.11 243.565 L
658.705 249.098 L
659.3 196.852 L
659.895 262.153 L
660.49 152.822 L
661.085 252.928 L
661.68 251.495 L
662.275 240.516 L
662.87 219.161 L
663.465 167.717 L
664.06 232.484 L
664.655 131.009 L
665.25 242.14 L
665.845 328.774 L
666.44 260.868 L
667.035 219.711 L
667.63 274.459 L
668.225 220.251 L
668.82 321.15 L
669.415 274.496 L
670.01 257.971 L
670.605 175.006 L
671.2 343.389 L
671.795 209.463 L
672.39 231.939 L
672.985 306.717 L
673.58 260.725 L
674.175 312.552 L
674.77 272.032 L
675.365 383.528 L
675.96 196.207 L
676.555 256.401 L
677.15 369.388 L
677.745 195.762 L
678.34 270.987 L
678.935 276.333 L
679.53 194.281 L
680.125 211.751 L
680.72 339.791 L
681.315 200.153 L
681.91 233.798 L
682.505 271.146 L
683.1 199.185 L
683.695 286.764 L
S
GR
GS
[0.75 0 0 0.75 18 230] CT
0 GC
2 LJ
N
683.695 286.764 M
684.29 220.243 L
684.885 300.389 L
685.48 173.51 L
686.075 201.03 L
686.67 132.036 L
687.265 117.062 L
687.86 240.491 L
688.455 362.979 L
689.05 239.681 L
689.645 263.405 L
690.24 196.574 L
690.835 186.991 L
691.43 235.104 L
692.025 259.404 L
692.62 221.617 L
693.215 263.897 L
693.81 267.258 L
694.405 143.933 L
695 251.24 L
S
GR
GS
[0.75 0 0 0.75 316.12527 260.1875] CT
0 GC
/Helvetica-Bold 15 F
GS
[1 0 0 1 0 0] CT
-288.5 -4 moveto 
1 -1 scale
(Unrelated<->Extracted Watermark Correlation Coefficents Alpha:0.5 Position:100) t 
GR
GR
showpage
%%Trailer
%%BoundingBox: 79 210 550 596
%%Pages: 1
%%EOF
