%!PS-Adobe-3.0
%%Creator: (MATLAB, The Mathworks, Inc. Version 8.5.0.197613 \(R2015a\). Operating System: Windows 7)
%%Title: ./output/WmIm_1_2/extractedWatermarkCorrelationCoefficient.eps
%%CreationDate: 2015-11-04T23:49:13
%%Pages: (atend)
%%BoundingBox: (atend)
%%LanguageLevel: 3
%%EndComments
%%BeginDefaults
%%EndDefaults
%%BeginProlog
%%EndProlog
%%BeginSetup
%%BeginResource: procset (Apache XML Graphics Std ProcSet) 1.2 0
%%Version: 1.2 0
%%Copyright: (Copyright 2001-2003,2010 The Apache Software Foundation. License terms: http://www.apache.org/licenses/LICENSE-2.0)
/bd{bind def}bind def
/ld{load def}bd
/GR/grestore ld
/M/moveto ld
/LJ/setlinejoin ld
/C/curveto ld
/f/fill ld
/LW/setlinewidth ld
/GC/setgray ld
/t/show ld
/N/newpath ld
/CT/concat ld
/cp/closepath ld
/S/stroke ld
/L/lineto ld
/CC/setcmykcolor ld
/A/ashow ld
/GS/gsave ld
/RC/setrgbcolor ld
/RM/rmoveto ld
/ML/setmiterlimit ld
/re {4 2 roll M
1 index 0 rlineto
0 exch rlineto
neg 0 rlineto
cp } bd
/_ctm matrix def
/_tm matrix def
/BT { _ctm currentmatrix pop matrix _tm copy pop 0 0 moveto } bd
/ET { _ctm setmatrix } bd
/iTm { _ctm setmatrix _tm concat } bd
/Tm { _tm astore pop iTm 0 0 moveto } bd
/ux 0.0 def
/uy 0.0 def
/F {
  /Tp exch def
  /Tf exch def
  Tf findfont Tp scalefont setfont
  /cf Tf def  /cs Tp def
} bd
/ULS {currentpoint /uy exch def /ux exch def} bd
/ULE {
  /Tcx currentpoint pop def
  gsave
  newpath
  cf findfont cs scalefont dup
  /FontMatrix get 0 get /Ts exch def /FontInfo get dup
  /UnderlinePosition get Ts mul /To exch def
  /UnderlineThickness get Ts mul /Tt exch def
  ux uy To add moveto  Tcx uy To add lineto
  Tt setlinewidth stroke
  grestore
} bd
/OLE {
  /Tcx currentpoint pop def
  gsave
  newpath
  cf findfont cs scalefont dup
  /FontMatrix get 0 get /Ts exch def /FontInfo get dup
  /UnderlinePosition get Ts mul /To exch def
  /UnderlineThickness get Ts mul /Tt exch def
  ux uy To add cs add moveto Tcx uy To add cs add lineto
  Tt setlinewidth stroke
  grestore
} bd
/SOE {
  /Tcx currentpoint pop def
  gsave
  newpath
  cf findfont cs scalefont dup
  /FontMatrix get 0 get /Ts exch def /FontInfo get dup
  /UnderlinePosition get Ts mul /To exch def
  /UnderlineThickness get Ts mul /Tt exch def
  ux uy To add cs 10 mul 26 idiv add moveto Tcx uy To add cs 10 mul 26 idiv add lineto
  Tt setlinewidth stroke
  grestore
} bd
/QT {
/Y22 exch store
/X22 exch store
/Y21 exch store
/X21 exch store
currentpoint
/Y21 load 2 mul add 3 div exch
/X21 load 2 mul add 3 div exch
/X21 load 2 mul /X22 load add 3 div
/Y21 load 2 mul /Y22 load add 3 div
/X22 load /Y22 load curveto
} bd
/SSPD {
dup length /d exch dict def
{
/v exch def
/k exch def
currentpagedevice k known {
/cpdv currentpagedevice k get def
v cpdv ne {
/upd false def
/nullv v type /nulltype eq def
/nullcpdv cpdv type /nulltype eq def
nullv nullcpdv or
{
/upd true def
} {
/sametype v type cpdv type eq def
sametype {
v type /arraytype eq {
/vlen v length def
/cpdvlen cpdv length def
vlen cpdvlen eq {
0 1 vlen 1 sub {
/i exch def
/obj v i get def
/cpdobj cpdv i get def
obj cpdobj ne {
/upd true def
exit
} if
} for
} {
/upd true def
} ifelse
} {
v type /dicttype eq {
v {
/dv exch def
/dk exch def
/cpddv cpdv dk get def
dv cpddv ne {
/upd true def
exit
} if
} forall
} {
/upd true def
} ifelse
} ifelse
} if
} ifelse
upd true eq {
d k v put
} if
} if
} if
} forall
d length 0 gt {
d setpagedevice
} if
} bd
%%EndResource
%%BeginResource: procset (Apache XML Graphics EPS ProcSet) 1.0 0
%%Version: 1.0 0
%%Copyright: (Copyright 2002-2003 The Apache Software Foundation. License terms: http://www.apache.org/licenses/LICENSE-2.0)
/BeginEPSF { %def
/b4_Inc_state save def         % Save state for cleanup
/dict_count countdictstack def % Count objects on dict stack
/op_count count 1 sub def      % Count objects on operand stack
userdict begin                 % Push userdict on dict stack
/showpage { } def              % Redefine showpage, { } = null proc
0 setgray 0 setlinecap         % Prepare graphics state
1 setlinewidth 0 setlinejoin
10 setmiterlimit [ ] 0 setdash newpath
/languagelevel where           % If level not equal to 1 then
{pop languagelevel             % set strokeadjust and
1 ne                           % overprint to their defaults.
{false setstrokeadjust false setoverprint
} if
} if
} bd
/EndEPSF { %def
count op_count sub {pop} repeat            % Clean up stacks
countdictstack dict_count sub {end} repeat
b4_Inc_state restore
} bd
%%EndResource
%FOPBeginFontDict
%%IncludeResource: font Courier-Bold
%%IncludeResource: font Helvetica
%%IncludeResource: font Courier-BoldOblique
%%IncludeResource: font Courier-Oblique
%%IncludeResource: font Times-Roman
%%IncludeResource: font Helvetica-BoldOblique
%%IncludeResource: font Helvetica-Bold
%%IncludeResource: font Helvetica-Oblique
%%IncludeResource: font Times-BoldItalic
%%IncludeResource: font Courier
%%IncludeResource: font Times-Italic
%%IncludeResource: font Times-Bold
%%IncludeResource: font Symbol
%%IncludeResource: font ZapfDingbats
%FOPEndFontDict
%%BeginResource: encoding WinAnsiEncoding
/WinAnsiEncoding [
/.notdef /.notdef /.notdef /.notdef /.notdef
/.notdef /.notdef /.notdef /.notdef /.notdef
/.notdef /.notdef /.notdef /.notdef /.notdef
/.notdef /.notdef /.notdef /.notdef /.notdef
/.notdef /.notdef /.notdef /.notdef /.notdef
/.notdef /.notdef /.notdef /.notdef /.notdef
/.notdef /.notdef /space /exclam /quotedbl
/numbersign /dollar /percent /ampersand /quotesingle
/parenleft /parenright /asterisk /plus /comma
/hyphen /period /slash /zero /one
/two /three /four /five /six
/seven /eight /nine /colon /semicolon
/less /equal /greater /question /at
/A /B /C /D /E
/F /G /H /I /J
/K /L /M /N /O
/P /Q /R /S /T
/U /V /W /X /Y
/Z /bracketleft /backslash /bracketright /asciicircum
/underscore /quoteleft /a /b /c
/d /e /f /g /h
/i /j /k /l /m
/n /o /p /q /r
/s /t /u /v /w
/x /y /z /braceleft /bar
/braceright /asciitilde /bullet /Euro /bullet
/quotesinglbase /florin /quotedblbase /ellipsis /dagger
/daggerdbl /circumflex /perthousand /Scaron /guilsinglleft
/OE /bullet /Zcaron /bullet /bullet
/quoteleft /quoteright /quotedblleft /quotedblright /bullet
/endash /emdash /asciitilde /trademark /scaron
/guilsinglright /oe /bullet /zcaron /Ydieresis
/space /exclamdown /cent /sterling /currency
/yen /brokenbar /section /dieresis /copyright
/ordfeminine /guillemotleft /logicalnot /sfthyphen /registered
/macron /degree /plusminus /twosuperior /threesuperior
/acute /mu /paragraph /middot /cedilla
/onesuperior /ordmasculine /guillemotright /onequarter /onehalf
/threequarters /questiondown /Agrave /Aacute /Acircumflex
/Atilde /Adieresis /Aring /AE /Ccedilla
/Egrave /Eacute /Ecircumflex /Edieresis /Igrave
/Iacute /Icircumflex /Idieresis /Eth /Ntilde
/Ograve /Oacute /Ocircumflex /Otilde /Odieresis
/multiply /Oslash /Ugrave /Uacute /Ucircumflex
/Udieresis /Yacute /Thorn /germandbls /agrave
/aacute /acircumflex /atilde /adieresis /aring
/ae /ccedilla /egrave /eacute /ecircumflex
/edieresis /igrave /iacute /icircumflex /idieresis
/eth /ntilde /ograve /oacute /ocircumflex
/otilde /odieresis /divide /oslash /ugrave
/uacute /ucircumflex /udieresis /yacute /thorn
/ydieresis
] def
%%EndResource
%FOPBeginFontReencode
/Courier-Bold findfont
dup length dict begin
  {1 index /FID ne {def} {pop pop} ifelse} forall
  /Encoding WinAnsiEncoding def
  currentdict
end
/Courier-Bold exch definefont pop
/Helvetica findfont
dup length dict begin
  {1 index /FID ne {def} {pop pop} ifelse} forall
  /Encoding WinAnsiEncoding def
  currentdict
end
/Helvetica exch definefont pop
/Courier-BoldOblique findfont
dup length dict begin
  {1 index /FID ne {def} {pop pop} ifelse} forall
  /Encoding WinAnsiEncoding def
  currentdict
end
/Courier-BoldOblique exch definefont pop
/Courier-Oblique findfont
dup length dict begin
  {1 index /FID ne {def} {pop pop} ifelse} forall
  /Encoding WinAnsiEncoding def
  currentdict
end
/Courier-Oblique exch definefont pop
/Times-Roman findfont
dup length dict begin
  {1 index /FID ne {def} {pop pop} ifelse} forall
  /Encoding WinAnsiEncoding def
  currentdict
end
/Times-Roman exch definefont pop
/Helvetica-BoldOblique findfont
dup length dict begin
  {1 index /FID ne {def} {pop pop} ifelse} forall
  /Encoding WinAnsiEncoding def
  currentdict
end
/Helvetica-BoldOblique exch definefont pop
/Helvetica-Bold findfont
dup length dict begin
  {1 index /FID ne {def} {pop pop} ifelse} forall
  /Encoding WinAnsiEncoding def
  currentdict
end
/Helvetica-Bold exch definefont pop
/Helvetica-Oblique findfont
dup length dict begin
  {1 index /FID ne {def} {pop pop} ifelse} forall
  /Encoding WinAnsiEncoding def
  currentdict
end
/Helvetica-Oblique exch definefont pop
/Times-BoldItalic findfont
dup length dict begin
  {1 index /FID ne {def} {pop pop} ifelse} forall
  /Encoding WinAnsiEncoding def
  currentdict
end
/Times-BoldItalic exch definefont pop
/Courier findfont
dup length dict begin
  {1 index /FID ne {def} {pop pop} ifelse} forall
  /Encoding WinAnsiEncoding def
  currentdict
end
/Courier exch definefont pop
/Times-Italic findfont
dup length dict begin
  {1 index /FID ne {def} {pop pop} ifelse} forall
  /Encoding WinAnsiEncoding def
  currentdict
end
/Times-Italic exch definefont pop
/Times-Bold findfont
dup length dict begin
  {1 index /FID ne {def} {pop pop} ifelse} forall
  /Encoding WinAnsiEncoding def
  currentdict
end
/Times-Bold exch definefont pop
%FOPEndFontReencode
%%EndSetup
%%Page: 1 1
%%PageBoundingBox: 0 0 595 842
%%BeginPageSetup
<<
/PageSize [595 842]
/ImagingBBox null
>> setpagedevice
[1 0 0 -1 0 842] CT
%%EndPageSetup
GS
[0.75 0 0 0.75 18 230] CT
0.997 GC
N
0 0 768 576 re
f
GR
GS
[0.75 0 0 0.75 18 230] CT
0.997 GC
N
0 0 768 576 re
f
GR
GS
[0.75 0 0 0.75 18 230] CT
0.997 GC
N
100 513 M
695 513 L
695 43 L
100 43 L
cp
f
GR
GS
[0.75 0 0 0.75 18 230] CT
0 GC
2 setlinecap
10.0 ML
N
100 513 M
695 513 L
S
GR
GS
[0.75 0 0 0.75 18 230] CT
0 GC
2 setlinecap
10.0 ML
N
100 43 M
695 43 L
S
GR
GS
[0.75 0 0 0.75 18 230] CT
0 GC
2 setlinecap
10.0 ML
N
100 513 M
100 507.05 L
S
GR
GS
[0.75 0 0 0.75 18 230] CT
0 GC
2 setlinecap
10.0 ML
N
159.5 513 M
159.5 507.05 L
S
GR
GS
[0.75 0 0 0.75 18 230] CT
0 GC
2 setlinecap
10.0 ML
N
219 513 M
219 507.05 L
S
GR
GS
[0.75 0 0 0.75 18 230] CT
0 GC
2 setlinecap
10.0 ML
N
278.5 513 M
278.5 507.05 L
S
GR
GS
[0.75 0 0 0.75 18 230] CT
0 GC
2 setlinecap
10.0 ML
N
338 513 M
338 507.05 L
S
GR
GS
[0.75 0 0 0.75 18 230] CT
0 GC
2 setlinecap
10.0 ML
N
397.5 513 M
397.5 507.05 L
S
GR
GS
[0.75 0 0 0.75 18 230] CT
0 GC
2 setlinecap
10.0 ML
N
457 513 M
457 507.05 L
S
GR
GS
[0.75 0 0 0.75 18 230] CT
0 GC
2 setlinecap
10.0 ML
N
516.5 513 M
516.5 507.05 L
S
GR
GS
[0.75 0 0 0.75 18 230] CT
0 GC
2 setlinecap
10.0 ML
N
576 513 M
576 507.05 L
S
GR
GS
[0.75 0 0 0.75 18 230] CT
0 GC
2 setlinecap
10.0 ML
N
635.5 513 M
635.5 507.05 L
S
GR
GS
[0.75 0 0 0.75 18 230] CT
0 GC
2 setlinecap
10.0 ML
N
695 513 M
695 507.05 L
S
GR
GS
[0.75 0 0 0.75 18 230] CT
0 GC
2 setlinecap
10.0 ML
N
100 43 M
100 48.95 L
S
GR
GS
[0.75 0 0 0.75 18 230] CT
0 GC
2 setlinecap
10.0 ML
N
159.5 43 M
159.5 48.95 L
S
GR
GS
[0.75 0 0 0.75 18 230] CT
0 GC
2 setlinecap
10.0 ML
N
219 43 M
219 48.95 L
S
GR
GS
[0.75 0 0 0.75 18 230] CT
0 GC
2 setlinecap
10.0 ML
N
278.5 43 M
278.5 48.95 L
S
GR
GS
[0.75 0 0 0.75 18 230] CT
0 GC
2 setlinecap
10.0 ML
N
338 43 M
338 48.95 L
S
GR
GS
[0.75 0 0 0.75 18 230] CT
0 GC
2 setlinecap
10.0 ML
N
397.5 43 M
397.5 48.95 L
S
GR
GS
[0.75 0 0 0.75 18 230] CT
0 GC
2 setlinecap
10.0 ML
N
457 43 M
457 48.95 L
S
GR
GS
[0.75 0 0 0.75 18 230] CT
0 GC
2 setlinecap
10.0 ML
N
516.5 43 M
516.5 48.95 L
S
GR
GS
[0.75 0 0 0.75 18 230] CT
0 GC
2 setlinecap
10.0 ML
N
576 43 M
576 48.95 L
S
GR
GS
[0.75 0 0 0.75 18 230] CT
0 GC
2 setlinecap
10.0 ML
N
635.5 43 M
635.5 48.95 L
S
GR
GS
[0.75 0 0 0.75 18 230] CT
0 GC
2 setlinecap
10.0 ML
N
695 43 M
695 48.95 L
S
GR
GS
[0.75 0 0 0.75 93 618.74998] CT
0 GC
/Helvetica 13 F
GS
[1 0 0 1 0 0] CT
-4 14 moveto 
1 -1 scale
(0) t 
GR
GR
GS
[0.75 0 0 0.75 137.625 618.74998] CT
0 GC
/Helvetica 13 F
GS
[1 0 0 1 0 0] CT
-11 14 moveto 
1 -1 scale
(100) t 
GR
GR
GS
[0.75 0 0 0.75 182.25 618.74998] CT
0 GC
/Helvetica 13 F
GS
[1 0 0 1 0 0] CT
-11 14 moveto 
1 -1 scale
(200) t 
GR
GR
GS
[0.75 0 0 0.75 226.875 618.74998] CT
0 GC
/Helvetica 13 F
GS
[1 0 0 1 0 0] CT
-11 14 moveto 
1 -1 scale
(300) t 
GR
GR
GS
[0.75 0 0 0.75 271.5 618.74998] CT
0 GC
/Helvetica 13 F
GS
[1 0 0 1 0 0] CT
-11 14 moveto 
1 -1 scale
(400) t 
GR
GR
GS
[0.75 0 0 0.75 316.125 618.74998] CT
0 GC
/Helvetica 13 F
GS
[1 0 0 1 0 0] CT
-11 14 moveto 
1 -1 scale
(500) t 
GR
GR
GS
[0.75 0 0 0.75 360.75 618.74998] CT
0 GC
/Helvetica 13 F
GS
[1 0 0 1 0 0] CT
-11 14 moveto 
1 -1 scale
(600) t 
GR
GR
GS
[0.75 0 0 0.75 405.375 618.74998] CT
0 GC
/Helvetica 13 F
GS
[1 0 0 1 0 0] CT
-11 14 moveto 
1 -1 scale
(700) t 
GR
GR
GS
[0.75 0 0 0.75 450 618.74998] CT
0 GC
/Helvetica 13 F
GS
[1 0 0 1 0 0] CT
-11 14 moveto 
1 -1 scale
(800) t 
GR
GR
GS
[0.75 0 0 0.75 494.625 618.74998] CT
0 GC
/Helvetica 13 F
GS
[1 0 0 1 0 0] CT
-11 14 moveto 
1 -1 scale
(900) t 
GR
GR
GS
[0.75 0 0 0.75 539.25 618.74998] CT
0 GC
/Helvetica 13 F
GS
[1 0 0 1 0 0] CT
-14.5 14 moveto 
1 -1 scale
(1000) t 
GR
GR
GS
[0.75 0 0 0.75 18 230] CT
0 GC
2 setlinecap
10.0 ML
N
100 513 M
100 43 L
S
GR
GS
[0.75 0 0 0.75 18 230] CT
0 GC
2 setlinecap
10.0 ML
N
695 513 M
695 43 L
S
GR
GS
[0.75 0 0 0.75 18 230] CT
0 GC
2 setlinecap
10.0 ML
N
100 513 M
105.95 513 L
S
GR
GS
[0.75 0 0 0.75 18 230] CT
0 GC
2 setlinecap
10.0 ML
N
100 454.25 M
105.95 454.25 L
S
GR
GS
[0.75 0 0 0.75 18 230] CT
0 GC
2 setlinecap
10.0 ML
N
100 395.5 M
105.95 395.5 L
S
GR
GS
[0.75 0 0 0.75 18 230] CT
0 GC
2 setlinecap
10.0 ML
N
100 336.75 M
105.95 336.75 L
S
GR
GS
[0.75 0 0 0.75 18 230] CT
0 GC
2 setlinecap
10.0 ML
N
100 278 M
105.95 278 L
S
GR
GS
[0.75 0 0 0.75 18 230] CT
0 GC
2 setlinecap
10.0 ML
N
100 219.25 M
105.95 219.25 L
S
GR
GS
[0.75 0 0 0.75 18 230] CT
0 GC
2 setlinecap
10.0 ML
N
100 160.5 M
105.95 160.5 L
S
GR
GS
[0.75 0 0 0.75 18 230] CT
0 GC
2 setlinecap
10.0 ML
N
100 101.75 M
105.95 101.75 L
S
GR
GS
[0.75 0 0 0.75 18 230] CT
0 GC
2 setlinecap
10.0 ML
N
100 43 M
105.95 43 L
S
GR
GS
[0.75 0 0 0.75 18 230] CT
0 GC
2 setlinecap
10.0 ML
N
695 513 M
689.05 513 L
S
GR
GS
[0.75 0 0 0.75 18 230] CT
0 GC
2 setlinecap
10.0 ML
N
695 454.25 M
689.05 454.25 L
S
GR
GS
[0.75 0 0 0.75 18 230] CT
0 GC
2 setlinecap
10.0 ML
N
695 395.5 M
689.05 395.5 L
S
GR
GS
[0.75 0 0 0.75 18 230] CT
0 GC
2 setlinecap
10.0 ML
N
695 336.75 M
689.05 336.75 L
S
GR
GS
[0.75 0 0 0.75 18 230] CT
0 GC
2 setlinecap
10.0 ML
N
695 278 M
689.05 278 L
S
GR
GS
[0.75 0 0 0.75 18 230] CT
0 GC
2 setlinecap
10.0 ML
N
695 219.25 M
689.05 219.25 L
S
GR
GS
[0.75 0 0 0.75 18 230] CT
0 GC
2 setlinecap
10.0 ML
N
695 160.5 M
689.05 160.5 L
S
GR
GS
[0.75 0 0 0.75 18 230] CT
0 GC
2 setlinecap
10.0 ML
N
695 101.75 M
689.05 101.75 L
S
GR
GS
[0.75 0 0 0.75 18 230] CT
0 GC
2 setlinecap
10.0 ML
N
695 43 M
689.05 43 L
S
GR
GS
[0.75 0 0 0.75 89 614.75] CT
0 GC
/Helvetica 13 F
GS
[1 0 0 1 0 0] CT
-12 5.5 moveto 
1 -1 scale
(-3) t 
GR
GR
GS
[0.75 0 0 0.75 89 570.6875] CT
0 GC
/Helvetica 13 F
GS
[1 0 0 1 0 0] CT
-12 5.5 moveto 
1 -1 scale
(-2) t 
GR
GR
GS
[0.75 0 0 0.75 89 526.625] CT
0 GC
/Helvetica 13 F
GS
[1 0 0 1 0 0] CT
-12 5.5 moveto 
1 -1 scale
(-1) t 
GR
GR
GS
[0.75 0 0 0.75 89 482.5625] CT
0 GC
/Helvetica 13 F
GS
[1 0 0 1 0 0] CT
-8 5.5 moveto 
1 -1 scale
(0) t 
GR
GR
GS
[0.75 0 0 0.75 89 438.5] CT
0 GC
/Helvetica 13 F
GS
[1 0 0 1 0 0] CT
-8 5.5 moveto 
1 -1 scale
(1) t 
GR
GR
GS
[0.75 0 0 0.75 89 394.4375] CT
0 GC
/Helvetica 13 F
GS
[1 0 0 1 0 0] CT
-8 5.5 moveto 
1 -1 scale
(2) t 
GR
GR
GS
[0.75 0 0 0.75 89 350.375] CT
0 GC
/Helvetica 13 F
GS
[1 0 0 1 0 0] CT
-8 5.5 moveto 
1 -1 scale
(3) t 
GR
GR
GS
[0.75 0 0 0.75 89 306.3125] CT
0 GC
/Helvetica 13 F
GS
[1 0 0 1 0 0] CT
-8 5.5 moveto 
1 -1 scale
(4) t 
GR
GR
GS
[0.75 0 0 0.75 89 262.25] CT
0 GC
/Helvetica 13 F
GS
[1 0 0 1 0 0] CT
-8 5.5 moveto 
1 -1 scale
(5) t 
GR
GR
GS
[0.75 0 0 0.75 18 230] CT
0 GC
2 LJ
N
100.595 399.328 M
101.19 356.203 L
101.785 376.233 L
102.38 332.888 L
102.975 366.647 L
103.57 344.535 L
104.165 274.272 L
104.76 342.17 L
105.355 379.671 L
105.95 276.891 L
106.545 367.749 L
107.14 287.674 L
107.735 227.14 L
108.33 372.827 L
108.925 367.287 L
109.52 444.447 L
110.115 409.4 L
110.71 319.588 L
111.305 243.264 L
111.9 315.876 L
112.495 389.599 L
113.09 319.277 L
113.685 226.571 L
114.28 237.639 L
114.875 420.555 L
115.47 319.079 L
116.065 353.337 L
116.66 460.106 L
117.255 328.623 L
117.85 322.937 L
118.445 354.578 L
119.04 327.085 L
119.635 312.27 L
120.23 364.438 L
120.825 265.785 L
121.42 400.573 L
122.015 374.838 L
122.61 365.31 L
123.205 394.741 L
123.8 319.81 L
124.395 366.391 L
124.99 371.89 L
125.585 287.02 L
126.18 423.245 L
126.775 365.319 L
127.37 241.274 L
127.965 381.704 L
128.56 425.051 L
129.155 377.6 L
129.75 318.693 L
S
GR
GS
[0.75 0 0 0.75 18 230] CT
0 GC
2 LJ
N
129.75 318.693 M
130.345 392.365 L
130.94 265.447 L
131.535 282.474 L
132.13 256.219 L
132.725 343.408 L
133.32 288.996 L
133.915 286.179 L
134.51 392.32 L
135.105 339.61 L
135.7 318.037 L
136.295 359.409 L
136.89 396.346 L
137.485 315.684 L
138.08 312.576 L
138.675 365.814 L
139.27 385.165 L
139.865 350.927 L
140.46 344.402 L
141.055 344.813 L
141.65 292.405 L
142.245 252.621 L
142.84 275.695 L
143.435 283.569 L
144.03 358.124 L
144.625 339.505 L
145.22 340.247 L
145.815 368.344 L
146.41 368.598 L
147.005 347.894 L
147.6 398.637 L
148.195 395.664 L
148.79 334.674 L
149.385 368.305 L
149.98 241.357 L
150.575 278.286 L
151.17 349.844 L
151.765 297.771 L
152.36 346.35 L
152.955 400.682 L
153.55 288.7 L
154.145 299.043 L
154.74 333.869 L
155.335 341.576 L
155.93 383.805 L
156.525 408.603 L
157.12 358.931 L
157.715 439.703 L
158.31 259.237 L
158.905 306.714 L
S
GR
GS
[0.75 0 0 0.75 18 230] CT
0 GC
2 LJ
N
158.905 306.714 M
159.5 272.385 L
160.095 325.708 L
160.69 290.335 L
161.285 388.935 L
161.88 349.822 L
162.475 424.016 L
163.07 329.81 L
163.665 311.879 L
164.26 287.96 L
164.855 449.318 L
165.45 400.193 L
166.045 352.952 L
166.64 399.407 L
167.235 228.565 L
167.83 367.536 L
168.425 327.854 L
169.02 309.007 L
169.615 421.762 L
170.21 389.112 L
170.805 288.05 L
171.4 255.398 L
171.995 292.628 L
172.59 271.489 L
173.185 310.963 L
173.78 329.16 L
174.375 415.43 L
174.97 385.894 L
175.565 345.648 L
176.16 414.31 L
176.755 332.338 L
177.35 255.895 L
177.945 342.346 L
178.54 294.027 L
179.135 407.33 L
179.73 346.3 L
180.325 370.414 L
180.92 347.272 L
181.515 332.648 L
182.11 313.923 L
182.705 284.788 L
183.3 360.494 L
183.895 313.595 L
184.49 314.255 L
185.085 242.765 L
185.68 314.996 L
186.275 260.206 L
186.87 324.323 L
187.465 334.038 L
188.06 313.413 L
S
GR
GS
[0.75 0 0 0.75 18 230] CT
0 GC
2 LJ
N
188.06 313.413 M
188.655 375.795 L
189.25 372.023 L
189.845 300.898 L
190.44 226.804 L
191.035 277.437 L
191.63 216.637 L
192.225 339.49 L
192.82 293.528 L
193.415 249.945 L
194.01 402.974 L
194.605 412.123 L
195.2 291.594 L
195.795 388.834 L
196.39 250.613 L
196.985 296.77 L
197.58 300.94 L
198.175 340.885 L
198.77 426.327 L
199.365 314.961 L
199.96 341.348 L
200.555 410.524 L
201.15 367.322 L
201.745 380.96 L
202.34 269.826 L
202.935 430.793 L
203.53 223.092 L
204.125 409.346 L
204.72 305.239 L
205.315 327.673 L
205.91 333.636 L
206.505 222.601 L
207.1 300.578 L
207.695 256.263 L
208.29 390.708 L
208.885 381.262 L
209.48 390.121 L
210.075 334.43 L
210.67 387.31 L
211.265 238.333 L
211.86 313.546 L
212.455 371.883 L
213.05 392.198 L
213.645 339.843 L
214.24 455.528 L
214.835 349.133 L
215.43 302.243 L
216.025 322.628 L
216.62 317.115 L
217.215 252.76 L
S
GR
GS
[0.75 0 0 0.75 18 230] CT
0 GC
2 LJ
N
217.215 252.76 M
217.81 373.266 L
218.405 304.343 L
219 324.785 L
219.595 341.498 L
220.19 280.614 L
220.785 263.021 L
221.38 317.013 L
221.975 247.042 L
222.57 348.955 L
223.165 357.056 L
223.76 420.23 L
224.355 307.878 L
224.95 410.169 L
225.545 241.273 L
226.14 387.228 L
226.735 341.649 L
227.33 387.408 L
227.925 332.425 L
228.52 245.196 L
229.115 291.667 L
229.71 402.879 L
230.305 306.42 L
230.9 443.506 L
231.495 390.002 L
232.09 361.185 L
232.685 396.916 L
233.28 252.424 L
233.875 371.848 L
234.47 305.459 L
235.065 230.902 L
235.66 258.237 L
236.255 205.68 L
236.85 387.766 L
237.445 341.755 L
238.04 282.706 L
238.635 214.601 L
239.23 267.853 L
239.825 327.453 L
240.42 429.167 L
241.015 231.346 L
241.61 353.687 L
242.205 310.86 L
242.8 339.099 L
243.395 389.994 L
243.99 333.621 L
244.585 383.643 L
245.18 306.827 L
245.775 398.708 L
246.37 270.693 L
S
GR
GS
[0.75 0 0 0.75 18 230] CT
0 GC
2 LJ
N
246.37 270.693 M
246.965 436.128 L
247.56 276.159 L
248.155 329.815 L
248.75 70.263 L
249.345 403.607 L
249.94 278.446 L
250.535 263.552 L
251.13 351.055 L
251.725 450.658 L
252.32 385.563 L
252.915 338.14 L
253.51 300.276 L
254.105 271.928 L
254.7 286.643 L
255.295 438.77 L
255.89 358.298 L
256.485 301.336 L
257.08 289.778 L
257.675 329.028 L
258.27 358.604 L
258.865 256.488 L
259.46 422.362 L
260.055 268.999 L
260.65 392.287 L
261.245 322.258 L
261.84 300.355 L
262.435 208.372 L
263.03 377.009 L
263.625 309.732 L
264.22 396.109 L
264.815 355.842 L
265.41 358.645 L
266.005 347.645 L
266.6 280.141 L
267.195 276.171 L
267.79 247.11 L
268.385 284.38 L
268.98 362.073 L
269.575 353.895 L
270.17 245.096 L
270.765 309.77 L
271.36 393.681 L
271.955 307.669 L
272.55 347.998 L
273.145 301.331 L
273.74 252.33 L
274.335 370.165 L
274.93 431.863 L
275.525 275.421 L
S
GR
GS
[0.75 0 0 0.75 18 230] CT
0 GC
2 LJ
N
275.525 275.421 M
276.12 241.337 L
276.715 352.922 L
277.31 338.201 L
277.905 370.728 L
278.5 259.807 L
279.095 250.358 L
279.69 375.617 L
280.285 364.126 L
280.88 280.972 L
281.475 435.424 L
282.07 244.644 L
282.665 279.964 L
283.26 394.675 L
283.855 363.248 L
284.45 377.893 L
285.045 373.332 L
285.64 299.515 L
286.235 310.729 L
286.83 419.605 L
287.425 397.136 L
288.02 288.966 L
288.615 264.202 L
289.21 344.722 L
289.805 270.375 L
290.4 415.632 L
290.995 253.323 L
291.59 341.721 L
292.185 305.1 L
292.78 291.126 L
293.375 279.088 L
293.97 396.205 L
294.565 300.413 L
295.16 324.77 L
295.755 249.042 L
296.35 375.577 L
296.945 390.307 L
297.54 488.423 L
298.135 238.545 L
298.73 261.863 L
299.325 314.46 L
299.92 377.74 L
300.515 406.498 L
301.11 214.824 L
301.705 289.677 L
302.3 271.869 L
302.895 277.873 L
303.49 264.979 L
304.085 413.924 L
304.68 398.076 L
S
GR
GS
[0.75 0 0 0.75 18 230] CT
0 GC
2 LJ
N
304.68 398.076 M
305.275 295.018 L
305.87 387.306 L
306.465 281.411 L
307.06 307.355 L
307.655 370.621 L
308.25 406.118 L
308.845 330.649 L
309.44 311.286 L
310.035 346.259 L
310.63 398.325 L
311.225 408.464 L
311.82 270.494 L
312.415 432.308 L
313.01 355.164 L
313.605 391.49 L
314.2 336.989 L
314.795 348.198 L
315.39 298.003 L
315.985 325.139 L
316.58 236.926 L
317.175 429.164 L
317.77 374.67 L
318.365 336.609 L
318.96 323.028 L
319.555 331.056 L
320.15 438.515 L
320.745 261.321 L
321.34 302.37 L
321.935 303.345 L
322.53 373.496 L
323.125 395.194 L
323.72 409.011 L
324.315 440.515 L
324.91 340.305 L
325.505 358.175 L
326.1 247.774 L
326.695 283.08 L
327.29 337.934 L
327.885 266.79 L
328.48 377.319 L
329.075 283.136 L
329.67 284.48 L
330.265 363.277 L
330.86 323.296 L
331.455 337.421 L
332.05 272.557 L
332.645 371.025 L
333.24 369.79 L
333.835 275.467 L
S
GR
GS
[0.75 0 0 0.75 18 230] CT
0 GC
2 LJ
N
333.835 275.467 M
334.43 389.376 L
335.025 268.615 L
335.62 309.039 L
336.215 220.974 L
336.81 287.383 L
337.405 355.714 L
338 408.941 L
338.595 416.203 L
339.19 370.841 L
339.785 363.267 L
340.38 250.514 L
340.975 369.185 L
341.57 384.227 L
342.165 427.704 L
342.76 396.954 L
343.355 300.536 L
343.95 388.488 L
344.545 246.874 L
345.14 405.915 L
345.735 343.491 L
346.33 310.194 L
346.925 306.148 L
347.52 416.665 L
348.115 308.186 L
348.71 285.254 L
349.305 341.047 L
349.9 312.982 L
350.495 386.726 L
351.09 343.656 L
351.685 313.042 L
352.28 296.585 L
352.875 271.168 L
353.47 347.546 L
354.065 358.704 L
354.66 429.981 L
355.255 291.224 L
355.85 369.609 L
356.445 295.954 L
357.04 398.756 L
357.635 420.657 L
358.23 390.844 L
358.825 290.619 L
359.42 266.908 L
360.015 258.536 L
360.61 274.437 L
361.205 259.946 L
361.8 288.254 L
362.395 318.365 L
362.99 283.971 L
S
GR
GS
[0.75 0 0 0.75 18 230] CT
0 GC
2 LJ
N
362.99 283.971 M
363.585 340.671 L
364.18 268.37 L
364.775 275.773 L
365.37 316.818 L
365.965 322.091 L
366.56 366.798 L
367.155 377.738 L
367.75 255.387 L
368.345 330.709 L
368.94 392.936 L
369.535 396.687 L
370.13 251.534 L
370.725 369.924 L
371.32 369.922 L
371.915 379.798 L
372.51 279.842 L
373.105 279.247 L
373.7 302.884 L
374.295 276.14 L
374.89 332.986 L
375.485 385.921 L
376.08 278.283 L
376.675 394.656 L
377.27 268.364 L
377.865 367.26 L
378.46 293.969 L
379.055 351.412 L
379.65 278.489 L
380.245 286.417 L
380.84 425.152 L
381.435 323.722 L
382.03 305.876 L
382.625 346.848 L
383.22 354.011 L
383.815 270.412 L
384.41 383.312 L
385.005 272.72 L
385.6 385.997 L
386.195 386.199 L
386.79 276.436 L
387.385 441.686 L
387.98 405.508 L
388.575 372.44 L
389.17 415.258 L
389.765 231.832 L
390.36 289.873 L
390.955 352.857 L
391.55 349.469 L
392.145 244.381 L
S
GR
GS
[0.75 0 0 0.75 18 230] CT
0 GC
2 LJ
N
392.145 244.381 M
392.74 397.071 L
393.335 407.803 L
393.93 321.532 L
394.525 389.721 L
395.12 379.38 L
395.715 232.485 L
396.31 343.314 L
396.905 408.164 L
397.5 385.202 L
398.095 438.252 L
398.69 268.694 L
399.285 365.44 L
399.88 243.925 L
400.475 273.785 L
401.07 399.748 L
401.665 293.628 L
402.26 362.825 L
402.855 305.791 L
403.45 320.595 L
404.045 279.005 L
404.64 270.956 L
405.235 371.738 L
405.83 440.531 L
406.425 287.775 L
407.02 412.504 L
407.615 397.434 L
408.21 352.754 L
408.805 303.935 L
409.4 409.72 L
409.995 272.548 L
410.59 245.643 L
411.185 354.819 L
411.78 386.533 L
412.375 327.671 L
412.97 340.301 L
413.565 336.544 L
414.16 307.59 L
414.755 276.931 L
415.35 247.386 L
415.945 295.405 L
416.54 303.036 L
417.135 252.424 L
417.73 253.433 L
418.325 287.662 L
418.92 439.391 L
419.515 430.638 L
420.11 435.915 L
420.705 365.445 L
421.3 428.46 L
S
GR
GS
[0.75 0 0 0.75 18 230] CT
0 GC
2 LJ
N
421.3 428.46 M
421.895 423.269 L
422.49 293.397 L
423.085 325.009 L
423.68 327.501 L
424.275 390.6 L
424.87 326.24 L
425.465 387.419 L
426.06 223.378 L
426.655 363.422 L
427.25 273.307 L
427.845 317.92 L
428.44 272.99 L
429.035 356.53 L
429.63 381.752 L
430.225 428.634 L
430.82 383.605 L
431.415 322.061 L
432.01 262.724 L
432.605 310.243 L
433.2 423.607 L
433.795 424.197 L
434.39 312.09 L
434.985 369.92 L
435.58 316.113 L
436.175 248.552 L
436.77 343.992 L
437.365 259.751 L
437.96 341.39 L
438.555 422.481 L
439.15 317.557 L
439.745 412.306 L
440.34 310.738 L
440.935 326.578 L
441.53 350.384 L
442.125 265.78 L
442.72 259.215 L
443.315 404.734 L
443.91 417.129 L
444.505 372.094 L
445.1 289.264 L
445.695 282.561 L
446.29 343.546 L
446.885 223.381 L
447.48 365.39 L
448.075 487.291 L
448.67 400.428 L
449.265 201.215 L
449.86 260.272 L
450.455 335.481 L
S
GR
GS
[0.75 0 0 0.75 18 230] CT
0 GC
2 LJ
N
450.455 335.481 M
451.05 427.131 L
451.645 374.888 L
452.24 360.067 L
452.835 426.824 L
453.43 366.93 L
454.025 415.618 L
454.62 372.356 L
455.215 298.95 L
455.81 376.237 L
456.405 412.855 L
457 279.608 L
457.595 410.795 L
458.19 407.874 L
458.785 297.117 L
459.38 285.417 L
459.975 228.873 L
460.57 327.385 L
461.165 347.492 L
461.76 291.413 L
462.355 411.438 L
462.95 330.13 L
463.545 344.94 L
464.14 365.732 L
464.735 269.128 L
465.33 371.839 L
465.925 303.615 L
466.52 413.944 L
467.115 232.295 L
467.71 372.843 L
468.305 221.685 L
468.9 309.698 L
469.495 356.831 L
470.09 341.07 L
470.685 430.868 L
471.28 276.452 L
471.875 258.001 L
472.47 376.894 L
473.065 377.672 L
473.66 399.303 L
474.255 379.076 L
474.85 259.823 L
475.445 302.09 L
476.04 363.795 L
476.635 298.962 L
477.23 350.425 L
477.825 398.859 L
478.42 354.223 L
479.015 239.325 L
479.61 240.399 L
S
GR
GS
[0.75 0 0 0.75 18 230] CT
0 GC
2 LJ
N
479.61 240.399 M
480.205 305.051 L
480.8 272.08 L
481.395 429.924 L
481.99 241.408 L
482.585 269.183 L
483.18 359.21 L
483.775 314.044 L
484.37 376.756 L
484.965 302.198 L
485.56 422.97 L
486.155 326.516 L
486.75 427.928 L
487.345 272.146 L
487.94 283.549 L
488.535 240.146 L
489.13 448.822 L
489.725 389.111 L
490.32 260.432 L
490.915 326.328 L
491.51 410.783 L
492.105 362.385 L
492.7 302.858 L
493.295 354.644 L
493.89 431.98 L
494.485 444.371 L
495.08 470.862 L
495.675 346.262 L
496.27 368.475 L
496.865 306.646 L
497.46 258.71 L
498.055 417.641 L
498.65 388.131 L
499.245 240.022 L
499.84 326.906 L
500.435 449.555 L
501.03 402.02 L
501.625 224.395 L
502.22 308.222 L
502.815 252.474 L
503.41 273.446 L
504.005 371.606 L
504.6 356.745 L
505.195 401.054 L
505.79 302.842 L
506.385 390.835 L
506.98 364.386 L
507.575 432.788 L
508.17 277.044 L
508.765 378.535 L
S
GR
GS
[0.75 0 0 0.75 18 230] CT
0 GC
2 LJ
N
508.765 378.535 M
509.36 341.468 L
509.955 412.169 L
510.55 321.838 L
511.145 368.89 L
511.74 258.223 L
512.335 261.601 L
512.93 292.381 L
513.525 379.584 L
514.12 368.469 L
514.715 309.495 L
515.31 244.591 L
515.905 329.75 L
516.5 433.227 L
517.095 338.264 L
517.69 406.257 L
518.285 432.986 L
518.88 332.577 L
519.475 397.452 L
520.07 296.602 L
520.665 369.573 L
521.26 374.386 L
521.855 333.394 L
522.45 260.855 L
523.045 263.375 L
523.64 387.298 L
524.235 370.886 L
524.83 203.627 L
525.425 351.306 L
526.02 400.719 L
526.615 235.241 L
527.21 356.382 L
527.805 329.026 L
528.4 363.926 L
528.995 319.724 L
529.59 286.105 L
530.185 370.426 L
530.78 278.746 L
531.375 383.536 L
531.97 416.73 L
532.565 304.432 L
533.16 273.336 L
533.755 313.5 L
534.35 372.075 L
534.945 265.847 L
535.54 396.24 L
536.135 413.003 L
536.73 318.21 L
537.325 366.454 L
537.92 351.916 L
S
GR
GS
[0.75 0 0 0.75 18 230] CT
0 GC
2 LJ
N
537.92 351.916 M
538.515 407.134 L
539.11 325.886 L
539.705 371.931 L
540.3 382.525 L
540.895 432.018 L
541.49 382.104 L
542.085 308.642 L
542.68 330.145 L
543.275 442.135 L
543.87 344.837 L
544.465 301.712 L
545.06 406.984 L
545.655 384.355 L
546.25 290.346 L
546.845 330.782 L
547.44 359.698 L
548.035 401.114 L
548.63 317.379 L
549.225 294.832 L
549.82 333.196 L
550.415 271.221 L
551.01 258.768 L
551.605 281.795 L
552.2 414.356 L
552.795 294.647 L
553.39 369.885 L
553.985 369.74 L
554.58 346.452 L
555.175 299.826 L
555.77 263.881 L
556.365 382.22 L
556.96 315.19 L
557.555 337.75 L
558.15 381.585 L
558.745 382.497 L
559.34 448.222 L
559.935 343.991 L
560.53 230.523 L
561.125 292.483 L
561.72 437.421 L
562.315 246.151 L
562.91 367.924 L
563.505 330.728 L
564.1 275.974 L
564.695 222.298 L
565.29 286.799 L
565.885 264.769 L
566.48 416.517 L
567.075 262.047 L
S
GR
GS
[0.75 0 0 0.75 18 230] CT
0 GC
2 LJ
N
567.075 262.047 M
567.67 379.14 L
568.265 418.648 L
568.86 348.295 L
569.455 422.009 L
570.05 320.729 L
570.645 394.135 L
571.24 397.123 L
571.835 435.008 L
572.43 383.567 L
573.025 421.725 L
573.62 266.296 L
574.215 284.325 L
574.81 341.181 L
575.405 359.095 L
576 427.603 L
576.595 409.447 L
577.19 273.894 L
577.785 427.149 L
578.38 269.222 L
578.975 389.757 L
579.57 414.399 L
580.165 383.497 L
580.76 306.483 L
581.355 313.159 L
581.95 334.239 L
582.545 294.87 L
583.14 378.233 L
583.735 334.192 L
584.33 447.837 L
584.925 276.666 L
585.52 412.523 L
586.115 302.724 L
586.71 316.878 L
587.305 258.426 L
587.9 226.862 L
588.495 343.419 L
589.09 251.88 L
589.685 276.085 L
590.28 359.361 L
590.875 279.073 L
591.47 292.757 L
592.065 230.138 L
592.66 399.394 L
593.255 429.465 L
593.85 236.754 L
594.445 360.278 L
595.04 300.563 L
595.635 378.155 L
596.23 365.973 L
S
GR
GS
[0.75 0 0 0.75 18 230] CT
0 GC
2 LJ
N
596.23 365.973 M
596.825 363.724 L
597.42 272.026 L
598.015 366.557 L
598.61 462.503 L
599.205 296.559 L
599.8 290.104 L
600.395 240.316 L
600.99 432.531 L
601.585 184.572 L
602.18 365.001 L
602.775 308.083 L
603.37 319.644 L
603.965 265.722 L
604.56 391.162 L
605.155 334.19 L
605.75 466.548 L
606.345 297.419 L
606.94 253.23 L
607.535 391.094 L
608.13 376.407 L
608.725 410.564 L
609.32 401.773 L
609.915 297.608 L
610.51 256.464 L
611.105 429.861 L
611.7 377.769 L
612.295 227.507 L
612.89 349.844 L
613.485 303.632 L
614.08 280.766 L
614.675 284.078 L
615.27 265.596 L
615.865 302.986 L
616.46 366.386 L
617.055 254.365 L
617.65 401.934 L
618.245 272.956 L
618.84 239.104 L
619.435 366.124 L
620.03 311.839 L
620.625 250.708 L
621.22 385.368 L
621.815 451.549 L
622.41 243.172 L
623.005 438.451 L
623.6 247.307 L
624.195 371.797 L
624.79 282.215 L
625.385 320.878 L
S
GR
GS
[0.75 0 0 0.75 18 230] CT
0 GC
2 LJ
N
625.385 320.878 M
625.98 304.592 L
626.575 435.833 L
627.17 302.499 L
627.765 361.454 L
628.36 400.206 L
628.955 272.381 L
629.55 336.907 L
630.145 468.612 L
630.74 323.221 L
631.335 317.309 L
631.93 381.606 L
632.525 309.333 L
633.12 274.126 L
633.715 374.213 L
634.31 405.741 L
634.905 375.667 L
635.5 412.779 L
636.095 336.537 L
636.69 437.244 L
637.285 269.13 L
637.88 243.259 L
638.475 374.512 L
639.07 275.907 L
639.665 382.823 L
640.26 226.607 L
640.855 403.906 L
641.45 267.358 L
642.045 346.767 L
642.64 355.42 L
643.235 335.043 L
643.83 338.048 L
644.425 295.491 L
645.02 357.421 L
645.615 399.163 L
646.21 324.035 L
646.805 217.292 L
647.4 282.144 L
647.995 376.478 L
648.59 356.354 L
649.185 278.385 L
649.78 260.34 L
650.375 444.789 L
650.97 383.153 L
651.565 254.919 L
652.16 279.34 L
652.755 398.129 L
653.35 358.094 L
653.945 398.193 L
654.54 325.338 L
S
GR
GS
[0.75 0 0 0.75 18 230] CT
0 GC
2 LJ
N
654.54 325.338 M
655.135 309.891 L
655.73 423.51 L
656.325 382.199 L
656.92 390.505 L
657.515 348.774 L
658.11 406.739 L
658.705 418.719 L
659.3 308.357 L
659.895 300.386 L
660.49 332.64 L
661.085 415.675 L
661.68 376.252 L
662.275 293.268 L
662.87 219.526 L
663.465 346.335 L
664.06 290.948 L
664.655 246.972 L
665.25 288.207 L
665.845 288.215 L
666.44 364.027 L
667.035 281.865 L
667.63 374.4 L
668.225 355.138 L
668.82 323.474 L
669.415 430.741 L
670.01 422.182 L
670.605 366.65 L
671.2 327.144 L
671.795 268.652 L
672.39 277.731 L
672.985 291.875 L
673.58 357.913 L
674.175 282.969 L
674.77 265.916 L
675.365 265.928 L
675.96 298.499 L
676.555 285.982 L
677.15 369.081 L
677.745 322.408 L
678.34 390.739 L
678.935 383.076 L
679.53 289.265 L
680.125 326.104 L
680.72 392.302 L
681.315 280.877 L
681.91 321.346 L
682.505 229.471 L
683.1 260.161 L
683.695 401.053 L
S
GR
GS
[0.75 0 0 0.75 18 230] CT
0 GC
2 LJ
N
683.695 401.053 M
684.29 430.175 L
684.885 257.712 L
685.48 280.882 L
686.075 344.466 L
686.67 283.803 L
687.265 252.656 L
687.86 420.731 L
688.455 403.262 L
689.05 418.349 L
689.645 270.439 L
690.24 316.932 L
690.835 312.871 L
691.43 335.353 L
692.025 482.802 L
692.62 233.851 L
693.215 325.854 L
693.81 193.849 L
694.405 403.263 L
695 353.021 L
S
GR
GS
[0.75 0 0 0.75 316.12527 260.18749] CT
0 GC
/Helvetica-Bold 15 F
GS
[1 0 0 1 0 0] CT
-274 -4 moveto 
1 -1 scale
(Original<->Extracted Watermark Correlation Coefficents Alpha:1.0 Position:2) t 
GR
GR
showpage
%%Trailer
%%BoundingBox: 79 210 550 596
%%Pages: 1
%%EOF
