%!PS-Adobe-3.0
%%Creator: (MATLAB, The Mathworks, Inc. Version 8.5.0.197613 \(R2015a\). Operating System: Windows 7)
%%Title: ./output/WmIm_1_2/unrelatedWatermarkCorrelationCoefficient.eps
%%CreationDate: 2015-11-04T23:49:14
%%Pages: (atend)
%%BoundingBox: (atend)
%%LanguageLevel: 3
%%EndComments
%%BeginDefaults
%%EndDefaults
%%BeginProlog
%%EndProlog
%%BeginSetup
%%BeginResource: procset (Apache XML Graphics Std ProcSet) 1.2 0
%%Version: 1.2 0
%%Copyright: (Copyright 2001-2003,2010 The Apache Software Foundation. License terms: http://www.apache.org/licenses/LICENSE-2.0)
/bd{bind def}bind def
/ld{load def}bd
/GR/grestore ld
/M/moveto ld
/LJ/setlinejoin ld
/C/curveto ld
/f/fill ld
/LW/setlinewidth ld
/GC/setgray ld
/t/show ld
/N/newpath ld
/CT/concat ld
/cp/closepath ld
/S/stroke ld
/L/lineto ld
/CC/setcmykcolor ld
/A/ashow ld
/GS/gsave ld
/RC/setrgbcolor ld
/RM/rmoveto ld
/ML/setmiterlimit ld
/re {4 2 roll M
1 index 0 rlineto
0 exch rlineto
neg 0 rlineto
cp } bd
/_ctm matrix def
/_tm matrix def
/BT { _ctm currentmatrix pop matrix _tm copy pop 0 0 moveto } bd
/ET { _ctm setmatrix } bd
/iTm { _ctm setmatrix _tm concat } bd
/Tm { _tm astore pop iTm 0 0 moveto } bd
/ux 0.0 def
/uy 0.0 def
/F {
  /Tp exch def
  /Tf exch def
  Tf findfont Tp scalefont setfont
  /cf Tf def  /cs Tp def
} bd
/ULS {currentpoint /uy exch def /ux exch def} bd
/ULE {
  /Tcx currentpoint pop def
  gsave
  newpath
  cf findfont cs scalefont dup
  /FontMatrix get 0 get /Ts exch def /FontInfo get dup
  /UnderlinePosition get Ts mul /To exch def
  /UnderlineThickness get Ts mul /Tt exch def
  ux uy To add moveto  Tcx uy To add lineto
  Tt setlinewidth stroke
  grestore
} bd
/OLE {
  /Tcx currentpoint pop def
  gsave
  newpath
  cf findfont cs scalefont dup
  /FontMatrix get 0 get /Ts exch def /FontInfo get dup
  /UnderlinePosition get Ts mul /To exch def
  /UnderlineThickness get Ts mul /Tt exch def
  ux uy To add cs add moveto Tcx uy To add cs add lineto
  Tt setlinewidth stroke
  grestore
} bd
/SOE {
  /Tcx currentpoint pop def
  gsave
  newpath
  cf findfont cs scalefont dup
  /FontMatrix get 0 get /Ts exch def /FontInfo get dup
  /UnderlinePosition get Ts mul /To exch def
  /UnderlineThickness get Ts mul /Tt exch def
  ux uy To add cs 10 mul 26 idiv add moveto Tcx uy To add cs 10 mul 26 idiv add lineto
  Tt setlinewidth stroke
  grestore
} bd
/QT {
/Y22 exch store
/X22 exch store
/Y21 exch store
/X21 exch store
currentpoint
/Y21 load 2 mul add 3 div exch
/X21 load 2 mul add 3 div exch
/X21 load 2 mul /X22 load add 3 div
/Y21 load 2 mul /Y22 load add 3 div
/X22 load /Y22 load curveto
} bd
/SSPD {
dup length /d exch dict def
{
/v exch def
/k exch def
currentpagedevice k known {
/cpdv currentpagedevice k get def
v cpdv ne {
/upd false def
/nullv v type /nulltype eq def
/nullcpdv cpdv type /nulltype eq def
nullv nullcpdv or
{
/upd true def
} {
/sametype v type cpdv type eq def
sametype {
v type /arraytype eq {
/vlen v length def
/cpdvlen cpdv length def
vlen cpdvlen eq {
0 1 vlen 1 sub {
/i exch def
/obj v i get def
/cpdobj cpdv i get def
obj cpdobj ne {
/upd true def
exit
} if
} for
} {
/upd true def
} ifelse
} {
v type /dicttype eq {
v {
/dv exch def
/dk exch def
/cpddv cpdv dk get def
dv cpddv ne {
/upd true def
exit
} if
} forall
} {
/upd true def
} ifelse
} ifelse
} if
} ifelse
upd true eq {
d k v put
} if
} if
} if
} forall
d length 0 gt {
d setpagedevice
} if
} bd
%%EndResource
%%BeginResource: procset (Apache XML Graphics EPS ProcSet) 1.0 0
%%Version: 1.0 0
%%Copyright: (Copyright 2002-2003 The Apache Software Foundation. License terms: http://www.apache.org/licenses/LICENSE-2.0)
/BeginEPSF { %def
/b4_Inc_state save def         % Save state for cleanup
/dict_count countdictstack def % Count objects on dict stack
/op_count count 1 sub def      % Count objects on operand stack
userdict begin                 % Push userdict on dict stack
/showpage { } def              % Redefine showpage, { } = null proc
0 setgray 0 setlinecap         % Prepare graphics state
1 setlinewidth 0 setlinejoin
10 setmiterlimit [ ] 0 setdash newpath
/languagelevel where           % If level not equal to 1 then
{pop languagelevel             % set strokeadjust and
1 ne                           % overprint to their defaults.
{false setstrokeadjust false setoverprint
} if
} if
} bd
/EndEPSF { %def
count op_count sub {pop} repeat            % Clean up stacks
countdictstack dict_count sub {end} repeat
b4_Inc_state restore
} bd
%%EndResource
%FOPBeginFontDict
%%IncludeResource: font Courier-Bold
%%IncludeResource: font Helvetica
%%IncludeResource: font Courier-BoldOblique
%%IncludeResource: font Courier-Oblique
%%IncludeResource: font Times-Roman
%%IncludeResource: font Helvetica-BoldOblique
%%IncludeResource: font Helvetica-Bold
%%IncludeResource: font Helvetica-Oblique
%%IncludeResource: font Times-BoldItalic
%%IncludeResource: font Courier
%%IncludeResource: font Times-Italic
%%IncludeResource: font Times-Bold
%%IncludeResource: font Symbol
%%IncludeResource: font ZapfDingbats
%FOPEndFontDict
%%BeginResource: encoding WinAnsiEncoding
/WinAnsiEncoding [
/.notdef /.notdef /.notdef /.notdef /.notdef
/.notdef /.notdef /.notdef /.notdef /.notdef
/.notdef /.notdef /.notdef /.notdef /.notdef
/.notdef /.notdef /.notdef /.notdef /.notdef
/.notdef /.notdef /.notdef /.notdef /.notdef
/.notdef /.notdef /.notdef /.notdef /.notdef
/.notdef /.notdef /space /exclam /quotedbl
/numbersign /dollar /percent /ampersand /quotesingle
/parenleft /parenright /asterisk /plus /comma
/hyphen /period /slash /zero /one
/two /three /four /five /six
/seven /eight /nine /colon /semicolon
/less /equal /greater /question /at
/A /B /C /D /E
/F /G /H /I /J
/K /L /M /N /O
/P /Q /R /S /T
/U /V /W /X /Y
/Z /bracketleft /backslash /bracketright /asciicircum
/underscore /quoteleft /a /b /c
/d /e /f /g /h
/i /j /k /l /m
/n /o /p /q /r
/s /t /u /v /w
/x /y /z /braceleft /bar
/braceright /asciitilde /bullet /Euro /bullet
/quotesinglbase /florin /quotedblbase /ellipsis /dagger
/daggerdbl /circumflex /perthousand /Scaron /guilsinglleft
/OE /bullet /Zcaron /bullet /bullet
/quoteleft /quoteright /quotedblleft /quotedblright /bullet
/endash /emdash /asciitilde /trademark /scaron
/guilsinglright /oe /bullet /zcaron /Ydieresis
/space /exclamdown /cent /sterling /currency
/yen /brokenbar /section /dieresis /copyright
/ordfeminine /guillemotleft /logicalnot /sfthyphen /registered
/macron /degree /plusminus /twosuperior /threesuperior
/acute /mu /paragraph /middot /cedilla
/onesuperior /ordmasculine /guillemotright /onequarter /onehalf
/threequarters /questiondown /Agrave /Aacute /Acircumflex
/Atilde /Adieresis /Aring /AE /Ccedilla
/Egrave /Eacute /Ecircumflex /Edieresis /Igrave
/Iacute /Icircumflex /Idieresis /Eth /Ntilde
/Ograve /Oacute /Ocircumflex /Otilde /Odieresis
/multiply /Oslash /Ugrave /Uacute /Ucircumflex
/Udieresis /Yacute /Thorn /germandbls /agrave
/aacute /acircumflex /atilde /adieresis /aring
/ae /ccedilla /egrave /eacute /ecircumflex
/edieresis /igrave /iacute /icircumflex /idieresis
/eth /ntilde /ograve /oacute /ocircumflex
/otilde /odieresis /divide /oslash /ugrave
/uacute /ucircumflex /udieresis /yacute /thorn
/ydieresis
] def
%%EndResource
%FOPBeginFontReencode
/Courier-Bold findfont
dup length dict begin
  {1 index /FID ne {def} {pop pop} ifelse} forall
  /Encoding WinAnsiEncoding def
  currentdict
end
/Courier-Bold exch definefont pop
/Helvetica findfont
dup length dict begin
  {1 index /FID ne {def} {pop pop} ifelse} forall
  /Encoding WinAnsiEncoding def
  currentdict
end
/Helvetica exch definefont pop
/Courier-BoldOblique findfont
dup length dict begin
  {1 index /FID ne {def} {pop pop} ifelse} forall
  /Encoding WinAnsiEncoding def
  currentdict
end
/Courier-BoldOblique exch definefont pop
/Courier-Oblique findfont
dup length dict begin
  {1 index /FID ne {def} {pop pop} ifelse} forall
  /Encoding WinAnsiEncoding def
  currentdict
end
/Courier-Oblique exch definefont pop
/Times-Roman findfont
dup length dict begin
  {1 index /FID ne {def} {pop pop} ifelse} forall
  /Encoding WinAnsiEncoding def
  currentdict
end
/Times-Roman exch definefont pop
/Helvetica-BoldOblique findfont
dup length dict begin
  {1 index /FID ne {def} {pop pop} ifelse} forall
  /Encoding WinAnsiEncoding def
  currentdict
end
/Helvetica-BoldOblique exch definefont pop
/Helvetica-Bold findfont
dup length dict begin
  {1 index /FID ne {def} {pop pop} ifelse} forall
  /Encoding WinAnsiEncoding def
  currentdict
end
/Helvetica-Bold exch definefont pop
/Helvetica-Oblique findfont
dup length dict begin
  {1 index /FID ne {def} {pop pop} ifelse} forall
  /Encoding WinAnsiEncoding def
  currentdict
end
/Helvetica-Oblique exch definefont pop
/Times-BoldItalic findfont
dup length dict begin
  {1 index /FID ne {def} {pop pop} ifelse} forall
  /Encoding WinAnsiEncoding def
  currentdict
end
/Times-BoldItalic exch definefont pop
/Courier findfont
dup length dict begin
  {1 index /FID ne {def} {pop pop} ifelse} forall
  /Encoding WinAnsiEncoding def
  currentdict
end
/Courier exch definefont pop
/Times-Italic findfont
dup length dict begin
  {1 index /FID ne {def} {pop pop} ifelse} forall
  /Encoding WinAnsiEncoding def
  currentdict
end
/Times-Italic exch definefont pop
/Times-Bold findfont
dup length dict begin
  {1 index /FID ne {def} {pop pop} ifelse} forall
  /Encoding WinAnsiEncoding def
  currentdict
end
/Times-Bold exch definefont pop
%FOPEndFontReencode
%%EndSetup
%%Page: 1 1
%%PageBoundingBox: 0 0 595 842
%%BeginPageSetup
<<
/PageSize [595 842]
/ImagingBBox null
>> setpagedevice
[1 0 0 -1 0 842] CT
%%EndPageSetup
GS
[0.75 0 0 0.75 18 230] CT
0.997 GC
N
0 0 768 576 re
f
GR
GS
[0.75 0 0 0.75 18 230] CT
0.997 GC
N
0 0 768 576 re
f
GR
GS
[0.75 0 0 0.75 18 230] CT
0.997 GC
N
100 513 M
695 513 L
695 43 L
100 43 L
cp
f
GR
GS
[0.75 0 0 0.75 18 230] CT
0 GC
2 setlinecap
10.0 ML
N
100 513 M
695 513 L
S
GR
GS
[0.75 0 0 0.75 18 230] CT
0 GC
2 setlinecap
10.0 ML
N
100 43 M
695 43 L
S
GR
GS
[0.75 0 0 0.75 18 230] CT
0 GC
2 setlinecap
10.0 ML
N
100 513 M
100 507.05 L
S
GR
GS
[0.75 0 0 0.75 18 230] CT
0 GC
2 setlinecap
10.0 ML
N
159.5 513 M
159.5 507.05 L
S
GR
GS
[0.75 0 0 0.75 18 230] CT
0 GC
2 setlinecap
10.0 ML
N
219 513 M
219 507.05 L
S
GR
GS
[0.75 0 0 0.75 18 230] CT
0 GC
2 setlinecap
10.0 ML
N
278.5 513 M
278.5 507.05 L
S
GR
GS
[0.75 0 0 0.75 18 230] CT
0 GC
2 setlinecap
10.0 ML
N
338 513 M
338 507.05 L
S
GR
GS
[0.75 0 0 0.75 18 230] CT
0 GC
2 setlinecap
10.0 ML
N
397.5 513 M
397.5 507.05 L
S
GR
GS
[0.75 0 0 0.75 18 230] CT
0 GC
2 setlinecap
10.0 ML
N
457 513 M
457 507.05 L
S
GR
GS
[0.75 0 0 0.75 18 230] CT
0 GC
2 setlinecap
10.0 ML
N
516.5 513 M
516.5 507.05 L
S
GR
GS
[0.75 0 0 0.75 18 230] CT
0 GC
2 setlinecap
10.0 ML
N
576 513 M
576 507.05 L
S
GR
GS
[0.75 0 0 0.75 18 230] CT
0 GC
2 setlinecap
10.0 ML
N
635.5 513 M
635.5 507.05 L
S
GR
GS
[0.75 0 0 0.75 18 230] CT
0 GC
2 setlinecap
10.0 ML
N
695 513 M
695 507.05 L
S
GR
GS
[0.75 0 0 0.75 18 230] CT
0 GC
2 setlinecap
10.0 ML
N
100 43 M
100 48.95 L
S
GR
GS
[0.75 0 0 0.75 18 230] CT
0 GC
2 setlinecap
10.0 ML
N
159.5 43 M
159.5 48.95 L
S
GR
GS
[0.75 0 0 0.75 18 230] CT
0 GC
2 setlinecap
10.0 ML
N
219 43 M
219 48.95 L
S
GR
GS
[0.75 0 0 0.75 18 230] CT
0 GC
2 setlinecap
10.0 ML
N
278.5 43 M
278.5 48.95 L
S
GR
GS
[0.75 0 0 0.75 18 230] CT
0 GC
2 setlinecap
10.0 ML
N
338 43 M
338 48.95 L
S
GR
GS
[0.75 0 0 0.75 18 230] CT
0 GC
2 setlinecap
10.0 ML
N
397.5 43 M
397.5 48.95 L
S
GR
GS
[0.75 0 0 0.75 18 230] CT
0 GC
2 setlinecap
10.0 ML
N
457 43 M
457 48.95 L
S
GR
GS
[0.75 0 0 0.75 18 230] CT
0 GC
2 setlinecap
10.0 ML
N
516.5 43 M
516.5 48.95 L
S
GR
GS
[0.75 0 0 0.75 18 230] CT
0 GC
2 setlinecap
10.0 ML
N
576 43 M
576 48.95 L
S
GR
GS
[0.75 0 0 0.75 18 230] CT
0 GC
2 setlinecap
10.0 ML
N
635.5 43 M
635.5 48.95 L
S
GR
GS
[0.75 0 0 0.75 18 230] CT
0 GC
2 setlinecap
10.0 ML
N
695 43 M
695 48.95 L
S
GR
GS
[0.75 0 0 0.75 93 618.74998] CT
0 GC
/Helvetica 13 F
GS
[1 0 0 1 0 0] CT
-4 14 moveto 
1 -1 scale
(0) t 
GR
GR
GS
[0.75 0 0 0.75 137.625 618.74998] CT
0 GC
/Helvetica 13 F
GS
[1 0 0 1 0 0] CT
-11 14 moveto 
1 -1 scale
(100) t 
GR
GR
GS
[0.75 0 0 0.75 182.25 618.74998] CT
0 GC
/Helvetica 13 F
GS
[1 0 0 1 0 0] CT
-11 14 moveto 
1 -1 scale
(200) t 
GR
GR
GS
[0.75 0 0 0.75 226.875 618.74998] CT
0 GC
/Helvetica 13 F
GS
[1 0 0 1 0 0] CT
-11 14 moveto 
1 -1 scale
(300) t 
GR
GR
GS
[0.75 0 0 0.75 271.5 618.74998] CT
0 GC
/Helvetica 13 F
GS
[1 0 0 1 0 0] CT
-11 14 moveto 
1 -1 scale
(400) t 
GR
GR
GS
[0.75 0 0 0.75 316.125 618.74998] CT
0 GC
/Helvetica 13 F
GS
[1 0 0 1 0 0] CT
-11 14 moveto 
1 -1 scale
(500) t 
GR
GR
GS
[0.75 0 0 0.75 360.75 618.74998] CT
0 GC
/Helvetica 13 F
GS
[1 0 0 1 0 0] CT
-11 14 moveto 
1 -1 scale
(600) t 
GR
GR
GS
[0.75 0 0 0.75 405.375 618.74998] CT
0 GC
/Helvetica 13 F
GS
[1 0 0 1 0 0] CT
-11 14 moveto 
1 -1 scale
(700) t 
GR
GR
GS
[0.75 0 0 0.75 450 618.74998] CT
0 GC
/Helvetica 13 F
GS
[1 0 0 1 0 0] CT
-11 14 moveto 
1 -1 scale
(800) t 
GR
GR
GS
[0.75 0 0 0.75 494.625 618.74998] CT
0 GC
/Helvetica 13 F
GS
[1 0 0 1 0 0] CT
-11 14 moveto 
1 -1 scale
(900) t 
GR
GR
GS
[0.75 0 0 0.75 539.25 618.74998] CT
0 GC
/Helvetica 13 F
GS
[1 0 0 1 0 0] CT
-14.5 14 moveto 
1 -1 scale
(1000) t 
GR
GR
GS
[0.75 0 0 0.75 18 230] CT
0 GC
2 setlinecap
10.0 ML
N
100 513 M
100 43 L
S
GR
GS
[0.75 0 0 0.75 18 230] CT
0 GC
2 setlinecap
10.0 ML
N
695 513 M
695 43 L
S
GR
GS
[0.75 0 0 0.75 18 230] CT
0 GC
2 setlinecap
10.0 ML
N
100 513 M
105.95 513 L
S
GR
GS
[0.75 0 0 0.75 18 230] CT
0 GC
2 setlinecap
10.0 ML
N
100 434.667 M
105.95 434.667 L
S
GR
GS
[0.75 0 0 0.75 18 230] CT
0 GC
2 setlinecap
10.0 ML
N
100 356.333 M
105.95 356.333 L
S
GR
GS
[0.75 0 0 0.75 18 230] CT
0 GC
2 setlinecap
10.0 ML
N
100 278 M
105.95 278 L
S
GR
GS
[0.75 0 0 0.75 18 230] CT
0 GC
2 setlinecap
10.0 ML
N
100 199.667 M
105.95 199.667 L
S
GR
GS
[0.75 0 0 0.75 18 230] CT
0 GC
2 setlinecap
10.0 ML
N
100 121.333 M
105.95 121.333 L
S
GR
GS
[0.75 0 0 0.75 18 230] CT
0 GC
2 setlinecap
10.0 ML
N
100 43 M
105.95 43 L
S
GR
GS
[0.75 0 0 0.75 18 230] CT
0 GC
2 setlinecap
10.0 ML
N
695 513 M
689.05 513 L
S
GR
GS
[0.75 0 0 0.75 18 230] CT
0 GC
2 setlinecap
10.0 ML
N
695 434.667 M
689.05 434.667 L
S
GR
GS
[0.75 0 0 0.75 18 230] CT
0 GC
2 setlinecap
10.0 ML
N
695 356.333 M
689.05 356.333 L
S
GR
GS
[0.75 0 0 0.75 18 230] CT
0 GC
2 setlinecap
10.0 ML
N
695 278 M
689.05 278 L
S
GR
GS
[0.75 0 0 0.75 18 230] CT
0 GC
2 setlinecap
10.0 ML
N
695 199.667 M
689.05 199.667 L
S
GR
GS
[0.75 0 0 0.75 18 230] CT
0 GC
2 setlinecap
10.0 ML
N
695 121.333 M
689.05 121.333 L
S
GR
GS
[0.75 0 0 0.75 18 230] CT
0 GC
2 setlinecap
10.0 ML
N
695 43 M
689.05 43 L
S
GR
GS
[0.75 0 0 0.75 89 614.75] CT
0 GC
/Helvetica 13 F
GS
[1 0 0 1 0 0] CT
-12 5.5 moveto 
1 -1 scale
(-3) t 
GR
GR
GS
[0.75 0 0 0.75 89 555.99999] CT
0 GC
/Helvetica 13 F
GS
[1 0 0 1 0 0] CT
-12 5.5 moveto 
1 -1 scale
(-2) t 
GR
GR
GS
[0.75 0 0 0.75 89 497.25001] CT
0 GC
/Helvetica 13 F
GS
[1 0 0 1 0 0] CT
-12 5.5 moveto 
1 -1 scale
(-1) t 
GR
GR
GS
[0.75 0 0 0.75 89 438.5] CT
0 GC
/Helvetica 13 F
GS
[1 0 0 1 0 0] CT
-8 5.5 moveto 
1 -1 scale
(0) t 
GR
GR
GS
[0.75 0 0 0.75 89 379.75] CT
0 GC
/Helvetica 13 F
GS
[1 0 0 1 0 0] CT
-8 5.5 moveto 
1 -1 scale
(1) t 
GR
GR
GS
[0.75 0 0 0.75 89 321] CT
0 GC
/Helvetica 13 F
GS
[1 0 0 1 0 0] CT
-8 5.5 moveto 
1 -1 scale
(2) t 
GR
GR
GS
[0.75 0 0 0.75 89 262.25] CT
0 GC
/Helvetica 13 F
GS
[1 0 0 1 0 0] CT
-8 5.5 moveto 
1 -1 scale
(3) t 
GR
GR
GS
[0.75 0 0 0.75 18 230] CT
0 GC
2 LJ
N
100.595 361.437 M
101.19 303.937 L
101.785 330.643 L
102.38 272.85 L
102.975 317.863 L
103.57 288.38 L
104.165 194.696 L
104.76 285.226 L
105.355 335.228 L
105.95 198.188 L
106.545 319.332 L
107.14 212.565 L
107.735 131.853 L
108.33 326.102 L
108.925 318.716 L
109.52 421.596 L
110.115 374.866 L
110.71 255.118 L
111.305 153.352 L
111.9 250.167 L
112.495 348.466 L
113.09 254.703 L
113.685 131.095 L
114.28 145.852 L
114.875 389.74 L
115.47 254.439 L
116.065 300.116 L
116.66 442.475 L
117.255 267.164 L
117.85 259.583 L
118.445 301.771 L
119.04 265.113 L
119.635 245.36 L
120.23 314.917 L
120.825 183.379 L
121.42 363.097 L
122.015 328.784 L
122.61 316.081 L
123.205 355.321 L
123.8 255.414 L
124.395 317.522 L
124.99 324.854 L
125.585 211.693 L
126.18 393.326 L
126.775 316.092 L
127.37 150.699 L
127.965 337.938 L
128.56 395.734 L
129.155 332.466 L
129.75 253.923 L
S
GR
GS
[0.75 0 0 0.75 18 230] CT
0 GC
2 LJ
N
129.75 253.923 M
130.345 352.154 L
130.94 182.929 L
131.535 205.632 L
132.13 170.625 L
132.725 286.877 L
133.32 214.329 L
133.915 210.572 L
134.51 352.094 L
135.105 281.813 L
135.7 253.05 L
136.295 308.212 L
136.89 357.462 L
137.485 249.912 L
138.08 245.768 L
138.675 316.752 L
139.27 342.554 L
139.865 296.903 L
140.46 288.203 L
141.055 288.751 L
141.65 218.874 L
142.245 165.828 L
142.84 196.593 L
143.435 207.091 L
144.03 306.499 L
144.625 281.674 L
145.22 282.663 L
145.815 320.125 L
146.41 320.463 L
147.005 292.858 L
147.6 360.516 L
148.195 356.552 L
148.79 275.231 L
149.385 320.073 L
149.98 150.809 L
150.575 200.047 L
151.17 295.459 L
151.765 226.028 L
152.36 290.8 L
152.955 363.242 L
153.55 213.933 L
154.145 227.724 L
154.74 274.158 L
155.335 284.435 L
155.93 340.741 L
156.525 373.804 L
157.12 307.575 L
157.715 415.27 L
158.31 174.65 L
158.905 237.951 L
S
GR
GS
[0.75 0 0 0.75 18 230] CT
0 GC
2 LJ
N
158.905 237.951 M
159.5 192.181 L
160.095 263.278 L
160.69 216.113 L
161.285 347.581 L
161.88 295.429 L
162.475 394.354 L
163.07 268.747 L
163.665 244.838 L
164.26 212.946 L
164.855 428.091 L
165.45 362.591 L
166.045 299.603 L
166.64 361.543 L
167.235 133.754 L
167.83 319.048 L
168.425 266.138 L
169.02 241.009 L
169.615 391.349 L
170.21 347.816 L
170.805 213.066 L
171.4 169.531 L
171.995 219.171 L
172.59 190.985 L
173.185 243.618 L
173.78 267.88 L
174.375 382.907 L
174.97 343.526 L
175.565 289.864 L
176.16 381.413 L
176.755 272.118 L
177.35 170.194 L
177.945 285.461 L
178.54 221.036 L
179.135 372.107 L
179.73 290.734 L
180.325 322.885 L
180.92 292.029 L
181.515 272.531 L
182.11 247.564 L
182.705 208.717 L
183.3 309.659 L
183.895 247.126 L
184.49 248.007 L
185.085 152.686 L
185.68 248.995 L
186.275 175.941 L
186.87 261.43 L
187.465 274.384 L
188.06 246.883 L
S
GR
GS
[0.75 0 0 0.75 18 230] CT
0 GC
2 LJ
N
188.06 246.883 M
188.655 330.059 L
189.25 325.031 L
189.845 230.198 L
190.44 131.405 L
191.035 198.916 L
191.63 117.849 L
192.225 281.654 L
192.82 220.37 L
193.415 162.26 L
194.01 366.299 L
194.605 378.497 L
195.2 217.792 L
195.795 347.445 L
196.39 163.151 L
196.985 224.694 L
197.58 230.253 L
198.175 283.514 L
198.77 397.436 L
199.365 248.948 L
199.96 284.131 L
200.555 376.365 L
201.15 318.763 L
201.745 336.947 L
202.34 188.768 L
202.935 403.391 L
203.53 126.455 L
204.125 374.795 L
204.72 235.985 L
205.315 265.898 L
205.91 273.848 L
206.505 125.801 L
207.1 229.77 L
207.695 170.684 L
208.29 349.944 L
208.885 337.349 L
209.48 349.161 L
210.075 274.906 L
210.67 345.413 L
211.265 146.778 L
211.86 247.061 L
212.455 324.844 L
213.05 351.931 L
213.645 282.125 L
214.24 436.371 L
214.835 294.51 L
215.43 231.991 L
216.025 259.171 L
216.62 251.82 L
217.215 166.013 L
S
GR
GS
[0.75 0 0 0.75 18 230] CT
0 GC
2 LJ
N
217.215 166.013 M
217.81 326.688 L
218.405 234.791 L
219 262.047 L
219.595 284.331 L
220.19 203.153 L
220.785 179.695 L
221.38 251.684 L
221.975 158.39 L
222.57 294.273 L
223.165 305.074 L
223.76 389.306 L
224.355 239.504 L
224.95 375.893 L
225.545 150.698 L
226.14 345.304 L
226.735 284.532 L
227.33 345.544 L
227.925 272.234 L
228.52 155.928 L
229.115 217.889 L
229.71 366.172 L
230.305 237.56 L
230.9 420.342 L
231.495 349.003 L
232.09 310.58 L
232.685 358.222 L
233.28 165.565 L
233.875 324.797 L
234.47 236.279 L
235.065 136.869 L
235.66 173.315 L
236.255 103.24 L
236.85 346.022 L
237.445 284.674 L
238.04 205.942 L
238.635 115.134 L
239.23 186.137 L
239.825 265.604 L
240.42 401.223 L
241.015 137.462 L
241.61 300.583 L
242.205 243.48 L
242.8 281.132 L
243.395 348.992 L
243.99 273.828 L
244.585 340.524 L
245.18 238.103 L
245.775 360.611 L
246.37 189.924 L
S
GR
GS
[0.75 0 0 0.75 18 230] CT
0 GC
2 LJ
N
246.37 189.924 M
246.965 410.504 L
247.56 197.211 L
248.155 268.754 L
248.75 361.437 L
249.345 367.143 L
249.94 200.262 L
250.535 180.402 L
251.13 297.074 L
251.725 429.878 L
252.32 343.084 L
252.915 279.854 L
253.51 229.367 L
254.105 191.571 L
254.7 211.191 L
255.295 414.026 L
255.89 306.73 L
256.485 230.781 L
257.08 215.371 L
257.675 267.705 L
258.27 307.138 L
258.865 170.984 L
259.46 392.149 L
260.055 187.665 L
260.65 352.049 L
261.245 258.677 L
261.84 229.473 L
262.435 106.829 L
263.03 331.679 L
263.625 241.976 L
264.22 357.145 L
264.815 303.456 L
265.41 307.193 L
266.005 292.527 L
266.6 202.521 L
267.195 197.228 L
267.79 158.48 L
268.385 208.173 L
268.98 311.763 L
269.575 300.859 L
270.17 155.795 L
270.765 242.027 L
271.36 353.909 L
271.955 239.225 L
272.55 292.997 L
273.145 230.774 L
273.74 165.439 L
274.335 322.553 L
274.93 404.817 L
275.525 196.229 L
S
GR
GS
[0.75 0 0 0.75 18 230] CT
0 GC
2 LJ
N
275.525 196.229 M
276.12 150.782 L
276.715 299.563 L
277.31 279.935 L
277.905 323.303 L
278.5 175.409 L
279.095 162.811 L
279.69 329.823 L
280.285 314.501 L
280.88 203.63 L
281.475 409.565 L
282.07 155.192 L
282.665 202.285 L
283.26 355.233 L
283.855 313.33 L
284.45 332.857 L
285.045 326.776 L
285.64 228.353 L
286.235 243.305 L
286.83 388.473 L
287.425 358.515 L
288.02 214.287 L
288.615 181.269 L
289.21 288.629 L
289.805 189.5 L
290.4 383.176 L
290.995 166.764 L
291.59 284.628 L
292.185 235.801 L
292.78 217.169 L
293.375 201.118 L
293.97 357.274 L
294.565 229.551 L
295.16 262.027 L
295.755 161.056 L
296.35 329.769 L
296.945 349.41 L
297.54 480.23 L
298.135 147.059 L
298.73 178.151 L
299.325 248.28 L
299.92 332.654 L
300.515 370.998 L
301.11 115.432 L
301.705 215.236 L
302.3 191.491 L
302.895 199.497 L
303.49 182.305 L
304.085 380.898 L
304.68 359.767 L
S
GR
GS
[0.75 0 0 0.75 18 230] CT
0 GC
2 LJ
N
304.68 359.767 M
305.275 222.357 L
305.87 345.408 L
306.465 204.214 L
307.06 238.807 L
307.655 323.161 L
308.25 370.491 L
308.845 269.866 L
309.44 244.047 L
310.035 290.679 L
310.63 360.1 L
311.225 373.619 L
311.82 189.658 L
312.415 405.41 L
313.01 302.553 L
313.605 350.986 L
314.2 278.319 L
314.795 293.265 L
315.39 226.337 L
315.985 262.519 L
316.58 144.902 L
317.175 401.219 L
317.77 328.56 L
318.365 277.812 L
318.96 259.704 L
319.555 270.409 L
320.15 413.687 L
320.745 177.428 L
321.34 232.161 L
321.935 233.46 L
322.53 326.995 L
323.125 355.925 L
323.72 374.348 L
324.315 416.353 L
324.91 282.74 L
325.505 306.567 L
326.1 159.365 L
326.695 206.44 L
327.29 279.579 L
327.885 184.72 L
328.48 332.092 L
329.075 206.515 L
329.67 208.307 L
330.265 313.37 L
330.86 260.061 L
331.455 278.894 L
332.05 192.41 L
332.645 323.7 L
333.24 322.053 L
333.835 196.289 L
S
GR
GS
[0.75 0 0 0.75 18 230] CT
0 GC
2 LJ
N
333.835 196.289 M
334.43 348.168 L
335.025 187.154 L
335.62 241.053 L
336.215 123.632 L
336.81 212.178 L
337.405 303.286 L
338 374.255 L
338.595 383.937 L
339.19 323.454 L
339.785 313.356 L
340.38 163.019 L
340.975 321.246 L
341.57 341.303 L
342.165 399.272 L
342.76 358.272 L
343.355 229.715 L
343.95 346.984 L
344.545 158.166 L
345.14 370.22 L
345.735 286.988 L
346.33 242.592 L
346.925 237.197 L
347.52 384.554 L
348.115 239.915 L
348.71 209.338 L
349.305 283.729 L
349.9 246.31 L
350.495 344.635 L
351.09 287.208 L
351.685 246.389 L
352.28 224.446 L
352.875 190.558 L
353.47 292.395 L
354.065 307.272 L
354.66 402.308 L
355.255 217.299 L
355.85 321.812 L
356.445 223.605 L
357.04 360.675 L
357.635 389.876 L
358.23 350.125 L
358.825 216.491 L
359.42 184.877 L
360.015 173.715 L
360.61 194.916 L
361.205 175.595 L
361.8 213.339 L
362.395 253.487 L
362.99 207.629 L
S
GR
GS
[0.75 0 0 0.75 18 230] CT
0 GC
2 LJ
N
362.99 207.629 M
363.585 283.228 L
364.18 186.827 L
364.775 196.697 L
365.37 251.424 L
365.965 258.455 L
366.56 318.064 L
367.155 332.65 L
367.75 169.516 L
368.345 269.946 L
368.94 352.915 L
369.535 357.916 L
370.13 164.378 L
370.725 322.232 L
371.32 322.229 L
371.915 335.398 L
372.51 202.123 L
373.105 201.329 L
373.7 232.846 L
374.295 197.186 L
374.89 272.981 L
375.485 343.561 L
376.08 200.044 L
376.675 355.208 L
377.27 186.818 L
377.865 318.68 L
378.46 220.958 L
379.055 297.55 L
379.65 200.319 L
380.245 210.889 L
380.84 395.869 L
381.435 260.629 L
382.03 236.835 L
382.625 291.464 L
383.22 301.015 L
383.815 189.55 L
384.41 340.082 L
385.005 192.627 L
385.6 343.662 L
386.195 343.932 L
386.79 197.581 L
387.385 417.914 L
387.98 369.678 L
388.575 325.587 L
389.17 382.678 L
389.765 138.109 L
390.36 215.497 L
390.955 299.476 L
391.55 294.959 L
392.145 154.842 L
S
GR
GS
[0.75 0 0 0.75 18 230] CT
0 GC
2 LJ
N
392.145 154.842 M
392.74 358.428 L
393.335 372.738 L
393.93 257.71 L
394.525 348.628 L
395.12 334.84 L
395.715 138.98 L
396.31 286.752 L
396.905 373.219 L
397.5 342.602 L
398.095 413.336 L
398.69 187.259 L
399.285 316.253 L
399.88 154.233 L
400.475 194.046 L
401.07 361.997 L
401.665 220.504 L
402.26 312.766 L
402.855 236.721 L
403.45 256.46 L
404.045 201.007 L
404.64 190.274 L
405.235 324.651 L
405.83 416.375 L
406.425 212.7 L
407.02 379.006 L
407.615 358.912 L
408.21 299.338 L
408.805 234.246 L
409.4 375.293 L
409.995 192.397 L
410.59 156.524 L
411.185 302.092 L
411.78 344.377 L
412.375 265.895 L
412.97 282.734 L
413.565 277.725 L
414.16 239.12 L
414.755 198.242 L
415.35 158.848 L
415.945 222.873 L
416.54 233.048 L
417.135 165.565 L
417.73 166.91 L
418.325 212.549 L
418.92 414.855 L
419.515 403.185 L
420.11 410.22 L
420.705 316.26 L
421.3 400.279 L
S
GR
GS
[0.75 0 0 0.75 18 230] CT
0 GC
2 LJ
N
421.3 400.279 M
421.895 393.359 L
422.49 220.196 L
423.085 262.345 L
423.68 265.669 L
424.275 349.801 L
424.87 263.986 L
425.465 345.559 L
426.06 126.837 L
426.655 313.563 L
427.25 193.409 L
427.845 252.893 L
428.44 192.987 L
429.035 304.373 L
429.63 338.003 L
430.225 400.512 L
430.82 340.473 L
431.415 258.415 L
432.01 179.299 L
432.605 242.658 L
433.2 393.81 L
433.795 394.596 L
434.39 245.12 L
434.985 322.226 L
435.58 250.485 L
436.175 160.402 L
436.77 287.655 L
437.365 175.335 L
437.96 284.187 L
438.555 392.308 L
439.15 252.409 L
439.745 378.741 L
440.34 243.318 L
440.935 264.437 L
441.53 296.178 L
442.125 183.374 L
442.72 174.62 L
443.315 368.645 L
443.91 385.172 L
444.505 325.125 L
445.1 214.685 L
445.695 205.747 L
446.29 287.061 L
446.885 126.842 L
447.48 316.187 L
448.075 478.722 L
448.67 362.905 L
449.265 97.286 L
449.86 176.029 L
450.455 276.307 L
S
GR
GS
[0.75 0 0 0.75 18 230] CT
0 GC
2 LJ
N
450.455 276.307 M
451.05 398.509 L
451.645 328.85 L
452.24 309.089 L
452.835 398.099 L
453.43 318.24 L
454.025 383.158 L
454.62 325.475 L
455.215 227.6 L
455.81 330.649 L
456.405 379.473 L
457 201.811 L
457.595 376.727 L
458.19 372.831 L
458.785 225.155 L
459.38 209.557 L
459.975 134.164 L
460.57 265.514 L
461.165 292.322 L
461.76 217.551 L
462.355 377.584 L
462.95 269.174 L
463.545 288.919 L
464.14 316.642 L
464.735 187.838 L
465.33 324.785 L
465.925 233.82 L
466.52 380.926 L
467.115 138.727 L
467.71 326.124 L
468.305 124.58 L
468.9 241.93 L
469.495 304.775 L
470.09 283.76 L
470.685 403.49 L
471.28 197.603 L
471.875 173.001 L
472.47 331.526 L
473.065 332.563 L
473.66 361.404 L
474.255 334.434 L
474.85 175.43 L
475.445 231.787 L
476.04 314.06 L
476.635 227.616 L
477.23 296.234 L
477.825 360.812 L
478.42 301.298 L
479.015 148.1 L
479.61 149.532 L
S
GR
GS
[0.75 0 0 0.75 18 230] CT
0 GC
2 LJ
N
479.61 149.532 M
480.205 235.734 L
480.8 191.774 L
481.395 402.232 L
481.99 150.878 L
482.585 187.911 L
483.18 307.946 L
483.775 247.725 L
484.37 331.342 L
484.965 231.93 L
485.56 392.96 L
486.155 264.354 L
486.75 399.571 L
487.345 191.862 L
487.94 207.065 L
488.535 149.195 L
489.13 427.429 L
489.725 347.815 L
490.32 176.243 L
490.915 264.104 L
491.51 376.711 L
492.105 312.18 L
492.7 232.811 L
493.295 301.858 L
493.89 404.974 L
494.485 421.495 L
495.08 456.817 L
495.675 290.682 L
496.27 320.3 L
496.865 237.861 L
497.46 173.947 L
498.055 385.855 L
498.65 346.508 L
499.245 149.029 L
499.84 264.874 L
500.435 428.406 L
501.03 365.026 L
501.625 128.194 L
502.22 239.962 L
502.815 165.632 L
503.41 193.595 L
504.005 324.475 L
504.6 304.66 L
505.195 363.739 L
505.79 232.789 L
506.385 350.113 L
506.98 314.848 L
507.575 406.05 L
508.17 198.392 L
508.765 333.713 L
S
GR
GS
[0.75 0 0 0.75 18 230] CT
0 GC
2 LJ
N
508.765 333.713 M
509.36 284.291 L
509.955 378.559 L
510.55 258.117 L
511.145 320.853 L
511.74 173.297 L
512.335 177.801 L
512.93 218.841 L
513.525 335.112 L
514.12 320.292 L
514.715 241.66 L
515.31 155.121 L
515.905 268.666 L
516.5 406.637 L
517.095 280.019 L
517.69 370.676 L
518.285 406.314 L
518.88 272.436 L
519.475 358.936 L
520.07 224.469 L
520.665 321.763 L
521.26 328.182 L
521.855 273.526 L
522.45 176.807 L
523.045 180.166 L
523.64 345.398 L
524.235 323.514 L
524.83 100.502 L
525.425 297.407 L
526.02 363.291 L
526.615 142.655 L
527.21 304.176 L
527.805 267.701 L
528.4 314.235 L
528.995 255.299 L
529.59 210.473 L
530.185 322.901 L
530.78 200.662 L
531.375 340.381 L
531.97 384.641 L
532.565 234.909 L
533.16 193.448 L
533.755 246.999 L
534.35 325.099 L
534.945 183.463 L
535.54 357.32 L
536.135 379.671 L
536.73 253.279 L
537.325 317.605 L
537.92 298.221 L
S
GR
GS
[0.75 0 0 0.75 18 230] CT
0 GC
2 LJ
N
537.92 298.221 M
538.515 371.845 L
539.11 263.515 L
539.705 324.908 L
540.3 339.034 L
540.895 405.024 L
541.49 338.471 L
542.085 240.523 L
542.68 269.193 L
543.275 418.513 L
543.87 288.783 L
544.465 231.283 L
545.06 371.645 L
545.655 341.473 L
546.25 216.129 L
546.845 270.043 L
547.44 308.598 L
548.035 363.819 L
548.63 252.172 L
549.225 222.11 L
549.82 273.261 L
550.415 190.628 L
551.01 174.024 L
551.605 204.726 L
552.2 381.475 L
552.795 221.862 L
553.39 322.179 L
553.985 321.987 L
554.58 290.937 L
555.175 228.768 L
555.77 180.842 L
556.365 338.627 L
556.96 249.253 L
557.555 279.333 L
558.15 337.78 L
558.745 338.996 L
559.34 426.629 L
559.935 287.654 L
560.53 136.364 L
561.125 218.977 L
561.72 412.228 L
562.315 157.201 L
562.91 319.565 L
563.505 269.971 L
564.1 196.965 L
564.695 125.398 L
565.29 211.399 L
565.885 182.025 L
566.48 384.355 L
567.075 178.397 L
S
GR
GS
[0.75 0 0 0.75 18 230] CT
0 GC
2 LJ
N
567.075 178.397 M
567.67 334.52 L
568.265 387.198 L
568.86 293.394 L
569.455 391.678 L
570.05 256.639 L
570.645 354.513 L
571.24 358.498 L
571.835 409.01 L
572.43 340.423 L
573.025 391.3 L
573.62 184.061 L
574.215 208.099 L
574.81 283.908 L
575.405 307.793 L
576 399.138 L
576.595 374.93 L
577.19 194.192 L
577.785 398.532 L
578.38 187.962 L
578.975 348.677 L
579.57 381.532 L
580.165 340.329 L
580.76 237.645 L
581.355 246.545 L
581.95 274.652 L
582.545 222.161 L
583.14 333.311 L
583.735 274.589 L
584.33 426.116 L
584.925 197.888 L
585.52 379.031 L
586.115 232.631 L
586.71 251.504 L
587.305 173.568 L
587.9 131.483 L
588.495 286.891 L
589.09 164.84 L
589.685 197.114 L
590.28 308.148 L
590.875 201.097 L
591.47 219.342 L
592.065 135.851 L
592.66 361.525 L
593.255 401.619 L
593.85 144.672 L
594.445 309.37 L
595.04 229.751 L
595.635 333.207 L
596.23 316.964 L
S
GR
GS
[0.75 0 0 0.75 18 230] CT
0 GC
2 LJ
N
596.23 316.964 M
596.825 313.965 L
597.42 191.702 L
598.015 317.743 L
598.61 445.671 L
599.205 224.412 L
599.8 215.805 L
600.395 149.421 L
600.99 405.708 L
601.585 75.096 L
602.18 315.668 L
602.775 239.777 L
603.37 255.192 L
603.965 183.297 L
604.56 350.549 L
605.155 274.586 L
605.75 451.064 L
606.345 225.559 L
606.94 166.64 L
607.535 350.458 L
608.13 330.876 L
608.725 376.419 L
609.32 364.697 L
609.915 225.81 L
610.51 170.952 L
611.105 402.148 L
611.7 332.692 L
612.295 132.342 L
612.89 295.459 L
613.485 233.843 L
614.08 203.355 L
614.675 207.771 L
615.27 183.128 L
615.865 232.981 L
616.46 317.514 L
617.055 168.154 L
617.65 364.912 L
618.245 192.941 L
618.84 147.805 L
619.435 317.165 L
620.03 244.785 L
620.625 163.277 L
621.22 342.824 L
621.815 431.066 L
622.41 153.229 L
623.005 413.601 L
623.6 158.742 L
624.195 324.729 L
624.79 205.287 L
625.385 256.837 L
S
GR
GS
[0.75 0 0 0.75 18 230] CT
0 GC
2 LJ
N
625.385 256.837 M
625.98 235.123 L
626.575 410.11 L
627.17 232.331 L
627.765 310.938 L
628.36 362.609 L
628.955 192.175 L
629.55 278.209 L
630.145 453.816 L
630.74 259.961 L
631.335 252.079 L
631.93 337.808 L
632.525 241.444 L
633.12 194.501 L
633.715 327.951 L
634.31 369.988 L
634.905 329.889 L
635.5 379.371 L
636.095 277.716 L
636.69 411.992 L
637.285 187.84 L
637.88 153.346 L
638.475 328.349 L
639.07 196.876 L
639.665 339.43 L
640.26 131.143 L
640.855 367.541 L
641.45 185.477 L
642.045 291.356 L
642.64 302.893 L
643.235 275.724 L
643.83 279.73 L
644.425 222.987 L
645.02 305.562 L
645.615 361.217 L
646.21 261.047 L
646.805 118.723 L
647.4 205.192 L
647.995 330.97 L
648.59 304.138 L
649.185 200.18 L
649.78 176.12 L
650.375 422.052 L
650.97 339.87 L
651.565 168.892 L
652.16 201.453 L
652.755 359.839 L
653.35 306.459 L
653.945 359.924 L
654.54 262.783 L
S
GR
GS
[0.75 0 0 0.75 18 230] CT
0 GC
2 LJ
N
654.54 262.783 M
655.135 242.188 L
655.73 393.68 L
656.325 338.598 L
656.92 349.673 L
657.515 294.032 L
658.11 371.318 L
658.705 387.292 L
659.3 240.143 L
659.895 229.514 L
660.49 272.52 L
661.085 383.234 L
661.68 330.669 L
662.275 220.025 L
662.87 121.702 L
663.465 290.78 L
664.06 216.93 L
664.655 158.296 L
665.25 213.276 L
665.845 213.286 L
666.44 314.37 L
667.035 204.82 L
667.63 328.2 L
668.225 302.518 L
668.82 260.299 L
669.415 403.321 L
670.01 391.909 L
670.605 317.867 L
671.2 265.192 L
671.795 187.203 L
672.39 199.308 L
672.985 218.166 L
673.58 306.218 L
674.175 206.292 L
674.77 183.554 L
675.365 183.571 L
675.96 226.999 L
676.555 210.309 L
677.15 321.108 L
677.745 258.877 L
678.34 349.985 L
678.935 339.768 L
679.53 214.687 L
680.125 263.805 L
680.72 352.07 L
681.315 203.502 L
681.91 257.462 L
682.505 134.961 L
683.1 175.882 L
683.695 363.738 L
S
GR
GS
[0.75 0 0 0.75 18 230] CT
0 GC
2 LJ
N
683.695 363.738 M
684.29 402.566 L
684.885 172.616 L
685.48 203.509 L
686.075 288.288 L
686.67 207.404 L
687.265 165.875 L
687.86 389.974 L
688.455 366.682 L
689.05 386.799 L
689.645 189.586 L
690.24 251.576 L
690.835 246.162 L
691.43 276.137 L
692.025 472.736 L
692.62 140.802 L
693.215 263.471 L
693.81 87.465 L
694.405 366.684 L
695 299.694 L
S
GR
GS
[0.75 0 0 0.75 316.12527 260.1875] CT
0 GC
/Helvetica-Bold 15 F
GS
[1 0 0 1 0 0] CT
-280.5 -4 moveto 
1 -1 scale
(Unrelated<->Extracted Watermark Correlation Coefficents Alpha:1.0 Position:2) t 
GR
GR
showpage
%%Trailer
%%BoundingBox: 79 210 550 596
%%Pages: 1
%%EOF
